284	389	162	-567	54	237	34
833	336	138	-591	60	263	40
1352	337	171	-567	61	266	44
1872	368	62	-615	48	279	3
2392	353	67	-609	52	248	4
2911	355	21	-615	48	267	3
3430	360	64	-591	47	243	-4
3949	367	33	-602	45	249	-1
4468	367	46	-596	46	251	0
4988	376	30	-601	40	250	-2
5508	378	40	-597	41	257	1
6027	380	30	-600	47	254	2
6557	384	27	-598	42	244	-3
7076	387	20	-600	49	246	-4
7596	393	16	-599	43	250	-1
8115	398	16	-595	47	253	-1
8634	403	4	-598	47	248	-1
9153	409	1	-597	45	249	-1
9683	417	-2	-592	43	251	0
10209	424	-12	-593	45	251	0
10728	428	-23	-595	44	251	-1
11247	437	-31	-593	43	251	0
11766	446	-39	-589	45	250	0
12285	451	-49	-588	44	250	0
12805	452	-65	-593	44	250	-1
13325	461	-72	-590	46	251	0
13844	471	-84	-586	44	250	-1
14363	476	-95	-586	44	250	0
14882	478	-115	-589	45	251	-1
15401	483	-127	-588	45	249	-1
15922	490	-142	-585	44	251	0
16441	497	-156	-582	45	249	1
16972	496	-175	-587	44	251	0
17491	497	-192	-586	45	251	0
18011	504	-209	-583	43	251	-1
18530	506	-223	-582	44	250	-1
19066	500	-246	-586	44	250	0
19586	499	-263	-588	43	250	0
20105	501	-284	-584	44	250	0
20625	499	-306	-583	45	250	0
21144	491	-326	-588	43	251	1
21663	481	-345	-588	44	249	0
22182	477	-364	-587	45	250	0
22703	471	-386	-585	44	251	0
23222	459	-402	-589	44	250	-1
23741	446	-422	-595	44	251	0
24260	436	-439	-591	44	250	0
24780	425	-461	-591	44	250	0
25299	408	-475	-593	43	249	0
25819	389	-492	-597	44	250	0
26338	373	-507	-599	44	251	0
26869	354	-527	-600	45	251	0
27388	331	-538	-604	44	251	-1
27925	305	-548	-611	45	251	-1
28444	282	-559	-611	43	250	0
28963	258	-572	-614	45	251	0
29483	230	-576	-617	44	251	-2
30003	205	-576	-625	45	250	-1
30522	177	-581	-626	42	250	0
31041	149	-582	-628	44	252	0
31560	121	-581	-632	44	249	0
32080	93	-570	-638	44	251	-1
32600	67	-563	-641	44	250	0
-32417	38	-558	-642	44	250	0
-31898	9	-545	-645	44	250	0
-31379	-13	-527	-651	43	250	0
-30859	-38	-506	-656	45	251	-1
-30340	-62	-491	-655	43	249	0
-29820	-87	-472	-657	45	250	0
-29301	-102	-442	-661	45	250	0
-28776	-120	-414	-663	44	251	0
-28233	-141	-387	-665	45	250	-1
-27714	-152	-357	-666	44	251	1
-27195	-161	-330	-667	44	251	-1
-26675	-163	-294	-668	44	250	0
-26156	-171	-261	-667	44	249	0
-25636	-175	-225	-666	43	250	-1
-25116	-169	-191	-665	44	250	0
-24597	-161	-161	-666	44	251	-1
-24078	-155	-126	-665	45	251	0
-23558	-145	-92	-662	45	251	-1
-23038	-126	-62	-662	44	250	-1
-22519	-104	-33	-660	43	251	0
-21999	-85	-8	-655	44	250	0
-21480	-65	19	-651	44	250	0
-20961	-35	40	-649	45	250	-1
-20436	-5	57	-647	45	250	0
-19917	26	75	-641	45	251	0
-19387	55	91	-638	42	250	0
-18868	85	98	-633	44	251	0
-18336	121	102	-631	44	251	-2
-17817	156	104	-626	45	251	0
-17298	191	107	-620	44	250	0
-16779	225	102	-614	43	251	0
-16259	252	92	-613	43	250	0
-15739	288	80	-609	43	252	0
-15220	321	68	-603	44	251	0
-14701	350	51	-598	44	250	-1
-14182	377	28	-597	44	250	0
-13662	399	7	-595	43	250	0
-13143	425	-19	-591	44	250	-1
-12623	446	-47	-587	44	249	0
-12104	464	-78	-587	44	250	-1
-11585	477	-114	-587	44	250	-1
-11060	488	-143	-583	44	251	-1
-10541	498	-178	-581	44	252	-1
-10010	500	-213	-582	43	250	0
-9490	499	-251	-583	44	249	0
-8971	497	-288	-583	44	251	-1
-8452	493	-321	-583	44	252	-1
-7920	483	-351	-584	45	249	-1
-7401	468	-384	-588	44	249	-2
-6882	453	-416	-591	43	251	0
-6363	434	-447	-592	43	250	0
-5842	412	-473	-596	43	249	0
-5323	388	-494	-600	44	250	0
-4804	362	-515	-603	43	250	0
-4285	336	-535	-606	44	251	0
-3766	304	-551	-610	44	251	0
-3246	273	-561	-615	44	250	0
-2721	242	-571	-619	43	250	-1
-2202	211	-579	-623	44	251	0
-1682	177	-581	-624	43	251	0
-1151	142	-578	-631	43	250	0
-632	111	-574	-635	44	252	-1
-113	78	-570	-637	44	251	-1
406	49	-563	-642	43	251	-1
925	18	-547	-647	44	250	0
1444	-9	-533	-650	44	251	0
1976	-37	-515	-652	43	250	0
2495	-61	-496	-655	45	251	0
3014	-80	-473	-657	43	250	0
3533	-101	-448	-659	44	250	0
4052	-120	-423	-660	42	250	0
4572	-136	-398	-664	44	251	0
5091	-149	-369	-665	44	251	0
5611	-155	-343	-667	44	250	0
6130	-165	-313	-666	44	252	0
6656	-171	-285	-667	44	251	-1
7175	-172	-255	-669	44	251	0
7694	-171	-223	-668	43	250	-1
8224	-170	-195	-667	43	251	0
8743	-167	-170	-666	44	251	0
9263	-161	-143	-666	43	249	0
9783	-149	-115	-665	44	252	-1
10302	-138	-89	-663	43	250	-1
10821	-128	-65	-663	45	250	1
11340	-117	-45	-660	44	251	0
11860	-99	-25	-660	43	250	0
12391	-83	-3	-655	45	250	0
12910	-66	15	-655	44	252	0
13429	-48	32	-652	43	251	0
13948	-28	45	-650	43	250	0
14468	-9	56	-647	44	250	0
14987	11	69	-642	44	251	-1
15512	30	79	-641	44	250	0
16031	53	85	-638	44	250	-1
16550	73	92	-635	44	250	-1
17081	92	100	-631	44	250	0
17600	111	104	-629	43	250	0
18119	133	105	-626	42	250	0
18638	153	105	-624	41	251	-1
19159	174	107	-620	43	251	0
19678	191	107	-618	44	250	-1
20197	210	104	-618	44	251	0
20716	230	100	-615	44	250	0
21236	248	97	-612	44	250	-1
21755	264	92	-612	44	252	0
22302	282	87	-607	44	251	-2
22821	297	78	-606	44	251	-1
23341	313	73	-604	45	249	0
23860	329	65	-601	45	250	0
24379	342	54	-600	44	251	0
24904	358	45	-601	43	251	0
25423	369	37	-600	44	250	-1
25943	379	28	-596	43	249	0
26473	392	18	-595	44	249	0
26992	400	7	-594	44	250	-1
27511	410	-2	-593	44	251	0
28030	420	-12	-590	43	250	0
28550	426	-22	-591	45	250	-1
29070	434	-32	-591	44	250	-1
29589	441	-42	-590	43	251	-1
30108	447	-53	-588	44	249	0
30627	453	-62	-588	44	249	-1
31148	458	-72	-589	43	251	-1
31667	463	-83	-587	43	249	0
32186	468	-91	-586	44	250	0
32716	473	-101	-585	44	251	0
-32300	475	-111	-584	43	251	0
-31780	479	-120	-587	44	250	0
-31255	484	-126	-584	43	250	-1
-30736	486	-135	-582	44	250	0
-30205	487	-144	-583	44	251	0
-29686	488	-153	-584	44	252	-1
-29166	492	-159	-582	44	252	0
-28647	494	-166	-581	43	250	0
-28128	494	-173	-581	43	250	-1
-27608	495	-182	-582	44	251	-1
-27088	497	-187	-582	43	251	-1
-26569	500	-194	-580	44	250	0
-26049	499	-198	-581	43	250	0
-25530	498	-205	-582	44	250	-1
-25011	500	-210	-581	43	251	0
-24490	500	-215	-580	44	250	0
-23971	499	-221	-582	44	251	-1
-23452	499	-225	-584	44	250	0
-22882	500	-230	-582	44	251	0
-22363	502	-233	-582	44	250	0
-21842	501	-238	-583	43	250	0
-21323	500	-240	-584	43	250	0
-20793	500	-243	-583	43	250	0
-20274	501	-243	-585	43	252	0
-19753	501	-245	-583	43	251	0
-19234	499	-249	-584	43	250	-1
-18715	499	-249	-583	44	249	0
-18196	500	-252	-583	45	249	0
-17676	500	-250	-582	44	251	0
-17157	499	-251	-583	44	250	0
-16637	500	-251	-585	43	250	-1
-16117	500	-249	-583	43	250	0
-15598	499	-249	-584	45	250	0
-15079	499	-248	-583	44	250	0
-14554	499	-247	-582	45	250	-1
-14034	500	-247	-582	43	251	0
-13514	500	-244	-581	44	250	0
-12995	501	-245	-582	43	252	-1
-12465	500	-242	-582	43	251	0
-11933	501	-242	-582	44	249	0
-11414	502	-241	-583	45	249	-1
-10895	501	-237	-581	44	251	0
-10375	500	-238	-582	43	250	0
-9855	500	-236	-581	43	250	0
-9336	502	-234	-581	42	250	-1
-8817	500	-229	-581	44	251	0
-8297	499	-229	-582	44	250	0
-7778	502	-226	-583	43	250	0
-7259	501	-221	-583	44	250	-1
-6739	501	-218	-582	43	252	0
-6220	500	-215	-584	44	250	0
-5695	499	-210	-584	44	249	-1
-5176	499	-205	-582	44	250	-1
-4656	499	-200	-583	43	250	0
-4136	498	-197	-583	44	250	0
-3617	497	-193	-582	44	250	0
-3098	498	-187	-583	43	251	0
-2555	495	-182	-583	43	250	-1
-2036	493	-175	-585	44	251	0
-1517	492	-170	-583	44	251	0
-998	491	-161	-582	44	251	0
-479	492	-156	-583	43	249	0
40	488	-150	-584	44	251	-1
560	487	-144	-583	43	249	-1
1080	485	-136	-583	44	252	0
1599	483	-129	-582	43	250	0
2118	480	-121	-584	44	250	0
2637	479	-115	-585	44	250	0
3163	475	-110	-583	44	250	-2
3682	474	-100	-582	43	251	-2
4201	472	-94	-586	43	249	0
4720	465	-90	-586	44	249	0
5239	465	-81	-585	44	251	0
5758	462	-74	-586	43	250	-1
6278	457	-66	-587	44	249	-1
6808	452	-62	-588	44	248	-1
7327	447	-52	-589	44	252	0
7859	443	-41	-589	43	250	0
8378	437	-35	-590	43	251	0
8897	432	-29	-590	44	249	0
9416	426	-22	-592	44	249	0
9935	419	-13	-591	43	250	0
10455	413	-5	-593	45	250	0
10974	405	2	-594	44	250	-1
11493	400	8	-595	43	249	-1
12012	392	16	-595	44	250	0
12537	384	23	-597	44	250	0
13057	375	30	-599	43	251	0
13576	367	37	-598	44	250	0
14095	358	44	-600	44	251	0
14614	349	51	-600	45	250	0
15133	337	56	-601	43	250	0
15664	329	61	-603	44	251	-1
16183	318	69	-603	43	251	0
16703	307	75	-606	44	250	-1
17222	297	79	-607	43	250	-1
17753	286	84	-608	43	250	-1
18272	276	90	-610	44	252	-1
18792	263	93	-610	43	250	0
19311	252	95	-613	44	250	-1
19830	241	97	-614	44	250	0
20349	228	102	-615	43	251	0
20869	216	103	-616	43	250	0
21388	203	103	-618	42	251	0
21913	193	106	-621	43	251	0
22432	179	108	-622	45	250	0
22952	168	108	-622	43	252	0
23472	156	106	-624	43	249	0
23991	141	107	-628	43	251	0
24510	129	105	-629	43	250	0
25040	116	103	-630	43	251	0
25560	105	102	-633	43	251	0
26080	92	98	-634	43	250	0
26599	78	96	-635	44	250	-1
27118	65	91	-638	45	250	-1
27637	51	86	-640	44	249	0
28168	40	80	-642	45	250	0
28687	26	77	-643	43	251	-1
29206	14	71	-644	43	250	-1
29726	1	63	-645	43	252	0
30244	-12	56	-646	43	250	0
30765	-22	47	-648	43	250	0
31289	-33	38	-649	44	250	-1
31808	-46	31	-650	43	251	0
32327	-58	22	-651	44	249	-1
-32690	-68	11	-652	44	250	0
-32169	-80	3	-655	43	249	0
-31640	-89	-8	-655	44	250	-1
-31120	-99	-21	-656	43	250	0
-30601	-107	-34	-658	43	249	0
-30082	-118	-46	-660	43	250	-1
-29562	-127	-60	-662	43	250	0
-29042	-133	-73	-663	43	251	0
-28523	-140	-87	-665	43	249	-1
-28004	-146	-101	-664	42	251	0
-27472	-153	-116	-665	43	250	0
-26953	-157	-132	-666	43	251	0
-26434	-161	-145	-667	43	251	1
-25914	-165	-162	-667	43	251	0
-25389	-168	-180	-668	44	250	0
-24869	-169	-196	-668	44	250	0
-24350	-170	-212	-668	43	250	0
-23830	-171	-226	-669	44	250	0
-23311	-173	-243	-667	44	250	-1
-22792	-171	-261	-667	44	250	-1
-22260	-169	-277	-667	44	251	-1
-21741	-167	-295	-667	44	250	0
-21222	-166	-312	-667	44	251	0
-20702	-162	-325	-666	44	250	-1
-20183	-157	-341	-665	44	252	-1
-19662	-153	-356	-666	43	250	0
-19143	-148	-373	-664	43	249	-1
-18624	-140	-388	-664	43	251	1
-18104	-135	-400	-663	42	251	0
-17585	-125	-416	-662	44	251	0
-17048	-116	-429	-662	44	251	0
-16529	-108	-443	-660	43	250	-1
-16009	-98	-456	-660	43	250	0
-15490	-88	-466	-658	44	249	0
-14970	-78	-477	-658	43	251	0
-14450	-67	-489	-655	43	251	0
-13931	-54	-499	-654	43	250	0
-13401	-43	-509	-654	44	250	0
-12881	-29	-519	-652	44	251	-2
-12362	-18	-527	-651	44	251	-1
-11842	-4	-536	-649	44	251	0
-11323	9	-543	-648	44	250	-1
-10804	23	-551	-644	43	250	0
-10285	38	-557	-642	45	250	0
-9765	52	-561	-641	44	250	0
-9245	66	-566	-639	44	250	0
-8726	81	-569	-637	43	249	0
-8209	96	-573	-636	43	251	0
-7690	112	-576	-633	43	249	-1
-7170	125	-579	-631	43	251	0
-6639	140	-578	-630	43	250	0
-6120	155	-582	-626	43	250	0
-5600	171	-581	-625	44	250	0
-5081	184	-581	-624	44	250	0
-4561	199	-580	-621	43	250	0
-4031	213	-577	-621	44	250	0
-3512	227	-576	-619	44	249	-1
-2992	241	-572	-617	44	250	-1
-2472	253	-568	-615	43	249	-1
-1953	267	-565	-613	44	250	0
-1434	279	-561	-611	42	249	-1
-914	293	-557	-611	43	250	-1
-395	304	-551	-609	44	250	-2
131	318	-546	-607	43	251	-1
650	329	-539	-605	43	249	-1
1169	339	-533	-604	44	250	0
1688	350	-524	-604	43	249	0
2207	362	-518	-602	44	250	0
2726	372	-509	-599	44	249	0
3273	380	-502	-599	43	249	0
3792	390	-492	-597	43	252	0
4312	400	-485	-598	43	250	-1
4832	407	-475	-595	43	251	0
5362	415	-465	-595	44	251	0
5881	423	-455	-593	43	250	0
6401	430	-448	-593	44	250	-1
6920	437	-438	-591	44	251	-1
7439	442	-428	-592	44	251	0
7958	448	-420	-591	43	249	0
8477	455	-409	-590	43	250	0
8997	460	-400	-588	43	250	-1
9522	466	-391	-588	44	249	0
10041	468	-382	-587	44	252	0
10561	473	-374	-586	44	249	0
11080	476	-363	-586	43	250	-1
11599	480	-354	-585	43	250	-1
12120	482	-343	-584	43	251	0
12639	485	-337	-584	45	250	-1
13158	488	-329	-583	44	249	0
13689	490	-321	-582	43	250	-1
14220	492	-312	-582	44	250	0
14739	494	-304	-582	44	250	-1
15258	494	-296	-581	44	251	0
15778	497	-290	-582	43	250	0
16297	497	-283	-582	43	250	0
16817	499	-278	-581	44	250	0
17336	500	-268	-582	42	250	0
17856	501	-262	-582	43	250	0
18380	500	-258	-584	43	250	0
18900	500	-251	-582	44	250	0
19420	500	-246	-582	44	250	0
19939	500	-242	-582	44	251	-1
20458	498	-238	-581	43	250	-1
20978	499	-234	-582	43	250	0
21497	500	-229	-583	43	250	0
22017	499	-226	-583	43	250	0
22536	499	-223	-582	44	250	0
23056	499	-221	-584	43	251	0
23598	499	-219	-583	44	251	0
24117	499	-217	-584	44	250	-1
24637	498	-214	-583	43	250	-1
25156	499	-212	-583	45	249	-1
25675	499	-211	-582	43	250	0
26195	499	-209	-583	44	251	-1
26715	499	-209	-582	43	251	0
27285	499	-207	-582	44	251	0
27804	499	-207	-582	43	251	-1
28323	501	-208	-582	44	251	-1
28843	500	-208	-580	43	250	0
29363	498	-209	-582	44	250	0
29882	499	-209	-582	43	250	0
30401	500	-209	-582	44	251	0
30920	499	-209	-583	44	251	0
31440	499	-210	-582	43	251	0
31960	500	-212	-582	43	251	0
32479	501	-212	-583	44	250	0
-32527	499	-213	-582	43	251	0
-32007	499	-213	-583	43	250	-1
-31476	501	-216	-583	44	251	0
-30956	499	-217	-584	43	251	-1
-30437	500	-221	-583	42	251	0
-29918	499	-222	-583	43	252	0
-29392	499	-225	-583	44	250	0
-28873	500	-229	-582	44	250	0
-28353	499	-233	-583	43	249	-1
-27834	499	-237	-584	44	250	-1
-27315	498	-242	-583	45	250	-1
-26794	500	-248	-583	42	250	0
-26275	498	-252	-582	44	250	0
-25756	500	-257	-581	45	250	0
-25236	500	-263	-583	44	250	-1
-24717	497	-268	-583	43	249	0
-24198	498	-274	-582	44	251	-1
-23667	498	-279	-582	43	250	0
-23147	497	-286	-583	43	250	-1
-22628	496	-291	-583	43	251	0
-22109	495	-294	-583	44	250	0
-21577	495	-302	-583	43	251	0
-21052	494	-306	-584	43	248	-1
-20533	493	-312	-584	44	251	-1
-20014	491	-317	-585	42	250	0
-19493	490	-323	-585	43	249	0
-18974	489	-328	-584	43	250	-1
-18455	487	-335	-585	43	250	0
-17935	485	-341	-585	43	250	0
-17416	482	-347	-585	43	248	-1
-16896	481	-353	-587	43	250	0
-16376	476	-359	-585	43	250	0
-15857	475	-367	-586	44	251	0
-15338	472	-373	-587	44	250	-1
-14818	470	-379	-586	43	251	0
-14287	467	-386	-586	42	250	-1
-13768	463	-393	-585	43	251	0
-13249	461	-399	-587	43	251	-1
-12724	456	-407	-587	42	251	1
-12205	452	-416	-587	44	250	0
-11684	447	-422	-588	43	250	0
-11154	444	-429	-588	43	252	-1
-10634	438	-436	-589	43	251	0
-10115	434	-444	-591	43	250	0
-9595	428	-449	-592	43	250	0
-9076	423	-456	-592	42	251	-1
-8556	420	-461	-593	43	248	0
-8037	412	-469	-593	43	249	0
-7518	406	-476	-596	43	249	-1
-6999	400	-481	-596	43	251	0
-6478	395	-488	-596	43	249	0
-5959	388	-494	-597	43	251	-1
-5429	381	-499	-599	43	250	-1
-4910	374	-506	-598	43	249	0
-4390	366	-511	-599	43	250	0
-3865	358	-518	-603	43	250	0
-3346	350	-522	-603	43	251	0
-2827	342	-528	-605	44	250	0
-2307	335	-533	-604	43	250	0
-1787	326	-539	-608	44	250	-1
-1256	315	-542	-608	43	249	0
-737	308	-547	-609	43	252	0
-218	301	-552	-609	44	248	-1
302	292	-555	-611	44	251	0
821	283	-558	-611	42	251	0
1340	273	-562	-613	43	251	0
1859	264	-565	-614	43	251	-1
2378	256	-567	-616	42	251	0
2898	247	-571	-617	42	251	0
3418	238	-573	-617	43	249	0
3948	227	-576	-619	43	251	0
4467	219	-578	-620	43	250	0
4993	211	-577	-622	43	251	0
5512	202	-579	-622	43	250	-1
6031	192	-580	-624	43	250	-1
6550	183	-581	-626	43	250	-1
7069	174	-582	-627	43	250	-1
7589	165	-580	-629	42	251	0
8109	156	-581	-628	43	251	0
8628	147	-580	-630	44	251	-1
9158	139	-578	-631	43	249	0
9678	128	-578	-632	44	251	-1
10198	121	-578	-635	43	250	0
10717	113	-577	-634	43	251	0
11236	105	-575	-636	44	251	0
11755	97	-574	-636	43	250	0
12275	88	-572	-635	44	251	0
12806	81	-570	-637	44	251	-1
13325	73	-567	-638	44	251	-1
13844	65	-565	-640	44	251	0
14369	56	-562	-640	44	251	0
14888	46	-560	-641	43	250	0
15408	40	-558	-642	43	249	-1
15927	33	-555	-643	44	251	0
16446	26	-550	-644	44	251	0
16966	18	-549	-644	44	250	0
17485	11	-544	-645	44	249	0
18004	4	-542	-647	44	250	0
18524	-1	-538	-647	43	251	0
19054	-8	-534	-647	44	251	-1
19574	-14	-530	-649	42	250	0
20093	-18	-525	-652	43	249	0
20613	-26	-522	-650	44	249	0
21132	-32	-518	-653	43	249	-1
21651	-37	-513	-653	44	251	0
22182	-43	-509	-653	43	251	0
22702	-49	-505	-654	43	249	0
23225	-54	-500	-654	43	252	1
23744	-61	-495	-656	42	250	0
24263	-63	-491	-656	42	251	0
24783	-70	-487	-656	43	250	-1
25303	-73	-483	-656	44	249	0
25822	-77	-479	-656	44	250	0
26341	-81	-473	-657	43	250	-1
26861	-84	-470	-656	43	250	0
27380	-89	-467	-656	43	250	0
27899	-92	-461	-656	43	251	0
28419	-95	-456	-657	43	249	0
28938	-101	-454	-657	43	250	-1
29469	-104	-449	-658	43	250	0
29988	-106	-445	-658	43	251	0
30509	-110	-441	-658	43	250	0
31028	-111	-437	-659	43	250	0
31558	-115	-432	-659	43	250	0
32083	-119	-429	-658	43	250	0
32603	-121	-424	-660	43	249	-1
-32414	-122	-420	-659	43	251	0
-31894	-126	-416	-659	44	250	-1
-31375	-129	-413	-661	44	251	-1
-30855	-129	-410	-662	44	250	0
-30335	-132	-407	-662	44	250	0
-29816	-132	-403	-660	43	250	-1
-29296	-135	-401	-662	44	252	0
-28777	-136	-397	-662	43	249	-1
-28258	-138	-395	-663	43	251	0
-27738	-138	-392	-662	42	250	-1
-27218	-141	-390	-664	44	249	0
-26699	-141	-386	-663	43	251	0
-26151	-141	-383	-664	44	251	-1
-25632	-143	-380	-663	44	250	0
-25096	-144	-377	-664	43	251	0
-24576	-146	-377	-663	43	248	0
-24057	-146	-375	-663	43	251	-1
-23537	-146	-373	-664	43	251	0
-23018	-147	-370	-662	43	250	0
-22499	-148	-370	-663	41	251	0
-21979	-148	-371	-665	44	251	0
-21459	-149	-367	-663	44	250	-1
-20940	-150	-366	-664	43	252	0
-20420	-150	-366	-663	43	251	0
-19901	-151	-367	-663	44	251	0
-19382	-150	-365	-663	45	250	-1
-18862	-151	-364	-665	43	251	0
-18342	-150	-367	-663	44	251	0
-17823	-151	-365	-662	42	249	-1
-17298	-151	-366	-664	43	250	0
-16778	-150	-367	-664	44	250	-1
-16259	-149	-369	-664	44	250	0
-15716	-148	-370	-663	44	251	0
-15197	-147	-371	-666	45	252	0
-14677	-147	-374	-665	43	249	-1
-14157	-146	-375	-664	42	250	0
-13638	-145	-376	-663	43	250	0
-13119	-143	-378	-664	43	251	0
-12599	-143	-380	-664	42	249	0
-12080	-142	-382	-664	43	250	-1
-11560	-140	-386	-662	45	251	-1
-11040	-140	-390	-663	44	250	0
-10521	-138	-392	-660	44	250	0
-10002	-136	-396	-663	43	251	0
-9482	-136	-397	-661	44	250	-1
-8956	-133	-402	-661	43	249	0
-8437	-131	-405	-661	43	251	0
-7918	-130	-408	-660	43	250	0
-7399	-128	-412	-660	43	251	0
-6868	-124	-417	-660	43	249	0
-6349	-123	-420	-660	44	249	-1
-5818	-122	-424	-660	43	251	0
-5299	-118	-429	-658	44	250	-1
-4778	-115	-433	-659	43	250	0
-4259	-112	-437	-659	43	250	0
-3740	-108	-443	-659	43	250	0
-3221	-106	-446	-658	43	250	-1
-2701	-102	-451	-658	43	249	-1
-2182	-98	-455	-658	44	251	0
-1662	-96	-459	-658	43	249	0
-1143	-92	-464	-655	43	250	0
-624	-88	-469	-657	44	250	0
-99	-82	-473	-655	44	251	0
420	-77	-479	-654	42	250	0
940	-75	-483	-654	44	249	0
1459	-71	-486	-654	43	250	0
1978	-64	-490	-654	43	250	0
2508	-61	-495	-652	43	251	-1
3027	-57	-499	-653	43	249	0
3547	-52	-503	-653	43	250	-1
4066	-45	-506	-652	45	250	-1
4597	-41	-510	-651	43	250	0
5116	-39	-514	-649	44	250	0
5636	-33	-518	-650	43	250	-1
6155	-26	-521	-649	44	251	0
6674	-21	-524	-647	43	250	0
7194	-16	-528	-647	43	250	-1
7713	-11	-533	-645	44	250	0
8232	-5	-536	-647	43	250	-1
8910	2	-540	-646	44	251	0
9430	6	-543	-645	43	251	-1
9949	12	-547	-643	42	251	0
10468	19	-548	-644	43	251	-1
10987	24	-551	-642	43	251	0
11517	29	-553	-643	43	249	-1
12037	34	-556	-642	43	251	-1
12557	40	-557	-641	43	250	-1
13076	45	-559	-642	44	250	0
13595	50	-561	-640	43	250	0
14114	57	-563	-639	41	251	-1
14646	63	-565	-639	44	250	0
15165	70	-567	-639	43	250	0
15684	77	-569	-638	43	249	-1
16203	80	-572	-636	43	251	-1
16722	88	-571	-635	43	250	0
17243	93	-573	-636	43	249	0
17762	99	-573	-634	43	249	-1
18428	108	-576	-633	44	250	-1
18948	114	-576	-633	44	250	0
19467	117	-577	-633	44	250	-1
19986	124	-579	-631	42	251	1
20517	129	-579	-629	44	251	0
21037	137	-577	-630	42	251	0
21556	141	-578	-628	43	250	-1
22075	147	-580	-628	43	250	0
22595	153	-581	-626	43	251	0
23114	158	-581	-625	44	249	-1
23633	165	-579	-625	42	251	0
24153	170	-582	-625	43	249	0
24684	175	-582	-623	44	250	0
25203	181	-583	-623	42	250	0
25723	188	-580	-622	43	250	0
26243	193	-579	-622	43	251	0
26762	199	-579	-621	42	251	0
27426	208	-579	-620	44	250	-1
27945	214	-577	-619	43	250	0
28465	219	-576	-619	43	251	0
28985	226	-576	-618	42	249	0
29515	235	-573	-617	43	249	0
30034	240	-571	-617	43	249	1
30554	247	-568	-616	46	251	0
31073	255	-569	-615	43	250	0
31593	261	-566	-614	45	250	0
32112	267	-562	-614	44	250	0
32631	274	-561	-614	44	250	0
-32386	281	-558	-613	43	250	0
-31865	288	-557	-610	43	251	0
-31346	294	-553	-611	43	250	0
-30815	300	-550	-609	43	251	0
-30296	307	-548	-608	43	251	-1
-29776	315	-544	-607	43	250	0
-29108	323	-538	-605	43	250	0
-28589	330	-535	-603	44	249	0
-28069	335	-533	-603	43	251	0
-27549	343	-530	-602	44	250	0
-27019	346	-525	-602	43	251	0
-26500	353	-521	-601	44	249	0
-25980	360	-517	-600	43	251	0
-25460	364	-515	-600	44	250	-1
-24941	368	-509	-599	44	248	0
-24422	374	-505	-599	43	251	0
-23902	379	-502	-598	45	250	-2
-23383	385	-498	-597	43	250	-2
-22863	386	-494	-597	44	250	-1
-22343	391	-491	-598	43	251	-1
-21824	395	-488	-596	43	250	0
-21305	399	-483	-595	44	250	1
-20626	402	-479	-596	43	250	0
-20107	406	-476	-595	43	250	0
-19588	408	-473	-596	44	250	0
-19067	410	-470	-594	43	251	1
-18548	411	-470	-595	44	251	0
-18018	413	-466	-595	43	250	0
-17499	414	-464	-594	43	250	0
-16978	417	-464	-592	45	250	0
-16459	418	-461	-593	43	249	0
-15940	417	-461	-592	43	250	0
-15421	418	-460	-593	43	251	-1
-14901	420	-460	-592	44	251	0
-14382	420	-460	-594	44	251	-1
-13862	418	-460	-592	43	251	0
-13342	418	-461	-591	44	250	0
-12823	417	-463	-591	42	250	0
-12304	418	-463	-592	42	249	0
-11638	416	-464	-593	44	249	-1
-11119	416	-464	-592	44	250	-1
-10588	415	-466	-592	43	250	-1
-10068	414	-468	-592	43	249	0
-9549	412	-469	-594	43	251	0
-9030	410	-469	-593	43	249	-1
-8500	410	-471	-593	44	250	-1
-7981	410	-471	-596	43	251	-1
-7461	407	-473	-595	42	250	0
-6943	406	-474	-594	44	251	0
-6424	404	-476	-596	43	249	0
-5905	403	-477	-596	43	250	-1
-5386	400	-477	-595	44	249	0
-4867	400	-479	-595	44	250	-1
-4347	399	-482	-596	43	251	0
-3828	398	-484	-598	43	251	0
-3304	394	-487	-598	44	250	0
-2785	393	-489	-597	42	250	0
-2266	390	-490	-595	44	251	0
-1746	388	-493	-599	43	251	0
-1227	384	-497	-597	43	250	0
-697	383	-500	-598	43	251	0
-178	380	-501	-599	43	249	0
342	375	-504	-598	43	249	0
872	371	-508	-599	43	250	0
1390	367	-511	-600	42	251	0
1909	363	-514	-601	44	249	0
2428	361	-516	-598	42	251	1
2948	356	-518	-599	43	251	0
3467	352	-522	-598	43	251	0
3986	347	-526	-600	43	251	0
4505	343	-527	-602	42	250	0
5024	338	-531	-603	44	252	0
5543	333	-533	-604	44	250	0
6067	328	-537	-604	44	249	0
6586	323	-538	-604	43	251	0
7105	317	-540	-606	44	249	-1
7624	313	-545	-607	44	250	0
8143	308	-545	-606	43	250	0
8663	303	-548	-607	43	251	0
9193	297	-551	-607	43	251	0
9723	292	-553	-608	44	251	0
10243	286	-556	-608	43	250	0
10762	282	-558	-609	44	251	0
11281	276	-561	-609	43	250	0
11800	271	-561	-610	44	249	0
12319	265	-562	-610	44	251	0
12838	260	-565	-612	43	249	0
13358	255	-566	-613	43	251	0
13877	248	-568	-613	44	251	0
14396	240	-571	-614	43	249	0
14920	237	-572	-615	43	249	0
15439	230	-573	-616	43	250	0
15959	225	-575	-616	44	250	-1
16478	218	-575	-617	42	251	0
16997	213	-577	-618	44	251	0
17516	208	-576	-619	43	249	1
18035	202	-577	-620	44	251	0
18554	197	-580	-621	44	250	-1
19096	193	-578	-623	44	250	0
19615	187	-580	-622	44	250	0
20134	181	-580	-624	43	251	-1
20654	175	-580	-624	43	250	0
21173	170	-580	-624	44	251	0
21692	166	-580	-625	43	250	0
22211	161	-579	-625	43	251	0
22730	155	-579	-626	44	250	0
23249	149	-579	-627	44	251	0
23774	144	-580	-627	42	250	0
24293	139	-579	-628	43	251	0
24812	133	-580	-629	44	249	0
25331	129	-579	-628	43	250	-1
25850	124	-578	-629	43	250	0
26370	118	-576	-630	43	250	0
26889	112	-577	-630	44	249	-1
27408	105	-576	-632	44	251	-1
27927	101	-575	-632	43	250	0
28457	96	-574	-631	43	249	0
28988	92	-572	-634	43	250	0
29507	86	-571	-633	43	250	-1
30026	82	-569	-635	43	251	0
30545	77	-569	-635	45	250	-1
31065	73	-568	-636	43	250	0
31584	69	-565	-637	43	250	0
32103	64	-566	-637	44	251	0
32626	60	-563	-638	43	250	0
-32391	57	-563	-638	43	250	0
-31871	51	-560	-638	43	250	0
-31352	48	-560	-639	43	250	-1
-30833	44	-557	-640	43	249	0
-30314	41	-556	-639	43	250	0
-29795	35	-552	-639	43	251	0
-29276	31	-553	-640	43	250	0
-28756	26	-551	-640	42	250	0
-28226	21	-550	-641	44	252	-1
-27707	18	-547	-643	43	250	0
-27188	11	-545	-642	43	250	-1
-26657	8	-544	-643	44	250	-1
-26138	4	-541	-644	44	251	-1
-25619	-1	-538	-645	43	249	-1
-25100	-5	-537	-645	44	249	0
-24581	-8	-533	-645	44	251	-1
-24047	-13	-531	-645	43	250	-1
-23528	-17	-527	-646	43	250	0
-23008	-20	-526	-648	43	250	-1
-22489	-24	-524	-648	42	251	-1
-21969	-27	-520	-648	44	249	0
-21449	-29	-516	-647	44	249	0
-20930	-35	-513	-650	44	250	0
-20411	-38	-512	-649	44	250	0
-19892	-42	-509	-650	43	250	-1
-19372	-45	-507	-650	43	250	0
-18841	-50	-504	-651	44	250	-1
-18322	-51	-501	-649	43	251	-1
-17802	-55	-499	-651	43	250	0
-17283	-59	-495	-650	43	250	0
-16751	-62	-492	-650	44	250	-1
-16232	-66	-490	-650	43	251	-1
-15707	-68	-488	-651	44	250	-1
-15187	-72	-484	-652	43	252	0
-14668	-75	-481	-652	42	251	0
-14148	-77	-478	-654	43	251	0
-13629	-81	-475	-655	45	251	0
-13110	-83	-474	-653	44	251	0
-12591	-87	-470	-654	43	250	0
-12070	-89	-467	-654	43	250	0
-11551	-91	-464	-655	43	250	0
-11032	-93	-462	-654	43	249	0
-10512	-96	-459	-656	43	249	0
-9981	-97	-457	-655	43	249	0
-9462	-99	-453	-656	43	250	0
-8943	-101	-452	-655	42	250	0
-8424	-102	-449	-657	43	250	0
-7904	-103	-447	-656	44	249	0
-7385	-106	-445	-658	44	250	-1
-6859	-106	-442	-658	42	251	0
-6329	-109	-441	-659	43	250	-1
-5809	-111	-436	-659	42	250	1
-5289	-111	-435	-658	43	250	-1
-4770	-113	-432	-660	44	249	0
-4250	-114	-431	-660	43	250	0
-3731	-125	-410	-664	23	236	50
-3212	-265	-143	-617	-15	237	80
-2692	-352	290	-249	-76	63	259
-2172	-281	377	-54	-23	-86	275
-1652	-315	327	130	-1	-102	254
-1133	-312	296	202	-31	-117	265
-603	-354	242	242	-74	-59	235
-83	-386	206	259	-75	-84	221
