185	-624	-205	-383	-144	198	-20
749	-601	-191	-421	-71	155	-29
1274	-411	7	-588	-67	235	43
1800	-119	96	-669	32	247	79
2335	20	104	-675	98	199	31
2861	-3	160	-604	89	261	29
3385	-132	-5	-653	-1	261	-9
3910	-202	12	-613	17	254	-3
4434	-174	22	-618	29	262	12
4960	-221	-21	-615	-8	203	-2
5485	-240	-76	-623	-4	241	-29
6009	-293	-95	-603	-25	257	-43
6535	-275	-62	-604	-26	244	-3
7060	-281	-44	-592	-4	254	2
7584	-274	-54	-601	-26	257	-10
8110	-224	1	-609	-13	268	-5
8634	-218	24	-609	-22	253	-14
9159	-154	-3	-650	10	269	-18
9690	-124	-26	-665	34	246	1
10225	-196	-46	-643	41	372	-36
10750	-212	-53	-634	2	245	-4
11275	-240	-37	-615	13	271	-13
11800	15	61	-657	5	247	0
12337	297	40	-636	13	239	0
12861	298	32	-639	12	275	-3
13386	351	-46	-646	2	250	-12
13912	406	-155	-642	3	254	-8
14436	389	-146	-648	5	250	-3
14961	372	-45	-633	10	270	2
15485	358	-62	-642	6	256	-5
16011	369	-55	-635	9	248	5
16535	387	-101	-636	6	256	-4
17060	403	-168	-640	7	254	-4
17586	407	-169	-639	6	250	0
18110	414	-204	-638	3	254	-3
18640	408	-186	-641	8	257	-1
19177	407	-160	-641	6	253	-2
19701	410	-181	-641	7	254	-2
20227	414	-197	-642	6	252	-2
20751	416	-209	-644	6	255	-1
21276	415	-215	-642	5	253	-2
21801	414	-218	-643	4	255	0
22326	418	-214	-640	4	251	-2
22862	412	-202	-641	10	257	-3
23388	410	-199	-642	2	254	-1
23912	415	-187	-639	6	253	0
24437	408	-173	-642	9	254	-5
24963	407	-150	-639	4	255	0
25487	407	-142	-639	6	254	-4
26012	397	-119	-638	7	255	-1
26536	390	-101	-641	4	255	-2
27062	380	-72	-638	8	254	-2
27592	365	-50	-638	5	253	0
28116	352	-27	-636	4	254	-1
28653	327	0	-637	7	255	-2
29177	304	27	-636	5	254	-1
29703	281	47	-633	6	253	-1
30227	249	67	-633	7	254	-3
30751	211	85	-635	5	254	0
31277	180	99	-631	7	254	-3
31801	142	111	-627	6	254	-1
32326	102	112	-630	5	254	-1
-32673	58	114	-630	7	254	-2
-32149	12	109	-629	4	255	-1
-31624	-27	102	-627	6	253	-1
-31099	-67	81	-627	7	254	-3
-30574	-111	60	-628	5	255	-2
-30049	-146	36	-630	8	254	-2
-29524	-175	9	-628	6	254	-2
-28999	-203	-27	-629	6	253	0
-28469	-227	-67	-630	6	254	-1
-27933	-247	-106	-630	6	255	0
-27408	-261	-149	-629	5	255	-2
-26884	-266	-191	-630	8	253	-2
-26358	-269	-238	-632	6	255	-2
-25833	-265	-280	-633	6	255	-1
-25309	-261	-320	-633	5	254	-1
-24783	-246	-359	-636	6	253	-3
-24258	-230	-394	-636	5	254	-2
-23733	-210	-425	-638	7	254	-2
-23208	-192	-456	-635	6	255	-2
-22683	-164	-481	-639	7	254	-2
-22147	-133	-505	-639	6	253	-1
-21621	-107	-524	-640	6	253	-1
-21097	-81	-540	-641	7	254	-1
-20572	-55	-551	-640	5	254	-2
-20041	-25	-559	-645	7	255	-1
-19516	-5	-566	-642	6	254	-2
-18992	18	-571	-642	6	254	-2
-18455	39	-575	-643	5	254	-1
-17931	62	-574	-644	7	254	-2
-17405	80	-576	-643	6	255	-1
-16881	94	-576	-643	6	254	-2
-16356	107	-575	-643	7	253	-1
-15831	119	-571	-647	5	254	-2
-15306	130	-569	-649	5	254	-1
-14781	134	-572	-643	5	254	-2
-14257	138	-570	-644	6	254	-1
-13731	142	-567	-645	5	253	-2
-13206	144	-567	-646	8	253	-2
-12682	140	-569	-645	6	255	-2
-12145	136	-568	-647	6	255	-1
-11620	131	-568	-647	6	254	-2
-11089	126	-569	-647	7	255	-1
-10564	114	-573	-644	6	253	-2
-10040	103	-572	-647	6	253	-2
-9503	92	-571	-648	6	253	-1
-8979	78	-574	-646	6	254	-2
-8454	59	-573	-643	7	255	-1
-7929	39	-571	-643	6	255	-1
-7404	20	-568	-644	5	254	-2
-6880	-1	-566	-643	7	254	-1
-6354	-25	-561	-641	6	254	-2
-5830	-51	-552	-642	5	255	-2
-5305	-73	-540	-644	6	253	-2
-4781	-95	-529	-641	6	253	-3
-4255	-120	-516	-639	6	254	0
-3730	-145	-497	-637	6	254	-1
-3206	-164	-475	-637	7	254	-2
-2680	-186	-452	-634	6	254	-2
-2150	-208	-428	-629	6	254	-2
-1613	-225	-397	-630	7	254	-1
-1089	-239	-371	-631	6	254	-2
-564	-251	-340	-633	5	253	-1
-28	-261	-305	-629	7	253	-2
497	-266	-271	-631	5	254	-1
1021	-266	-243	-631	6	254	-1
1547	-267	-209	-630	6	254	-2
2072	-265	-177	-627	6	254	-1
2596	-257	-141	-627	6	254	-1
3122	-244	-111	-628	6	254	-1
3646	-234	-83	-627	4	254	-1
4171	-218	-52	-627	5	254	-1
4696	-200	-27	-626	6	253	-2
5221	-180	-5	-628	6	253	-2
5745	-159	17	-628	5	254	-3
6270	-137	38	-625	6	254	0
6801	-112	55	-626	5	254	0
7325	-88	68	-628	6	254	-2
7849	-66	79	-627	6	254	-2
8386	-41	90	-625	6	256	-1
8922	-17	98	-627	7	254	-2
9446	7	102	-627	6	253	-1
9971	27	106	-630	5	254	-2
10496	47	109	-626	6	255	-1
11021	68	112	-627	5	253	-1
11545	86	109	-630	6	254	-1
12070	101	109	-630	6	254	-1
12595	120	110	-628	6	254	-1
13120	134	107	-628	6	254	-1
13644	146	102	-630	5	254	-1
14170	154	99	-629	6	254	-2
14694	167	100	-629	7	254	-2
15219	175	96	-629	6	254	-1
15744	181	93	-630	6	254	-1
16269	183	90	-631	5	254	-1
16799	189	92	-631	6	255	-1
17324	192	90	-630	7	254	-2
17849	190	89	-633	6	254	-2
18384	188	90	-632	6	254	-1
18921	187	92	-629	6	253	-2
19446	182	93	-633	6	254	-2
19971	176	94	-631	5	254	-2
20496	167	94	-632	6	253	-1
21020	161	98	-631	6	254	-2
21544	151	102	-628	5	252	-1
22070	138	101	-632	6	253	-2
22595	125	104	-631	6	255	-1
23119	112	108	-628	7	254	-2
23645	97	110	-629	7	252	-2
24169	82	110	-628	6	254	-1
24694	64	108	-628	6	254	-1
25219	44	109	-628	6	255	-2
25744	26	108	-626	6	252	-2
26274	4	103	-627	5	255	-2
26799	-16	98	-628	6	254	-2
27324	-38	92	-625	5	255	-1
27859	-58	85	-624	7	255	-1
28384	-81	74	-628	6	254	-1
28937	-102	61	-627	5	254	-2
29461	-123	50	-625	6	254	-1
29986	-142	35	-625	5	253	-1
30511	-158	20	-625	7	254	-1
31036	-176	1	-627	7	255	-1
31560	-194	-17	-626	6	253	-3
32086	-210	-38	-625	6	254	-1
32610	-221	-61	-627	6	254	-3
-32401	-234	-84	-628	7	254	-2
-31876	-246	-106	-628	8	255	-2
-31351	-254	-130	-629	6	256	-2
-30826	-259	-152	-629	6	254	-1
-30296	-262	-177	-630	6	254	-1
-29770	-266	-198	-629	6	254	-1
-29245	-268	-222	-630	5	254	-1
-28709	-266	-245	-630	6	254	-2
-28184	-265	-268	-631	6	254	-2
-27659	-263	-288	-632	6	254	-2
-27134	-259	-310	-631	6	253	-2
-26609	-252	-329	-633	7	254	-3
-26073	-245	-347	-635	7	253	-2
-25547	-239	-367	-636	5	254	-1
-25023	-233	-379	-633	6	254	-2
-24498	-225	-393	-635	6	254	-2
-23972	-217	-406	-636	6	254	-1
-23447	-210	-419	-636	6	253	-2
-22923	-204	-430	-636	6	253	-1
-22397	-195	-439	-636	5	254	0
-21867	-188	-448	-638	7	253	-2
-21342	-183	-455	-637	6	253	-3
-20817	-178	-462	-638	5	254	-2
-20292	-172	-466	-636	6	254	-1
-19767	-168	-471	-638	6	254	-1
-19231	-165	-475	-635	6	254	-1
-18706	-163	-478	-635	7	255	-2
-18181	-161	-478	-637	6	254	-1
-17655	-159	-480	-638	6	254	-2
-17131	-160	-478	-636	7	254	-3
-16606	-163	-478	-637	5	254	-1
-16069	-164	-476	-637	6	253	-2
-15544	-165	-474	-638	6	254	-1
-15018	-170	-471	-636	5	254	-2
-14494	-176	-466	-636	7	253	0
-13969	-178	-461	-637	6	254	-2
-13438	-184	-454	-637	5	253	-1
-12913	-191	-447	-635	6	254	-1
-12389	-199	-437	-636	8	255	-1
-11864	-205	-428	-637	6	254	0
-11338	-211	-419	-637	6	254	-2
-10814	-219	-408	-634	7	255	-2
-10277	-227	-394	-635	7	255	0
-9752	-232	-382	-635	7	254	-2
-9228	-238	-369	-635	6	254	-1
-8702	-244	-353	-634	6	254	-1
-8177	-250	-338	-632	5	254	-3
-7653	-254	-321	-633	7	254	-1
-7128	-259	-304	-633	6	255	-2
-6603	-262	-285	-632	5	254	-2
-6078	-265	-269	-630	6	255	-1
-5541	-265	-249	-631	5	254	-1
-5016	-265	-234	-630	5	255	-2
-4486	-266	-215	-629	7	254	-1
-3961	-265	-196	-627	6	253	-1
-3436	-262	-178	-628	7	253	-1
-2911	-258	-159	-628	6	254	-2
-2386	-255	-139	-628	5	254	0
-1861	-250	-119	-625	5	255	-1
-1337	-243	-104	-628	5	254	-2
-800	-237	-88	-629	7	254	-1
-276	-229	-72	-627	6	255	-2
249	-221	-56	-626	6	254	-2
774	-211	-42	-628	7	255	-2
1299	-202	-31	-628	6	255	-1
1823	-193	-16	-625	6	253	-2
2349	-182	-2	-627	6	254	-1
2873	-172	5	-627	6	255	-2
3397	-162	15	-631	6	254	-1
3922	-151	22	-627	6	254	-1
4464	-143	34	-628	5	253	-1
4989	-135	39	-625	6	254	0
5514	-125	45	-627	6	255	-1
6038	-118	51	-627	6	254	-2
6563	-110	56	-626	6	254	-1
7088	-103	60	-626	6	255	-2
7613	-97	63	-627	6	254	-2
8148	-90	69	-626	6	253	-3
8673	-85	71	-625	8	254	-2
9198	-81	73	-627	6	254	-1
9722	-78	74	-625	7	253	0
10247	-75	77	-626	5	254	-2
10772	-74	79	-625	6	254	-1
11296	-73	78	-625	5	254	-1
11822	-72	78	-626	6	254	-3
12346	-72	78	-626	8	254	0
12871	-71	78	-628	7	254	-2
13395	-74	79	-626	6	254	-1
13921	-77	78	-626	6	254	-2
14444	-78	75	-627	6	254	-1
14980	-83	74	-625	7	253	-2
15505	-87	73	-628	6	254	-1
16029	-92	68	-627	6	254	-1
16555	-98	66	-627	6	254	-1
17080	-104	63	-627	6	254	-1
17615	-110	57	-628	5	255	-1
18141	-117	51	-630	6	254	-2
18665	-122	48	-627	6	254	-1
19190	-131	44	-627	6	253	-2
19715	-138	36	-627	6	253	-2
20240	-146	28	-628	6	253	-1
20765	-154	21	-628	7	253	-2
21289	-163	14	-626	5	253	-1
21815	-172	5	-626	6	254	-1
22339	-179	-5	-627	5	256	-2
22864	-186	-12	-627	6	254	-1
23395	-195	-22	-626	6	253	-2
23919	-204	-33	-626	7	255	-1
24444	-211	-44	-626	5	254	-1
24970	-218	-56	-626	6	254	-2
25506	-226	-65	-626	5	253	-1
26031	-233	-78	-627	7	254	-1
26556	-237	-92	-628	6	253	-1
27091	-244	-102	-626	6	254	-2
27617	-249	-114	-628	6	254	-2
28141	-252	-129	-628	5	254	-1
28666	-256	-140	-628	7	254	-2
29192	-259	-155	-629	7	254	-2
29716	-262	-166	-627	7	253	-1
30241	-265	-180	-629	6	254	-1
30767	-266	-190	-630	6	254	-1
31291	-268	-205	-629	6	253	-1
31816	-267	-218	-629	7	255	-1
32347	-267	-230	-633	7	253	-2
-32664	-266	-243	-632	6	254	-1
-32139	-266	-251	-632	6	255	-2
-31614	-266	-263	-631	6	254	-2
-31089	-264	-272	-631	6	253	-2
-30564	-263	-282	-631	6	254	-4
-30027	-262	-291	-631	7	255	-1
-29492	-262	-299	-630	7	254	-2
-28966	-259	-306	-630	6	254	-1
-28441	-257	-313	-632	6	254	-2
-27917	-256	-317	-633	6	254	-1
-27391	-511	-323	-632	5	255	-1
-26866	-256	-326	-632	6	254	-2
-26341	-254	-330	-632	5	253	-2
-25817	-253	-333	-631	6	253	-1
-25291	-252	-336	-631	5	254	-1
-24761	-251	-339	-632	5	254	-1
-24236	-251	-341	-634	6	254	-1
-23710	-249	-340	-634	6	254	-1
-23186	-251	-342	-634	6	254	-1
-22661	-251	-341	-634	6	254	-2
-22135	-249	-342	-633	6	255	-1
-21611	-251	-340	-633	7	253	-2
-21086	-252	-339	-633	5	255	0
-20560	-251	-336	-633	6	254	-2
-20025	-251	-335	-634	5	254	-1
-19488	-251	-330	-633	5	253	-1
-18963	-254	-327	-632	6	254	-1
-18438	-255	-320	-633	6	254	-1
-17912	-257	-314	-635	5	253	-1
-17388	-258	-311	-633	7	254	-2
-16863	-260	-304	-632	5	254	-2
-16332	-260	-298	-631	6	254	-1
-15807	-263	-290	-631	6	254	-2
-15282	-263	-282	-630	6	254	-1
-14757	-266	-274	-629	5	255	-2
-14232	-267	-265	-631	6	254	-1
-13707	-267	-256	-630	6	253	-1
-13182	-267	-246	-631	5	254	-2
-12657	-268	-237	-630	6	253	-1
-12132	-270	-227	-629	4	254	-1
-11607	-269	-216	-631	6	254	-2
-11082	-267	-205	-630	6	253	-2
-10546	-266	-194	-629	5	253	-1
-10020	-266	-184	-629	5	255	-1
-9484	-262	-174	-629	6	253	-1
-8959	-260	-165	-629	7	254	-2
-8434	-260	-153	-629	6	254	-2
-7904	-256	-143	-628	6	253	0
-7379	-252	-135	-629	6	254	-3
-6854	-250	-127	-628	6	253	-2
-6329	-247	-116	-627	7	254	-3
-5805	-245	-106	-627	6	255	-3
-5279	-241	-97	-627	6	254	-1
-4754	-236	-90	-627	7	255	-1
-4230	-233	-82	-627	6	253	-1
-3704	-230	-72	-626	6	254	-1
-3180	-226	-65	-626	5	253	-1
-2655	-221	-58	-626	7	254	-2
-2130	-216	-50	-624	5	254	-2
-1594	-213	-42	-625	5	254	-2
-1070	-208	-36	-626	6	254	-1
-544	-203	-31	-626	5	254	-1
-20	-199	-23	-625	6	254	-1
505	-196	-20	-626	6	252	0
1047	-192	-14	-627	8	255	-3
1571	-189	-9	-627	7	255	-2
2097	-183	-6	-628	7	254	-1
2621	-180	-2	-627	6	253	-2
3145	-178	-1	-626	6	253	-1
3671	-175	3	-627	6	253	-2
4195	-173	5	-627	6	254	-1
4720	-171	6	-627	7	255	-2
5244	-168	9	-626	7	254	-2
5769	-168	9	-626	7	253	-1
6294	-166	11	-628	7	253	-2
6818	-167	12	-627	6	255	-1
7343	-165	12	-626	6	254	-1
7879	-166	11	-626	7	254	-2
8403	-168	12	-624	6	253	-1
8929	-169	11	-625	5	255	0
9453	-169	10	-625	5	255	-1
9977	-170	8	-626	5	254	-2
10503	-173	8	-626	6	253	-2
11061	-173	7	-625	6	253	-1
11585	-178	3	-626	5	254	-2
12109	-179	0	-626	5	254	-1
12635	-182	-2	-628	5	254	-2
13159	-185	-5	-626	6	254	-2
13684	-187	-10	-626	7	254	-1
14209	-192	-14	-626	6	253	-2
14734	-193	-17	-627	6	253	-1
15259	-199	-23	-625	6	253	-1
15783	-202	-30	-627	7	253	-1
16309	-206	-34	-627	6	254	-3
16844	-210	-40	-628	6	255	-2
17370	-211	-45	-630	8	254	-1
17894	-217	-52	-627	6	255	-1
18419	-221	-59	-627	6	253	0
18945	-225	-65	-627	6	254	-1
19469	-228	-72	-626	6	254	-1
19999	-232	-79	-627	6	255	-2
20525	-235	-88	-626	6	253	-1
21049	-238	-92	-627	5	254	-1
21585	-242	-101	-627	6	253	-1
22111	-244	-108	-628	6	253	-2
22636	-246	-114	-629	7	255	-2
23160	-250	-121	-626	6	255	-1
23686	-254	-129	-627	6	254	-2
24211	-255	-135	-627	5	255	0
24735	-257	-144	-628	5	253	-1
25261	-259	-152	-627	7	253	-1
25786	-261	-157	-627	5	254	-1
26321	-261	-165	-630	5	254	-1
26847	-263	-172	-628	6	254	-1
27372	-264	-178	-630	6	254	-2
27896	-264	-186	-628	7	253	-2
28422	-267	-192	-629	5	253	-2
28952	-267	-200	-629	5	253	-1
29477	-268	-204	-630	6	254	-1
30003	-267	-211	-629	7	254	-1
30527	-268	-218	-630	6	253	0
31052	-268	-222	-629	6	255	-1
31589	-268	-229	-630	6	254	-1
32113	-266	-234	-631	6	254	-1
32638	-266	-239	-633	6	253	-1
-32372	-267	-241	-632	6	253	-1
-31847	-266	-245	-632	6	254	-2
-31323	-265	-248	-631	6	253	-2
-30797	-266	-251	-630	6	254	-1
-30262	-266	-254	-630	5	254	-1
-29736	-266	-255	-630	6	253	-1
-29211	-265	-256	-630	5	255	-1
-28686	-266	-257	-630	6	254	-2
-28144	-267	-256	-630	6	254	-2
-27619	-266	-256	-629	6	255	-1
-27095	-266	-255	-632	6	254	-1
-26569	-267	-254	-630	5	254	-1
-26044	-266	-251	-629	6	254	0
-25520	-268	-250	-629	6	254	-2
-24994	-267	-247	-629	6	253	-2
-24469	-266	-243	-629	7	254	-1
-23944	-269	-240	-629	6	254	-1
-23407	-268	-237	-630	6	254	-2
-22883	-268	-234	-631	7	255	-1
-22357	-267	-229	-631	6	254	-1
-21832	-269	-226	-630	6	254	-1
-21308	-268	-221	-629	5	254	0
-20771	-267	-214	-629	5	253	-2
-20246	-267	-210	-630	5	253	0
-19696	-266	-205	-630	6	254	-2
-19171	-266	-199	-629	7	254	-2
-18645	-266	-192	-630	6	253	0
-18121	-265	-187	-631	7	254	-2
-17596	-263	-180	-628	6	254	-2
-17071	-262	-174	-629	6	254	-2
-16546	-262	-168	-628	6	252	-2
-16021	-258	-161	-630	6	255	-1
-15496	-259	-155	-627	7	254	-2
-14970	-258	-150	-628	6	254	-2
-14446	-255	-142	-629	6	254	-2
-13921	-254	-135	-628	6	253	-2
-13384	-251	-129	-628	5	253	0
-12859	-250	-122	-627	7	254	-1
-12335	-248	-114	-627	5	253	-2
-11798	-245	-107	-627	7	253	-1
-11268	-242	-100	-626	7	254	-1
-10742	-240	-94	-626	6	253	-1
-10218	-236	-87	-629	5	255	0
-9693	-235	-83	-626	6	254	-1
-9167	-233	-76	-627	6	254	-1
-8643	-229	-70	-626	6	253	-1
-8118	-226	-65	-626	7	254	-2
-7593	-221	-59	-626	6	254	-2
-7068	-218	-55	-625	6	253	-1
-6544	-216	-49	-626	5	253	-1
-6019	-213	-44	-628	6	254	-1
-5494	-211	-42	-627	6	254	-2
-4969	-208	-38	-626	7	255	-2
-4445	-205	-34	-627	7	253	-1
-3919	-202	-29	-627	6	253	-1
-3394	-199	-27	-628	6	254	-1
-2858	-195	-23	-627	5	255	-2
-2317	-194	-18	-627	6	253	-1
-1791	-192	-18	-626	5	254	-2
-1267	-190	-14	-626	7	253	-1
-742	-188	-12	-625	5	253	-1
-218	-185	-9	-627	6	253	-1
308	-185	-7	-626	6	255	-2
832	-183	-8	-626	5	253	-2
1356	-183	-4	-627	6	254	-3
1882	-181	-2	-625	7	254	-2
2406	-180	-3	-625	4	253	0
2931	-178	-1	-624	6	253	-1
3456	-179	0	-627	8	255	-2
3980	-178	-1	-624	6	255	-1
4505	-179	2	-625	6	255	0
5029	-180	1	-625	6	253	-1
5554	-180	0	-626	5	254	0
6079	-179	0	-624	6	255	-1
6603	-180	0	-625	5	254	0
7151	-182	-1	-626	7	254	-2
7682	-182	-5	-625	5	254	-1
8206	-186	-5	-626	6	253	-2
8730	-187	-9	-626	6	253	-2
9255	-189	-12	-628	7	253	-2
9780	-190	-16	-627	6	252	-1
10305	-195	-20	-626	5	253	-1
10829	-197	-24	-626	6	253	-1
11355	-202	-29	-627	6	253	-1
11879	-205	-33	-626	7	253	-2
12404	-208	-38	-626	7	254	-1
12930	-211	-43	-626	5	254	-1
13454	-215	-50	-628	6	254	0
13979	-220	-53	-625	7	253	-1
14503	-223	-60	-625	6	253	-1
15029	-225	-66	-625	6	254	-1
15553	-229	-71	-626	7	253	-2
16090	-232	-79	-625	6	253	-2
16620	-236	-86	-626	6	253	-2
17145	-239	-92	-626	6	254	-2
17681	-241	-98	-627	6	254	-2
18206	-245	-106	-627	6	254	-3
18732	-248	-114	-628	5	254	-2
19256	-251	-120	-626	7	254	-1
19781	-252	-128	-627	6	254	-3
20306	-254	-136	-628	6	253	-1
20831	-257	-144	-628	5	253	-1
21356	-256	-151	-628	5	254	-1
21881	-259	-157	-628	6	254	-1
22406	-260	-165	-629	6	254	-2
22931	-262	-171	-631	6	254	-1
23456	-262	-176	-627	6	254	-2
23981	-263	-183	-628	6	254	-1
24506	-264	-188	-629	6	253	-2
25031	-264	-193	-627	6	254	-2
25571	-266	-197	-628	6	254	-2
26096	-265	-202	-628	6	254	-1
26621	-267	-205	-628	5	254	-1
27146	-268	-209	-627	6	254	-1
27682	-267	-211	-626	7	254	-2
28208	-268	-214	-627	5	254	-1
28733	-268	-217	-629	5	253	-2
29257	-267	-219	-627	6	254	-1
29783	-267	-220	-628	6	254	-2
30308	-268	-223	-629	5	253	-2
30832	-268	-223	-629	7	253	-3
31357	-269	-224	-628	6	253	-1
31883	-269	-226	-628	5	253	-3
32407	-267	-225	-629	7	254	-1
-32604	-267	-225	-632	5	254	-1
-32078	-266	-224	-629	7	255	-1
-31548	-268	-224	-629	5	254	-2
-31012	-267	-222	-629	6	256	-1
-30487	-267	-221	-629	6	254	-1
-29962	-268	-221	-630	7	253	-1
-29437	-268	-219	-628	7	254	-2
-28912	-267	-216	-628	5	254	-1
-28387	-266	-215	-628	7	254	-1
-27863	-266	-211	-628	5	253	-2
-27326	-267	-207	-627	6	254	-1
-26801	-266	-205	-630	6	252	0
-26275	-266	-202	-628	6	255	-1
-25750	-265	-199	-628	6	253	-2
-25226	-267	-195	-626	6	253	-1
-24700	-265	-189	-627	6	254	-1
-24175	-266	-183	-626	6	254	-1
-23651	-265	-179	-626	6	254	-2
-23119	-264	-175	-627	5	253	-2
-22595	-263	-170	-628	6	254	-1
-22070	-263	-165	-626	6	256	-1
-21533	-261	-160	-627	6	254	-1
-21009	-260	-154	-625	6	253	-2
-20484	-258	-148	-627	7	254	-2
-19958	-257	-143	-627	5	254	-1
-19433	-255	-139	-627	6	254	-2
-18908	-254	-133	-627	6	253	-1
-18383	-252	-128	-628	6	253	-2
-17858	-251	-121	-627	6	254	-1
-17321	-248	-117	-626	7	253	-1
-16796	-245	-112	-629	6	255	-1
-16271	-245	-107	-627	6	253	-1
-15746	-242	-102	-626	6	254	-1
-15221	-241	-98	-626	4	254	-1
-14691	-238	-92	-626	6	253	-1
-14165	-236	-89	-626	6	255	-1
-13640	-234	-83	-626	6	255	-1
-13116	-231	-79	-625	5	253	-1
-12564	-230	-74	-625	6	253	-1
-12039	-228	-71	-625	6	255	-2
-11513	-226	-66	-625	7	253	-2
-10989	-224	-62	-625	6	253	0
-10464	-221	-58	-624	6	253	-2
-9939	-218	-54	-625	6	254	-1
-9414	-219	-51	-624	7	254	-1
-8889	-215	-47	-624	6	254	-2
-8365	-212	-44	-624	6	253	-1
-7839	-211	-41	-624	5	253	0
-7315	-209	-38	-625	6	254	-1
-6778	-208	-34	-625	6	254	-1
-6253	-206	-32	-626	6	255	-2
-5723	-202	-29	-626	7	254	-2
-5198	-203	-27	-624	7	253	-1
-4673	-202	-24	-625	6	254	-1
-4149	-199	-23	-624	6	254	-1
-3623	-198	-22	-624	6	254	-1
-3088	-195	-20	-625	5	254	-2
-2563	-197	-18	-625	7	255	-1
-2038	-194	-16	-625	6	254	-2
-1513	-195	-17	-626	5	254	-1
-989	-193	-17	-627	5	254	0
-463	-193	-18	-625	7	255	-3
61	-194	-17	-625	7	253	-1
585	-192	-18	-624	6	254	-1
1111	-193	-18	-625	6	254	-1
1635	-194	-20	-625	7	252	-1
2160	-196	-19	-624	6	254	-1
2684	-197	-21	-624	6	254	-1
3221	-198	-21	-623	4	254	-1
3751	-199	-24	-626	6	252	-1
4276	-200	-25	-624	6	254	-1
4801	-200	-26	-624	7	254	-2
5325	-200	-28	-624	5	253	-1
5862	-203	-28	-623	7	255	-2
6386	-204	-30	-622	7	253	-2
6912	-206	-31	-624	6	253	-3
7436	-208	-34	-624	7	255	-1
7961	-208	-35	-625	6	254	-1
8485	-210	-37	-626	6	254	-1
9011	-211	-38	-624	6	252	-2
9535	-212	-41	-625	5	255	0
10059	-213	-42	-625	6	254	-2
10585	-216	-45	-625	5	253	-1
11110	-216	-49	-626	6	254	-1
11634	-218	-53	-626	6	255	-1
12160	-220	-55	-626	6	254	-2
12690	-222	-58	-626	8	255	-2
13214	-224	-63	-627	6	254	0
13751	-224	-66	-627	5	254	-1
14276	-227	-69	-625	5	254	-1
14800	-230	-72	-625	6	253	-1
15337	-232	-76	-625	6	253	-1
15861	-233	-80	-625	7	254	-2
16387	-235	-84	-625	6	254	-1
16911	-237	-87	-623	6	254	-1
17436	-239	-89	-624	7	254	-1
17961	-240	-95	-624	5	253	-1
18486	-242	-98	-626	6	254	-2
19011	-242	-102	-624	7	254	-2
19535	-247	-107	-626	6	253	-2
20061	-246	-110	-624	7	253	-1
20586	-248	-112	-625	5	252	-1
21110	-248	-118	-625	5	253	-1
21642	-251	-121	-626	7	255	-2
22166	-253	-127	-626	5	255	-1
22691	-251	-129	-629	6	255	0
23216	-253	-133	-626	5	254	-1
23752	-254	-139	-629	6	254	-1
24289	-254	-141	-629	6	254	-1
24814	-256	-145	-625	7	253	-2
25338	-257	-150	-627	6	253	0
25864	-257	-154	-627	6	253	0
26388	-259	-156	-627	6	254	-1
26913	-259	-159	-628	6	255	0
27439	-260	-162	-626	6	253	-1
27963	-260	-163	-628	6	254	-2
28488	-261	-166	-628	7	253	-2
29014	-262	-168	-626	6	254	-1
29538	-262	-169	-626	7	253	-1
30063	-262	-171	-627	6	254	-2
30594	-263	-172	-627	7	255	-1
31119	-263	-171	-627	7	254	-2
31643	-263	-172	-626	6	252	0
32168	-263	-173	-628	7	254	-1
32694	-262	-174	-628	6	254	-1
-32318	-264	-172	-626	6	254	-1
-31781	-263	-171	-625	6	254	0
-31245	-262	-172	-628	6	254	-1
-30719	-262	-170	-629	6	254	-1
-30195	-262	-169	-627	6	254	-3
-29670	-263	-168	-627	6	254	-2
-29145	-261	-169	-630	6	254	-2
-28619	-261	-167	-629	6	255	-1
-28095	-261	-165	-628	5	253	-1
-27570	-260	-163	-629	7	255	-2
-27044	-259	-161	-628	5	255	-3
-26514	-258	-159	-629	6	254	-1
-25990	-258	-158	-628	6	255	-1
-25464	-258	-154	-627	6	253	-2
-24939	-257	-152	-628	6	254	-1
-24414	-257	-151	-626	5	254	-2
-23889	-255	-147	-627	7	253	-1
-23364	-257	-145	-627	6	254	-2
-22839	-254	-142	-628	5	253	-1
-22303	-253	-137	-629	6	253	0
-21778	-254	-134	-626	6	253	-1
-21241	-253	-131	-626	7	254	-1
-20716	-252	-128	-625	6	254	0
-20192	-250	-125	-626	7	253	-1
-19666	-249	-120	-625	6	254	-2
-19141	-248	-117	-626	6	253	-3
-18616	-248	-113	-626	6	253	-1
-18085	-246	-111	-627	5	254	-1
-17561	-247	-107	-626	6	254	-1
-17036	-245	-104	-629	6	255	-2
-16510	-243	-101	-624	5	253	0
-15986	-241	-100	-627	6	254	-2
-15461	-242	-97	-627	6	254	-1
-14936	-237	-94	-625	6	254	-1
-14411	-237	-91	-628	5	255	-2
-13886	-236	-89	-627	6	254	-1
-13350	-234	-87	-627	6	253	-1
-12825	-232	-83	-626	6	253	-2
-12300	-232	-83	-629	6	253	-1
-11775	-231	-80	-627	7	253	-2
-11250	-229	-76	-627	6	253	0
-10714	-229	-75	-626	6	255	-1
-10188	-228	-74	-625	6	254	-2
-9664	-227	-71	-626	6	254	-1
-9141	-227	-68	-625	5	254	-1
-8615	-226	-66	-625	6	254	-2
-8091	-225	-64	-627	6	253	-2
-7566	-224	-63	-624	6	253	-2
-7042	-221	-60	-625	7	255	-2
-6516	-220	-57	-625	7	253	-2
-5992	-220	-57	-624	6	255	-1
-5467	-219	-55	-626	7	254	-1
-4942	-218	-53	-624	6	253	-2
-4417	-217	-52	-625	5	254	-1
-3881	-217	-51	-627	6	254	-2
-3356	-215	-50	-627	6	253	-1
-2832	-214	-51	-625	7	254	-2
-2307	-216	-49	-626	7	253	-1
-1781	-216	-50	-626	6	253	-3
-1257	-215	-51	-627	6	253	-1
-732	-215	-52	-626	6	253	-3
-190	-217	-52	-625	6	253	0
334	-217	-55	-626	5	255	-1
860	-217	-54	-627	6	254	-1
1384	-217	-57	-626	7	253	-1
1908	-218	-58	-627	6	254	-1
2434	-220	-58	-626	6	255	-1
2958	-222	-60	-626	7	253	-2
3483	-223	-61	-626	6	254	-2
4007	-224	-65	-624	7	254	-1
4533	-223	-66	-624	6	254	-1
5057	-225	-67	-625	6	254	0
5594	-225	-67	-624	6	253	-2
6118	-227	-68	-624	6	253	-2
6643	-227	-71	-626	5	255	-1
7168	-229	-73	-626	6	254	-2
7693	-231	-74	-625	7	253	-2
8217	-230	-76	-626	7	255	-2
8748	-232	-79	-625	7	254	-2
9272	-232	-81	-627	6	253	-2
9808	-235	-84	-627	6	254	0
10334	-236	-86	-626	5	252	0
10858	-237	-89	-626	6	254	-1
11383	-236	-92	-629	6	255	-2
11908	-237	-94	-626	8	254	-1
12433	-239	-96	-627	5	254	-1
12958	-240	-100	-627	7	254	-3
13483	-240	-102	-627	7	253	-2
14008	-241	-104	-626	6	253	-1
14543	-244	-106	-626	7	253	-1
15069	-244	-110	-626	7	253	-1
15594	-245	-113	-627	6	254	-1
16118	-246	-114	-629	7	254	-1
16644	-245	-117	-626	6	253	0
17169	-248	-119	-626	7	254	-2
17699	-249	-120	-626	6	253	-1
18224	-249	-122	-626	6	254	-1
18749	-250	-124	-627	6	253	-1
19274	-251	-125	-627	5	253	0
19799	-251	-126	-626	7	253	-2
20335	-251	-129	-627	6	254	-1
20860	-252	-129	-626	6	254	-1
21386	-252	-130	-629	6	253	-1
21910	-253	-134	-626	6	255	-2
22435	-253	-132	-628	6	254	-4
22961	-252	-133	-627	7	253	-2
23485	-253	-136	-627	7	253	-2
24022	-253	-137	-629	7	253	-1
24547	-253	-138	-628	5	255	-2
25071	-252	-136	-627	6	254	-2
25596	-253	-138	-627	6	255	-2
26122	-251	-138	-630	6	254	-1
26652	-252	-139	-627	6	255	-1
27176	-252	-138	-627	7	253	-2
27702	-253	-136	-627	7	254	-2
28227	-252	-137	-627	7	253	-2
28751	-254	-135	-627	7	253	-1
29277	-253	-135	-627	6	254	-2
29802	-254	-135	-626	6	253	-1
30339	-252	-133	-626	7	254	-1
30863	-252	-132	-627	6	254	-2
31388	-253	-130	-626	6	253	-1
31913	-252	-128	-626	6	253	-3
32438	-250	-127	-624	5	254	-1
-32545	-250	-125	-628	7	254	-1
-32021	-251	-124	-627	6	254	-1
-31496	-250	-123	-626	6	254	-1
-30970	-249	-123	-627	5	253	-1
-30440	-248	-121	-628	7	254	-2
-29915	-249	-118	-626	7	251	-2
-29390	-248	-118	-627	6	253	-2
-28865	-246	-116	-627	6	252	-1
-28340	-246	-113	-630	6	254	-1
-27815	-245	-113	-627	5	254	-1
-27290	-246	-111	-626	6	253	-1
-26765	-245	-111	-627	6	253	-2
-26240	-243	-108	-627	7	255	-1
-25715	-243	-106	-626	6	253	-1
-25190	-242	-105	-625	6	252	-1
-24653	-241	-103	-626	6	253	-2
-24128	-242	-102	-626	7	254	-3
-23604	-241	-100	-628	6	253	-1
-23067	-241	-98	-627	8	254	-1
-22542	-241	-97	-625	4	254	-1
-22011	-239	-96	-625	6	253	-2
-21487	-240	-94	-625	6	254	-2
-20962	-238	-94	-624	6	254	-2
-20436	-238	-93	-626	7	253	-2
-19912	-238	-91	-627	6	253	-1
-19387	-238	-90	-625	6	254	-1
-18863	-238	-90	-625	6	254	-2
-18337	-237	-89	-628	5	254	-1
-17812	-236	-88	-627	6	254	-2
-17288	-235	-89	-626	6	253	-1
-16762	-234	-88	-627	5	255	-2
-16237	-235	-88	-626	6	255	-2
-15713	-235	-87	-627	6	254	-1
-15187	-234	-87	-627	5	255	-1
-14651	-236	-89	-627	7	253	-1
-14115	-234	-89	-626	7	253	-2
-13590	-235	-89	-627	6	253	-2
-13060	-235	-88	-625	5	254	-2
-12534	-235	-88	-629	6	254	-1
-12010	-236	-89	-626	6	254	0
-11485	-235	-88	-625	6	252	-1
-10960	-237	-88	-626	8	253	-2
-10435	-236	-87	-625	6	255	-2
-9910	-236	-86	-626	6	253	-1
-9385	-235	-87	-626	6	254	-1
-8860	-236	-88	-627	6	254	0
-8336	-236	-87	-626	5	253	-1
-7811	-236	-86	-627	5	253	-2
-7286	-236	-87	-627	6	255	-2
-6761	-234	-88	-625	7	254	-1
-6237	-235	-89	-627	7	253	-2
-5711	-237	-90	-627	6	254	-1
-5187	-236	-91	-628	4	253	-2
-4650	-235	-91	-626	6	254	0
-4109	-237	-90	-627	7	254	-1
-3583	-238	-92	-627	6	253	-1
-3059	-236	-93	-628	6	253	-1
-2534	-238	-94	-627	6	254	-2
-2010	-238	-94	-625	6	252	-1
-1484	-238	-93	-626	7	253	-1
-960	-238	-93	-626	6	253	-1
-435	-238	-93	-626	5	254	-1
90	-238	-90	-626	6	253	-1
615	-238	-91	-627	7	254	-1
1139	-237	-89	-626	5	253	-1
1665	-237	-89	-625	6	253	-1
2189	-236	-88	-626	6	254	-1
2713	-234	-85	-626	6	254	-1
3238	-236	-87	-627	6	253	-2
3763	-235	-83	-626	5	254	-2
4288	-234	-84	-627	5	254	-1
4830	-234	-83	-626	6	253	-1
5354	-234	-83	-625	7	252	-2
5891	-232	-80	-626	7	254	-2
6416	-231	-80	-628	7	253	-1
6940	-233	-81	-626	7	254	-2
7464	-230	-78	-626	6	253	-2
7990	-230	-78	-627	6	253	-1
8514	-229	-77	-624	7	254	-1
9039	-229	-76	-624	6	254	-2
9564	-228	-76	-625	5	254	-2
10089	-229	-74	-626	6	253	-1
10613	-227	-72	-625	7	254	-2
11139	-228	-71	-625	7	251	-1
11664	-227	-71	-624	7	253	0
12188	-227	-69	-626	6	254	-2
12713	-227	-69	-625	6	254	-1
13238	-227	-67	-625	6	253	-2
13774	-225	-68	-627	6	254	-1
14305	-224	-67	-625	7	254	-1
14829	-225	-67	-626	6	252	-1
15354	-225	-67	-628	7	253	-3
15880	-225	-65	-625	7	254	-2
16415	-224	-66	-626	6	253	0
16941	-223	-66	-626	7	253	-1
17466	-224	-66	-626	7	254	-2
17990	-224	-66	-626	7	253	0
18515	-223	-65	-625	6	254	-1
19040	-223	-65	-626	7	254	-1
19565	-225	-65	-624	6	254	-2
20089	-223	-64	-627	6	253	-2
20615	-223	-64	-626	6	254	-2
21140	-223	-63	-625	5	253	-1
21664	-223	-61	-625	6	254	0
22190	-223	-61	-625	6	254	-1
22714	-223	-61	-624	7	254	-2
23277	-223	-62	-626	7	253	-2
23801	-222	-60	-624	7	253	-1
24327	-223	-62	-625	6	254	-2
24851	-222	-62	-626	7	252	-2
25376	-223	-63	-626	6	252	-2
25901	-224	-64	-626	6	252	-1
26437	-223	-65	-626	8	254	-1
26962	-223	-66	-627	6	253	-1
27488	-223	-66	-627	8	254	-2
28012	-225	-66	-627	6	253	-1
28537	-225	-67	-625	7	254	-2
29062	-224	-69	-625	6	254	-1
29587	-226	-68	-625	6	253	-2
30111	-227	-69	-625	7	252	-2
30637	-228	-70	-625	6	254	-1
31162	-226	-71	-626	6	254	-1
31686	-227	-70	-624	7	254	-1
32228	-229	-72	-626	7	254	-1
32753	-229	-72	-624	6	253	-2
-32259	-228	-72	-623	6	254	-1
-31733	-228	-74	-625	7	253	-2
-31208	-229	-74	-625	6	254	-2
-30684	-229	-76	-625	4	253	-2
-30158	-232	-77	-626	5	253	-2
-29633	-230	-78	-629	6	254	-1
-29109	-231	-78	-626	5	253	-1
-28572	-233	-79	-627	7	253	0
-28047	-231	-83	-627	6	254	-2
-27523	-233	-83	-625	6	254	-3
-26997	-233	-85	-625	5	254	-2
-26472	-234	-87	-627	7	254	-2
-25948	-234	-86	-625	5	254	-1
-25422	-236	-88	-625	7	254	-1
-24898	-236	-90	-629	6	254	-1
-24355	-237	-92	-624	7	254	-2
-23831	-237	-95	-626	6	255	-1
-23306	-238	-97	-625	6	254	-1
-22781	-241	-97	-626	6	254	-1
-22256	-240	-98	-625	7	254	-1
-21731	-243	-101	-625	6	254	-2
-21207	-243	-102	-624	7	254	-2
-20681	-244	-104	-627	7	254	-1
-20156	-244	-106	-626	6	254	-1
-19632	-244	-106	-627	6	253	-1
-19106	-246	-110	-626	6	252	0
-18570	-245	-111	-628	8	253	-1
-18044	-246	-113	-626	6	253	-2
-17519	-247	-117	-628	5	253	-1
-16995	-245	-119	-626	6	253	-1
-16469	-248	-120	-627	7	254	-1
-15939	-248	-122	-626	7	254	-2
-15414	-248	-123	-627	6	254	-2
-14877	-249	-126	-626	6	253	-2
-14353	-250	-127	-627	7	253	-1
-13828	-250	-127	-627	7	255	-1
-13302	-252	-128	-625	6	253	-2
-12778	-251	-129	-625	7	251	-1
-12253	-252	-130	-626	6	253	-1
-11727	-252	-131	-625	6	252	-2
-11202	-252	-132	-627	6	253	-1
-10678	-253	-134	-624	7	254	-2
-10152	-254	-134	-628	6	253	-1
-9627	-251	-134	-627	5	254	-1
-9103	-254	-135	-628	6	254	-3
-8578	-252	-137	-626	5	254	-1
-8041	-253	-138	-627	7	254	-2
-7511	-254	-139	-627	6	254	-1
-6985	-252	-137	-627	6	254	-1
-6461	-253	-138	-626	6	254	-1
-5924	-252	-137	-627	7	254	-2
-5400	-253	-137	-625	6	253	0
-4875	-251	-137	-626	6	253	-2
-4349	-253	-137	-628	6	254	-2
-3825	-254	-134	-624	6	253	-2
-3300	-253	-136	-627	7	253	-2
-2776	-253	-133	-624	6	252	-1
-2250	-253	-134	-625	6	255	-1
-1725	-253	-132	-625	6	254	0
-1201	-252	-132	-626	5	254	-1
-675	-251	-131	-626	6	253	-1
-151	-252	-129	-629	6	251	-1
374	-252	-131	-626	7	254	-1
899	-251	-129	-627	6	253	-2
1441	-250	-127	-626	6	254	-1
1978	-248	-125	-627	6	254	-1
2502	-249	-125	-627	6	254	-1
3027	-249	-123	-627	7	254	-1
3563	-248	-121	-626	7	253	-2
4088	-247	-118	-626	6	254	0
4613	-248	-117	-626	7	254	-1
5138	-246	-115	-626	6	253	-2
5662	-246	-111	-627	6	254	-1
6188	-244	-109	-627	6	252	0
6712	-244	-106	-625	7	253	-2
7237	-244	-105	-624	6	254	-2
7762	-243	-101	-625	7	254	-1
8287	-242	-98	-626	6	252	0
8812	-241	-97	-625	6	253	-1
9336	-240	-95	-627	7	254	-1
9862	-238	-95	-627	6	254	-2
10392	-236	-92	-627	6	254	0
10916	-236	-91	-625	5	253	-1
11442	-235	-90	-627	6	254	-1
11966	-234	-87	-625	6	254	-1
12530	-232	-85	-627	7	254	-1
13054	-233	-84	-625	6	253	-2
13580	-231	-81	-625	6	254	-2
14104	-231	-78	-625	7	253	-2
14629	-229	-77	-625	6	253	-1
15154	-229	-74	-625	6	254	-1
15679	-228	-73	-624	6	253	-1
16204	-228	-71	-625	6	254	-1
16729	-226	-68	-626	6	254	-1
17254	-227	-67	-624	6	253	-1
17778	-225	-66	-623	6	253	-3
18304	-223	-65	-626	5	255	-2
18828	-224	-64	-625	6	253	-2
19359	-223	-62	-626	6	254	-1
19884	-222	-63	-626	6	254	0
20409	-222	-63	-625	6	253	-2
20933	-222	-63	-628	7	254	-1
21458	-221	-61	-625	5	255	-1
21994	-221	-63	-626	5	253	-1
22531	-222	-64	-627	6	253	-1
23056	-223	-65	-625	5	254	-1
23580	-223	-66	-626	6	253	-2
24105	-224	-66	-626	6	252	-1
24631	-227	-68	-624	6	254	-1
25155	-225	-68	-624	6	254	-1
25680	-228	-69	-625	6	254	-1
26205	-227	-72	-625	7	253	0
26730	-229	-73	-626	5	256	-1
27254	-231	-76	-625	6	253	-1
27780	-232	-78	-624	7	252	-1
28310	-234	-82	-625	5	255	-1
28835	-235	-86	-625	7	253	-2
29360	-237	-88	-627	7	252	-1
29885	-237	-92	-626	6	254	-2
30409	-237	-96	-629	5	253	0
30935	-240	-99	-627	7	253	-1
31470	-243	-104	-626	7	253	-1
31995	-243	-106	-627	5	253	-2
32521	-245	-110	-626	5	253	-1
-32479	-246	-114	-626	5	254	-1
-31953	-246	-118	-625	6	253	-1
-31429	-248	-120	-625	7	254	-1
-30904	-249	-123	-626	5	254	-1
-30378	-250	-126	-625	7	254	-2
-29854	-250	-128	-626	6	254	-1
-29329	-252	-130	-625	7	253	-2
-28804	-252	-133	-626	6	255	-1
-28273	-254	-138	-625	6	253	-1
-27748	-256	-139	-624	7	253	-1
-27224	-255	-140	-627	7	252	-2
-26698	-256	-143	-627	5	254	-1
-26173	-257	-146	-626	7	255	-1
-25648	-257	-148	-627	6	253	-1
-25112	-257	-152	-627	6	253	-1
-24587	-257	-153	-630	6	253	-1
-24061	-258	-156	-627	6	254	0
-23537	-258	-159	-627	6	254	-1
-23012	-258	-161	-627	6	254	-1
-22475	-259	-163	-627	6	253	-1
-21950	-260	-166	-627	5	252	-1
-21426	-260	-166	-627	7	254	-2
-20900	-260	-167	-627	5	253	-1
-20375	-261	-169	-626	6	255	-2
-19832	-261	-169	-626	6	253	0
-19305	-262	-168	-625	7	253	-1
-18778	-262	-171	-626	6	254	-1
-18250	-260	-168	-628	7	255	-2
-17722	-262	-170	-627	7	254	-2
-17194	-262	-169	-627	7	253	-1
-16667	-262	-168	-628	6	254	-2
-16139	-260	-168	-626	6	254	-1
-15600	-260	-167	-627	7	254	-1
-15073	-261	-164	-626	4	254	-2
-14545	-259	-165	-626	6	253	-1
-14018	-259	-163	-628	6	253	-1
-13490	-259	-161	-627	6	254	-1
-12962	-259	-160	-628	7	254	0
-12435	-258	-158	-627	5	254	-2
-11895	-257	-155	-626	7	254	0
-11363	-256	-152	-626	6	253	-1
-10834	-258	-152	-626	7	254	0
-10307	-256	-146	-627	6	253	-1
-9780	-254	-143	-628	6	253	-1
-9252	-254	-141	-625	7	252	-2
-8725	-255	-139	-625	7	253	-1
-8197	-253	-134	-625	6	255	-1
-7669	-253	-131	-626	6	255	-1
-7142	-253	-128	-626	5	253	-1
-6615	-250	-125	-624	7	252	-2
-6076	-249	-121	-625	6	254	-1
-5549	-247	-116	-627	6	254	-2
-5020	-247	-114	-625	7	255	-1
-4493	-245	-112	-626	7	255	-2
-3965	-244	-109	-626	7	254	-1
-3438	-243	-105	-629	6	253	-1
-2905	-240	-102	-627	6	255	-1
-2377	-240	-98	-626	6	254	0
-1839	-238	-97	-629	6	253	-1
-1311	-235	-91	-624	5	255	-1
-784	-237	-89	-624	6	251	-1
-256	-235	-84	-623	5	254	-1
271	-234	-80	-625	6	254	-1
798	-233	-79	-624	7	253	-1
1326	-230	-75	-624	6	253	-1
1853	-230	-72	-625	6	254	-2
2380	-227	-69	-625	6	253	0
2919	-226	-67	-626	6	253	-1
3446	-225	-66	-625	7	253	-2
3974	-224	-66	-625	6	253	-1
4501	-221	-65	-628	5	253	-1
5028	-221	-63	-629	6	253	-1
5556	-222	-63	-626	8	255	-2
6083	-222	-63	-626	7	254	-2
6617	-222	-63	-625	7	252	-1
7144	-221	-61	-626	7	254	-2
7671	-221	-61	-624	6	254	-1
8199	-222	-62	-625	8	253	-2
8737	-222	-62	-625	5	254	-1
9265	-221	-59	-624	7	253	-2
9792	-225	-61	-624	6	253	-1
10319	-223	-61	-625	8	253	-1
10848	-223	-62	-625	6	254	-2
11375	-225	-64	-627	6	253	0
11902	-225	-65	-628	6	254	-1
12441	-224	-65	-627	6	252	-2
12968	-225	-68	-629	7	255	-1
13496	-227	-69	-627	6	254	-2
14023	-228	-73	-626	7	253	-2
14551	-229	-73	-627	7	253	-2
15078	-230	-77	-626	6	254	0
15611	-230	-78	-625	6	254	0
16139	-232	-82	-626	6	252	-1
16666	-233	-83	-626	7	254	-1
17193	-235	-86	-625	7	254	0
17721	-235	-89	-625	6	253	-1
18248	-238	-91	-625	6	254	-1
18788	-238	-93	-625	6	253	-2
19315	-241	-96	-625	6	254	-2
19843	-241	-100	-629	6	254	0
20370	-243	-101	-625	6	252	-1
20897	-244	-104	-626	6	254	-2
21437	-244	-106	-624	6	253	-2
21964	-246	-109	-626	6	254	-1
22492	-247	-112	-626	6	253	-2
23019	-245	-115	-626	6	254	-2
23546	-246	-119	-626	8	254	-2
24075	-249	-121	-625	7	254	-1
24607	-248	-124	-627	5	253	0
25135	-250	-128	-626	6	254	-2
25662	-250	-128	-626	6	254	-1
26190	-251	-132	-625	7	255	-1
26718	-251	-134	-628	6	254	-1
27245	-252	-135	-628	6	254	-1
27772	-253	-137	-626	6	254	-1
28300	-253	-139	-626	8	254	-2
28828	-253	-140	-625	7	255	-2
29367	-253	-141	-625	5	253	-1
29895	-255	-144	-625	7	254	-2
30423	-255	-145	-625	7	254	-1
30961	-257	-145	-626	7	253	-1
31489	-258	-147	-626	7	254	-1
32016	-257	-148	-626	7	253	-2
32543	-257	-148	-627	6	254	-1
-32464	-257	-149	-626	6	255	-1
-31932	-257	-149	-627	6	253	-2
-31404	-256	-150	-627	5	253	-1
-30876	-257	-150	-627	6	254	-1
-30349	-255	-150	-629	6	254	-1
-29821	-257	-149	-629	7	253	-2
-29293	-256	-150	-626	6	253	-1
-28766	-257	-149	-627	6	254	-1
-28238	-256	-147	-627	6	254	-2
-27711	-256	-148	-625	6	254	-1
-27183	-255	-147	-627	6	253	-1
-26655	-255	-144	-625	8	254	-1
-26116	-254	-143	-625	6	253	-1
-25577	-254	-142	-625	7	255	-1
-25050	-254	-138	-625	6	256	-1
-24522	-254	-136	-626	5	253	-1
-23995	-253	-134	-624	6	253	-1
-23461	-252	-130	-625	7	252	-1
-22934	-252	-129	-626	5	252	-1
-22407	-250	-125	-625	5	253	-1
-21878	-248	-121	-627	6	255	-2
-21351	-248	-119	-626	7	254	-2
-20824	-247	-115	-626	6	253	-1
-20295	-247	-113	-628	6	253	-1
-19768	-245	-110	-628	8	254	-2
-19240	-243	-107	-627	7	254	-1
-18713	-242	-106	-627	6	254	-1
-18185	-241	-102	-627	7	254	-1
-17657	-241	-99	-625	7	255	-3
-17130	-240	-97	-625	6	254	-1
-16603	-237	-93	-625	8	254	-2
-16064	-237	-92	-626	6	254	-1
-15524	-235	-89	-624	7	254	-1
-14992	-234	-85	-625	6	254	-1
-14464	-232	-80	-624	7	254	-2
-13936	-230	-78	-626	7	253	-2
-13409	-228	-73	-626	6	253	-2
-12881	-227	-69	-624	7	254	-1
-12354	-225	-68	-624	7	253	-2
-11827	-225	-64	-624	6	253	-1
-11299	-224	-62	-625	6	253	-1
-10771	-222	-59	-625	6	252	-2
-10244	-222	-57	-626	6	254	-1
-9716	-219	-55	-626	6	254	-1
-9189	-218	-54	-624	6	254	-2
-8661	-217	-53	-625	6	254	-1
-8134	-216	-52	-627	5	254	-1
-7607	-215	-51	-628	6	253	-1
-7079	-215	-51	-627	7	254	-2
-6524	-215	-49	-625	6	253	-2
-5992	-215	-51	-625	8	252	-1
-5452	-215	-50	-625	6	254	-1
-4925	-215	-50	-625	7	254	-2
-4398	-215	-52	-627	6	255	-3
-3870	-215	-52	-626	7	254	-2
-3343	-217	-53	-625	5	254	-1
-2815	-217	-53	-624	6	253	0
-2288	-216	-52	-624	6	253	-1
-1761	-218	-53	-624	6	253	-2
-1233	-219	-53	-625	7	253	-2
-705	-220	-54	-624	7	253	-1
-178	-220	-54	-623	6	254	-2
350	-220	-56	-624	7	253	-3
876	-219	-57	-626	7	252	-1
1403	-221	-58	-626	5	251	0
1931	-221	-60	-627	6	253	-1
2469	-221	-63	-626	6	253	-2
3003	-223	-66	-628	6	253	-1
3530	-224	-66	-625	6	253	0
4058	-226	-70	-626	6	253	-2
4585	-227	-71	-625	5	254	-2
5124	-227	-76	-625	7	254	-2
5651	-230	-77	-625	6	255	-1
6178	-230	-81	-625	7	254	-1
6706	-231	-83	-626	7	254	-2
7233	-233	-86	-625	7	253	0
7760	-235	-87	-625	5	252	0
8288	-238	-91	-624	6	254	-2
8815	-238	-92	-625	5	252	-1
9342	-238	-96	-626	6	254	-1
9870	-239	-97	-627	6	252	-1
10397	-242	-99	-625	6	252	-1
10926	-243	-101	-626	5	253	-1
11453	-243	-105	-625	7	253	-2
11992	-244	-107	-625	6	254	-2
12525	-246	-108	-625	7	253	-1
13052	-246	-111	-625	7	254	-3
13580	-245	-115	-626	6	253	-1
14107	-246	-116	-626	7	255	-1
14635	-249	-121	-626	7	253	-1
15174	-248	-121	-627	7	253	-1
15702	-248	-123	-626	6	254	-2
16229	-248	-125	-625	6	254	-1
16756	-249	-127	-625	6	254	-2
17285	-250	-129	-625	6	254	-1
17812	-250	-129	-626	6	253	0
18339	-249	-129	-625	5	253	-1
18867	-253	-131	-625	5	254	-1
19395	-252	-131	-625	6	255	-2
19922	-252	-131	-626	7	254	-2
20450	-253	-132	-627	7	255	-1
20995	-252	-131	-625	6	253	-2
21522	-253	-132	-626	7	255	-2
22049	-252	-132	-626	7	254	-2
22577	-253	-130	-625	7	254	-2
23104	-251	-132	-625	5	253	-1
23632	-251	-130	-626	7	254	-1
24160	-251	-131	-628	6	254	-1
24687	-252	-131	-626	6	252	-1
25214	-251	-128	-628	7	253	-1
25754	-249	-130	-628	7	253	-1
26281	-250	-129	-629	6	253	-1
26809	-250	-129	-625	7	252	-1
27336	-250	-128	-624	6	254	-1
27865	-250	-125	-626	5	253	0
28392	-249	-125	-626	5	254	-1
28919	-249	-123	-624	7	254	-1
29447	-248	-122	-625	6	255	-1
29991	-249	-121	-625	7	253	-1
30519	-248	-119	-625	6	253	-3
31046	-248	-117	-625	8	255	-1
31574	-247	-115	-624	6	254	-2
32101	-247	-114	-626	8	255	-2
32629	-248	-113	-626	6	254	-1
-32379	-246	-110	-628	6	254	-1
-31852	-244	-109	-626	5	252	0
-31325	-245	-108	-626	6	254	-2
-30796	-244	-106	-627	6	254	0
-30269	-243	-106	-625	7	254	-2
-29730	-242	-104	-626	6	255	0
-29202	-241	-102	-626	6	253	-2
-28675	-240	-101	-626	6	254	-1
-28147	-238	-97	-627	6	253	-1
-27620	-238	-95	-625	5	253	-1
-27086	-238	-95	-626	6	255	-1
-26559	-237	-95	-624	6	253	-1
-26020	-236	-91	-626	7	255	-2
-25493	-236	-90	-624	6	253	-1
-24966	-236	-88	-624	6	254	-2
-24437	-234	-87	-625	8	254	-2
-23910	-234	-83	-625	6	254	-1
-23383	-234	-80	-624	6	253	-1
-22855	-232	-80	-625	5	254	-1
-22328	-232	-77	-624	6	254	-1
-21800	-230	-75	-624	6	253	-1
-21272	-228	-72	-625	6	254	-1
-20745	-228	-70	-624	6	254	-1
-20217	-226	-68	-625	7	254	-1
-19690	-225	-67	-625	6	253	0
-19150	-224	-63	-625	7	252	-1
-18623	-221	-61	-626	7	255	-1
-18089	-220	-58	-626	6	253	-1
-17562	-217	-53	-626	6	253	-2
-17023	-214	-50	-625	6	253	-2
-16496	-212	-47	-625	7	252	-1
-15969	-210	-41	-627	6	253	-1
-15441	-206	-36	-626	8	253	-1
-14913	-206	-34	-625	7	253	-2
-14386	-202	-30	-625	6	253	-2
-13858	-199	-26	-625	7	253	-1
-13331	-195	-23	-623	7	253	-2
-12804	-191	-17	-623	6	253	-1
-12276	-189	-13	-624	5	252	-2
-11748	-186	-9	-624	7	254	-1
-11220	-183	-4	-623	5	253	-1
-10693	-180	-1	-624	6	253	0
-10166	-177	2	-626	5	253	-2
-9611	-174	3	-623	6	253	-1
-9072	-171	8	-624	7	253	-1
-8545	-169	9	-624	7	253	-2
-8017	-166	11	-624	8	254	0
-7479	-165	15	-626	6	253	-1
-6951	-163	17	-626	6	254	-1
-6424	-162	17	-626	6	253	-1
-5897	-159	18	-628	7	253	-1
-5369	-157	20	-626	6	254	-1
-4842	-157	19	-625	7	253	-2
-4315	-158	19	-624	6	253	-1
-3787	-158	19	-624	7	255	-1
-3260	-157	19	-625	7	254	-1
-2733	-158	21	-624	7	253	0
-2205	-158	20	-624	7	254	-1
-1678	-158	20	-624	6	253	-2
-1150	-161	18	-623	6	253	-1
-623	-160	17	-623	6	254	0
-90	-162	17	-625	6	254	-2
437	-163	15	-625	7	254	-2
964	-165	15	-624	6	255	-2
1514	-168	12	-624	7	253	0
2041	-167	10	-626	6	254	-1
2569	-170	7	-627	6	254	-2
3096	-173	6	-624	6	254	-3
3623	-175	3	-625	6	254	-2
4151	-178	0	-625	5	254	-1
4678	-180	-4	-624	7	253	-2
5206	-183	-7	-625	7	254	0
5733	-187	-12	-626	6	253	-1
6260	-190	-14	-626	6	253	-2
6788	-192	-19	-625	6	255	-2
7315	-196	-24	-625	7	253	-1
7842	-198	-28	-627	6	254	-1
8370	-201	-33	-623	6	254	-1
8897	-205	-36	-626	7	253	0
9424	-208	-41	-625	6	253	-1
9958	-211	-44	-624	6	253	-1
10485	-216	-48	-624	8	254	-2
11024	-218	-52	-625	6	253	-1
11563	-220	-58	-625	7	255	-2
12090	-223	-62	-624	7	254	-1
12617	-226	-66	-625	7	254	-1
13145	-228	-71	-625	7	253	-1
13673	-232	-75	-625	6	253	-2
14200	-232	-80	-626	6	252	-1
14728	-235	-85	-625	7	253	-1
15255	-238	-90	-626	6	254	-1
15782	-240	-94	-627	7	255	0
16310	-241	-101	-628	6	254	-2
16837	-242	-105	-625	7	253	-1
17366	-244	-110	-625	7	255	-1
17893	-246	-114	-627	6	254	-1
18420	-247	-118	-627	7	254	-1
18954	-248	-121	-627	7	253	-2
19481	-248	-126	-626	6	252	-1
20008	-250	-129	-626	6	254	-1
20547	-253	-132	-627	7	254	-1
21074	-250	-134	-626	6	254	-1
21603	-253	-138	-626	8	253	-2
22141	-254	-141	-624	6	254	-1
22669	-255	-140	-626	5	253	0
23197	-255	-143	-627	7	253	-1
23725	-256	-146	-627	7	254	-2
24252	-256	-146	-628	6	254	-1
24779	-256	-148	-626	7	254	-1
25307	-255	-149	-627	6	254	-2
25835	-257	-148	-626	6	254	-1
26362	-275	-131	-615	36	265	-36
26890	-240	-84	-627	-8	257	-4
27423	-190	27	-604	7	254	1
27951	-152	32	-618	10	256	-1
28478	-125	19	-640	-5	259	5
29005	-140	46	-626	13	254	2
29544	-142	71	-601	1	254	-5
30071	-91	74	-615	11	252	5
30599	-123	39	-628	3	253	-8
31126	-139	57	-619	12	255	1
31654	-144	42	-619	1	253	-3
32208	-113	47	-622	7	252	2
32736	-135	32	-625	8	254	-3
-32272	-163	41	-615	4	253	-1
-31744	-152	35	-619	5	248	-3
-31217	-132	32	-629	9	254	-2
-30690	-160	60	-608	12	317	-10
-30162	-33	71	-711	12	212	6
-29635	-196	-10	-714	14	251	3
-29102	-125	42	-724	16	224	4
-28574	25	85	-746	62	226	89
-28047	117	229	-667	103	223	75
-27518	377	318	-514	-14	270	46
-26991	419	342	-464	153	198	85
-26452	513	221	-512	155	165	79
