476,-793,-648
476,-793,-648
486,-645,-752
486,-645,-752
486,-645,-752
486,-645,-752
486,-645,-752
509,-657,-731
509,-657,-731
509,-657,-731
509,-657,-731
523,-900,-456
523,-900,-456
523,-900,-456
523,-900,-456
331,-1019,-21
331,-1019,-21
331,-1019,-21
331,-1019,-21
262,-711,428
262,-711,428
262,-711,428
262,-711,428
262,-711,428
257,-229,550
257,-229,550
257,-229,550
257,-229,550
227,248,366
227,248,366
227,248,366
227,248,366
227,248,366
256,453,63
256,453,63
256,453,63
256,453,63
256,453,63
289,483,-248
289,483,-248
289,483,-248
289,483,-248
289,483,-248
298,410,-486
298,410,-486
298,410,-486
298,410,-486
304,253,-693
304,253,-693
304,253,-693
304,253,-693
304,253,-693
271,150,-780
271,150,-780
271,150,-780
271,150,-780
249,104,-809
249,104,-809
249,104,-809
249,104,-809
249,104,-809
269,72,-822
269,72,-822
269,72,-822
269,72,-822
269,72,-822
375,227,-688
375,227,-688
375,227,-688
375,227,-688
374,432,-371
374,432,-371
374,432,-371
374,432,-371
374,432,-371
299,446,59
299,446,59
299,446,59
299,446,59
299,446,59
119,250,387
119,250,387
119,250,387
119,250,387
119,250,387
-141,-122,526
-141,-122,526
-141,-122,526
-141,-122,526
-318,-607,364
-318,-607,364
-318,-607,364
-318,-607,364
-281,-900,42
-281,-900,42
-281,-900,42
-281,-900,42
-281,-900,42
47,-1050,-244
47,-1050,-244
47,-1050,-244
47,-1050,-244
441,-995,-273
441,-995,-273
441,-995,-273
441,-995,-273
437,-998,-114
437,-998,-114
437,-998,-114
437,-998,-114
80,-995,115
80,-995,115
80,-995,115
80,-995,115
80,-995,115
-302,-830,160
-302,-830,160
-302,-830,160
-302,-830,160
-546,-628,13
-546,-628,13
-546,-628,13
-546,-628,13
-546,-628,13
-598,-504,-321
-598,-504,-321
-598,-504,-321
-598,-504,-321
-483,-418,-604
-483,-418,-604
-483,-418,-604
-483,-418,-604
-200,-382,-831
-200,-382,-831
-200,-382,-831
-200,-382,-831
117,-387,-907
117,-387,-907
117,-387,-907
117,-387,-907
383,-362,-877
383,-362,-877
383,-362,-877
383,-362,-877
587,-315,-782
587,-315,-782
587,-315,-782
587,-315,-782
746,-234,-632
746,-234,-632
746,-234,-632
746,-234,-632
746,-234,-632
832,-186,-477
832,-186,-477
832,-186,-477
832,-186,-477
875,-154,-295
875,-154,-295
875,-154,-295
875,-154,-295
883,-172,-128
883,-172,-128
883,-172,-128
883,-172,-128
857,-195,13
857,-195,13
857,-195,13
857,-195,13
857,-195,13
816,-210,118
816,-210,118
816,-210,118
816,-210,118
816,-210,118
773,-211,196
773,-211,196
773,-211,196
773,-211,196
722,-177,257
722,-177,257
722,-177,257
722,-177,257
722,-177,257
686,-166,301
686,-166,301
686,-166,301
686,-166,301
648,-183,341
648,-183,341
648,-183,341
648,-183,341
648,-183,341
562,-279,421
562,-279,421
562,-279,421
562,-279,421
467,-297,477
467,-297,477
467,-297,477
467,-297,477
467,-297,477
387,-305,514
387,-305,514
387,-305,514
387,-305,514
329,-384,528
329,-384,528
329,-384,528
329,-384,528
329,-384,528
225,-345,555
225,-345,555
225,-345,555
225,-345,555
179,-328,563
179,-328,563
179,-328,563
179,-328,563
179,-328,563
114,-309,569
114,-309,569
114,-309,569
114,-309,569
17,-314,566
17,-314,566
17,-314,566
17,-314,566
17,-314,566
-91,-347,547
-91,-347,547
-91,-347,547
-91,-347,547
-216,-402,499
-216,-402,499
-216,-402,499
-216,-402,499
-216,-402,499
-340,-522,395
-340,-522,395
-340,-522,395
-340,-522,395
-357,-709,256
-357,-709,256
-357,-709,256
-357,-709,256
-216,-931,71
-216,-931,71
-216,-931,71
-216,-931,71
-216,-931,71
-10,-1035,-58
-10,-1035,-58
-10,-1035,-58
-10,-1035,-58
163,-1058,-126
163,-1058,-126
163,-1058,-126
163,-1058,-126
122,-1059,-133
122,-1059,-133
122,-1059,-133
122,-1059,-133
-134,-1001,-50
-134,-1001,-50
-134,-1001,-50
-134,-1001,-50
-386,-774,142
-386,-774,142
-386,-774,142
-386,-774,142
-447,-495,319
-447,-495,319
-447,-495,319
-447,-495,319
-304,-143,463
-304,-143,463
-304,-143,463
-304,-143,463
31,81,494
31,81,494
31,81,494
31,81,494
31,81,494
31,81,494
367,207,349
367,207,349
367,207,349
367,207,349
367,207,349
602,283,27
602,283,27
602,283,27
602,283,27
602,283,27
625,292,-333
625,292,-333
625,292,-333
625,292,-333
625,292,-333
606,148,-603
606,148,-603
606,148,-603
606,148,-603
489,36,-766
489,36,-766
489,36,-766
489,36,-766
489,36,-766
344,-119,-871
344,-119,-871
344,-119,-871
344,-119,-871
248,-254,-903
248,-254,-903
248,-254,-903
248,-254,-903
217,-492,-879
217,-492,-879
217,-492,-879
217,-492,-879
217,-492,-879
171,-668,-812
171,-668,-812
171,-668,-812
171,-668,-812
45,-782,-726
45,-782,-726
45,-782,-726
45,-782,-726
-93,-861,-602
-93,-861,-602
-93,-861,-602
-93,-861,-602
-239,-912,-392
-239,-912,-392
-239,-912,-392
-239,-912,-392
-136,-1005,-108
-136,-1005,-108
-136,-1005,-108
-136,-1005,-108
97,-1038,-22
97,-1038,-22
97,-1038,-22
97,-1038,-22
97,-1038,-22
410,-1010,-227
410,-1010,-227
410,-1010,-227
410,-1010,-227
408,-871,-596
408,-871,-596
408,-871,-596
408,-871,-596
155,-872,-653
155,-872,-653
155,-872,-653
155,-872,-653
-58,-944,-495
-58,-944,-495
-58,-944,-495
-58,-944,-495
-215,-959,-269
-215,-959,-269
-215,-959,-269
-215,-959,-269
-209,-943,36
-209,-943,36
-209,-943,36
-209,-943,36
-209,-943,36
-164,-898,182
-164,-898,182
-164,-898,182
-164,-898,182
-71,-877,264
-71,-877,264
-71,-877,264
-71,-877,264
-43,-860,293
-43,-860,293
-43,-860,293
-43,-860,293
-43,-860,293
-102,-902,211
-102,-902,211
-102,-902,211
-102,-902,211
-141,-1005,-158
-141,-1005,-158
-141,-1005,-158
-141,-1005,-158
267,-1027,-350
267,-1027,-350
267,-1027,-350
267,-1027,-350
370,-1022,-112
370,-1022,-112
370,-1022,-112
370,-1022,-112
221,-963,168
221,-963,168
221,-963,168
221,-963,168
49,-852,321
49,-852,321
49,-852,321
49,-852,321
49,-852,321
-101,-722,401
-101,-722,401
-101,-722,401
-101,-722,401
-133,-642,441
-133,-642,441
-133,-642,441
-133,-642,441
-40,-594,490
-40,-594,490
-40,-594,490
-40,-594,490
-40,-594,490
174,-694,447
174,-694,447
174,-694,447
174,-694,447
494,-874,151
494,-874,151
494,-874,151
494,-874,151
494,-874,151
457,-994,-180
457,-994,-180
457,-994,-180
457,-994,-180
243,-1053,-181
243,-1053,-181
243,-1053,-181
243,-1053,-181
48,-1022,32
48,-1022,32
48,-1022,32
48,-1022,32
48,-1022,32
-125,-832,295
-125,-832,295
-125,-832,295
-125,-832,295
-151,-507,496
-151,-507,496
-151,-507,496
-151,-507,496
-55,-110,542
-55,-110,542
-55,-110,542
-55,-110,542
-55,-110,542
145,225,400
145,225,400
145,225,400
145,225,400
145,225,400
203,399,195
203,399,195
203,399,195
203,399,195
229,479,-5
229,479,-5
229,479,-5
229,479,-5
229,479,-5
229,479,-5
189,506,-217
189,506,-217
189,506,-217
189,506,-217
176,480,-370
176,480,-370
176,480,-370
176,480,-370
176,480,-370
144,444,-471
144,444,-471
144,444,-471
144,444,-471
102,404,-546
102,404,-546
102,404,-546
102,404,-546
102,404,-546
28,350,-612
28,350,-612
28,350,-612
28,350,-612
28,350,-612
-90,265,-670
-90,265,-670
-90,265,-670
-90,265,-670
-165,135,-737
-165,135,-737
-165,135,-737
-165,135,-737
-203,-98,-812
-203,-98,-812
-203,-98,-812
-203,-98,-812
-203,-98,-812
-170,-339,-837
-170,-339,-837
-170,-339,-837
-170,-339,-837
-146,-551,-793
-146,-551,-793
-146,-551,-793
-183,-692,-698
-183,-692,-698
-183,-692,-698
-183,-692,-698
-250,-759,-596
-250,-759,-596
-250,-759,-596
-250,-759,-596
-413,-668,-510
-413,-668,-510
-413,-668,-510
-413,-668,-510
-534,-622,-330
-534,-622,-330
-534,-622,-330
-534,-622,-330
-582,-573,-258
-582,-573,-258
-582,-573,-258
-582,-573,-258
-558,-651,-154
-558,-651,-154
-558,-651,-154
-558,-651,-154
-490,-756,-119
-490,-756,-119
-490,-756,-119
-490,-756,-119
-443,-806,-68
-443,-806,-68
-443,-806,-68
-443,-806,-68
-358,-860,24
-358,-860,24
-358,-860,24
-358,-860,24
-358,-860,24
-206,-928,106
-206,-928,106
-206,-928,106
-206,-928,106
-26,-978,130
-26,-978,130
-26,-978,130
-26,-978,130
168,-1024,50
168,-1024,50
168,-1024,50
168,-1024,50
168,-1024,50
247,-1048,-91
247,-1048,-91
247,-1048,-91
247,-1048,-91
314,-1043,-200
314,-1043,-200
314,-1043,-200
314,-1043,-200
264,-1049,-258
264,-1049,-258
264,-1049,-258
264,-1049,-258
163,-1058,-236
163,-1058,-236
163,-1058,-236
163,-1058,-236
97,-1060,-157
97,-1060,-157
97,-1060,-157
97,-1060,-157
71,-1050,-66
71,-1050,-66
71,-1050,-66
71,-1050,-66
71,-1050,-66
58,-1035,-2
58,-1035,-2
58,-1035,-2
58,-1035,-2
67,-1003,99
67,-1003,99
67,-1003,99
67,-1003,99
67,-1003,99
114,-937,225
114,-937,225
114,-937,225
114,-937,225
114,-937,225
166,-873,304
166,-873,304
166,-873,304
166,-873,304
173,-816,362
173,-816,362
173,-816,362
173,-816,362
173,-816,362
126,-761,410
126,-761,410
126,-761,410
126,-761,410
-41,-656,461
-41,-656,461
-41,-656,461
-41,-656,461
-41,-656,461
-279,-427,463
-279,-427,463
-279,-427,463
-279,-427,463
-493,-216,311
-493,-216,311
-493,-216,311
-493,-216,311
-655,-179,-62
-655,-179,-62
-655,-179,-62
-655,-179,-62
-622,-319,-370
-622,-319,-370
-622,-319,-370
-622,-319,-370
-513,-479,-532
-513,-479,-532
-513,-479,-532
-513,-479,-532
-472,-491,-587
-472,-491,-587
-472,-491,-587
-472,-491,-587
-419,-408,-679
-419,-408,-679
-419,-408,-679
-419,-408,-679
-321,-281,-780
-321,-281,-780
-321,-281,-780
-321,-281,-780
-144,-147,-852
-144,-147,-852
-144,-147,-852
-144,-147,-852
7,-7,-844
7,-7,-844
7,-7,-844
7,-7,-844
7,-7,-844
7,-7,-844
122,162,-773
122,162,-773
122,162,-773
122,162,-773
268,240,-706
268,240,-706
268,240,-706
268,240,-706
268,240,-706
411,261,-632
411,261,-632
411,261,-632
411,261,-632
519,279,-531
519,279,-531
519,279,-531
519,279,-531
519,279,-531
636,276,-343
636,276,-343
636,276,-343
636,276,-343
693,229,-89
693,229,-89
693,229,-89
693,229,-89
693,229,-89
648,154,160
648,154,160
648,154,160
648,154,160
648,154,160
406,93,412
406,93,412
406,93,412
406,93,412
406,93,412
253,-58,526
253,-58,526
253,-58,526
253,-58,526
253,-58,526
118,-204,568
118,-204,568
118,-204,568
118,-204,568
118,-204,568
42,-442,553
42,-442,553
42,-442,553
42,-442,553
54,-666,468
54,-666,468
54,-666,468
54,-666,468
54,-666,468
130,-854,325
130,-854,325
130,-854,325
130,-854,325
130,-854,325
212,-987,128
212,-987,128
212,-987,128
212,-987,128
238,-1041,-40
238,-1041,-40
238,-1041,-40
238,-1041,-40
238,-1041,-40
175,-1035,4
175,-1035,4
175,-1035,4
175,-1035,4
143,-901,278
143,-901,278
143,-901,278
143,-901,278
143,-901,278
98,-482,547
98,-482,547
98,-482,547
98,-482,547
98,-482,547
153,-1,522
153,-1,522
153,-1,522
153,-1,522
153,-1,522
224,349,265
224,349,265
224,349,265
224,349,265
224,349,265
237,487,-45
237,487,-45
237,487,-45
237,487,-45
237,472,-150
123,472,-406
123,472,-406
123,472,-406
123,472,-406
-50,353,-585
-50,353,-585
-50,353,-585
-50,353,-585
-50,132,-711
-215,132,-711
-215,132,-711
-215,132,-711
-215,132,-711
-295,-158,-771
-295,-158,-771
-295,-158,-771
-295,-158,-771
-371,-371,-720
-371,-371,-720
-371,-371,-720
-371,-371,-720
-392,-628,-591
-392,-628,-591
-392,-628,-591
-392,-628,-591
-382,-821,-362
-382,-821,-362
-382,-821,-362
-382,-821,-362
-293,-922,-56
-293,-922,-56
-293,-922,-56
-293,-922,-56
-167,-905,174
-167,-905,174
-167,-905,174
-167,-905,174
20,-851,321
20,-851,321
20,-851,321
20,-851,321
20,-851,321
366,-856,260
366,-856,260
366,-856,260
366,-856,260
709,-807,-212
709,-807,-212
709,-807,-212
709,-807,-212
640,-698,-599
640,-698,-599
640,-698,-599
640,-698,-599
640,-698,-599
180,-814,-711
180,-814,-711
180,-814,-711
180,-814,-711
-188,-885,-503
-188,-885,-503
-188,-885,-503
-188,-885,-503
-392,-831,-10
-392,-831,-10
-392,-831,-10
-392,-831,-10
-271,-711,329
-271,-711,329
-271,-711,329
-271,-711,329
-170,-462,505
-170,-462,505
-170,-462,505
-170,-462,505
23,-83,545
23,-83,545
23,-83,545
23,-83,545
23,-83,545
23,-83,545
286,213,377
286,213,377
286,213,377
286,213,377
286,213,377
396,376,127
396,376,127
396,376,127
396,376,127
400,448,-255
400,448,-255
400,448,-255
400,448,-255
400,448,-255
379,288,-630
379,288,-630
379,288,-630
379,288,-630
336,175,-746
336,175,-746
336,175,-746
336,175,-746
336,175,-746
310,71,-814
310,71,-814
310,71,-814
310,71,-814
310,71,-814
306,-108,-874
306,-108,-874
306,-108,-874
306,-108,-874
350,-320,-880
350,-320,-880
350,-320,-880
350,-320,-880
361,-420,-866
361,-420,-866
361,-420,-866
361,-420,-866
348,-544,-838
348,-544,-838
348,-544,-838
348,-544,-838
348,-544,-838
290,-669,-796
290,-669,-796
290,-669,-796
290,-669,-796
128,-787,-727
128,-787,-727
128,-787,-727
128,-787,-727
0,-901,-584
0,-901,-584
0,-901,-584
0,-901,-584
0,-901,-584
-32,-997,-386
-32,-997,-386
-32,-997,-386
-32,-997,-386
63,-1049,-215
63,-1049,-215
63,-1049,-215
63,-1049,-215
255,-1047,-147
255,-1047,-147
255,-1047,-147
255,-1047,-147
469,-984,-217
469,-984,-217
469,-984,-217
469,-984,-217
551,-879,-456
551,-879,-456
551,-879,-456
551,-879,-456
551,-879,-456
513,-688,-709
513,-688,-709
513,-688,-709
513,-688,-709
323,-615,-823
323,-615,-823
323,-615,-823
323,-615,-823
-81,-712,-741
-81,-712,-741
-81,-712,-741
-81,-712,-741
-286,-794,-535
-286,-794,-535
-286,-794,-535
-286,-794,-535
-397,-844,-175
-397,-844,-175
-397,-844,-175
-397,-844,-175
-316,-875,45
-316,-875,45
-316,-875,45
-316,-875,45
-316,-875,45
-212,-871,190
-212,-871,190
-212,-871,190
-212,-871,190
-101,-865,268
-101,-865,268
-101,-865,268
-101,-865,268
-10,-895,262
-10,-895,262
-10,-895,262
-10,-895,262
-10,-895,262
39,-959,175
39,-959,175
39,-959,175
39,-959,175
24,-1031,-22
24,-1031,-22
24,-1031,-22
24,-1031,-22
24,-1031,-22
67,-1006,-431
67,-1006,-431
67,-1006,-431
67,-1006,-431
478,-793,-641
478,-793,-641
478,-793,-641
478,-793,-641
689,-730,-490
689,-730,-490
689,-730,-490
689,-730,-490
681,-837,-154
681,-837,-154
681,-837,-154
681,-837,-154
681,-837,-154
365,-992,29
365,-992,29
365,-992,29
365,-992,29
-92,-893,229
-92,-893,229
-92,-893,229
-92,-893,229
-92,-893,229
-435,-654,208
-435,-654,208
-435,-654,208
-435,-654,208
-615,-471,-25
-615,-471,-25
-615,-471,-25
-615,-471,-25
-620,-254,-366
-620,-254,-366
-620,-254,-366
-620,-254,-366
-479,-76,-587
-479,-76,-587
-479,-76,-587
-479,-76,-587
-479,101,-710
-243,101,-710
-243,101,-710
-243,101,-710
-243,101,-710
71,314,-650
71,314,-650
71,314,-650
71,314,-650
283,380,-540
283,380,-540
283,380,-540
283,380,-540
283,380,-540
476,385,-358
476,385,-358
476,385,-358
476,385,-358
558,359,-161
558,359,-161
558,359,-161
558,359,-161
558,359,-161
584,305,11
584,305,11
584,305,11
584,305,11
584,305,11
590,236,131
590,236,131
590,236,131
590,236,131
590,236,131
555,152,267
555,152,267
555,152,267
555,152,267
555,152,267
467,35,406
467,35,406
467,35,406
467,35,406
467,35,406
365,-111,504
365,-111,504
365,-111,504
365,-111,504
365,-111,504
267,-237,549
267,-237,549
267,-237,549
267,-237,549
106,-371,564
106,-371,564
106,-371,564
106,-371,564
106,-371,564
6,-545,518
6,-545,518
6,-545,518
6,-545,518
6,-545,518
-135,-679,417
-135,-679,417
-135,-679,417
-135,-679,417
-262,-838,191
-262,-838,191
-262,-838,191
-262,-838,191
-277,-932,-92
-277,-932,-92
-277,-932,-92
-277,-932,-92
-87,-996,-366
-87,-996,-366
-87,-996,-366
-87,-996,-366
-87,-996,-366
189,-999,-457
189,-999,-457
189,-999,-457
189,-999,-457
388,-972,-433
388,-972,-433
388,-972,-433
388,-972,-433
419,-990,-346
419,-990,-346
419,-990,-346
419,-990,-346
195,-1057,-219
195,-1057,-219
195,-1057,-219
195,-1057,-219
28,-1002,91
28,-1002,91
28,-1002,91
28,-1002,91
28,-1002,91
25,-781,388
25,-781,388
25,-781,388
25,-781,388
25,-781,388
92,-470,545
92,-470,545
92,-470,545
92,-470,545
92,-470,545
337,-121,512
337,-121,512
337,-121,512
337,-121,512
472,278,202
472,278,202
472,278,202
472,278,202
472,278,202
652,242,3
652,242,3
652,242,3
652,242,3
652,242,3
652,242,3
430,437,-182
430,437,-182
430,437,-182
430,437,-182
136,446,-462
136,446,-462
136,446,-462
136,446,-462
136,446,-462
-72,242,-691
-72,242,-691
-72,242,-691
-72,242,-691
-264,32,-731
-264,32,-731
-264,32,-731
-264,32,-731
-264,32,-731
-473,-140,-609
-473,-140,-609
-473,-140,-609
-473,-140,-609
-602,-328,-413
-602,-328,-413
-602,-328,-413
-602,-328,-413
-617,-516,-144
-617,-516,-144
-617,-516,-144
-617,-516,-144
-525,-637,75
-525,-637,75
-525,-637,75
-525,-637,75
-305,-750,264
-305,-750,264
-305,-750,264
-305,-750,264
-8,-834,332
-8,-834,332
-8,-834,332
-8,-834,332
-8,-834,332
271,-935,196
271,-935,196
271,-935,196
271,-935,196
271,-935,196
378,-1017,-115
378,-1017,-115
378,-1017,-115
378,-1017,-115
383,-1000,-354
383,-1000,-354
383,-1000,-354
383,-1000,-354
242,-1001,-442
242,-1001,-442
242,-1001,-442
242,-1001,-442
33,-1023,-362
33,-1023,-362
33,-1023,-362
33,-1023,-362
-156,-996,-116
-156,-996,-116
-156,-996,-116
-156,-996,-116
-145,-914,170
-145,-914,170
-145,-914,170
-145,-914,170
-52,-774,378
-52,-774,378
-52,-774,378
-52,-774,378
32,-545,521
32,-545,521
32,-545,521
32,-545,521
32,-545,521
152,-335,563
152,-335,563
152,-335,563
152,-335,563
152,-335,563
397,-189,499
397,-189,499
397,-189,499
397,-189,499
542,13,363
542,13,363
542,13,363
542,13,363
542,13,363
542,13,363
727,38,142
727,38,142
727,38,142
727,38,142
727,38,142
709,134,66
709,134,66
709,134,66
709,134,66
709,134,66
712,193,-51
712,193,-51
712,193,-51
712,193,-51
712,193,-51
578,347,-201
578,347,-201
578,347,-201
578,347,-201
450,378,-429
450,378,-429
450,378,-429
450,378,-429
450,378,-429
412,350,-521
412,350,-521
412,350,-521
412,350,-521
406,309,-583
406,309,-583
406,309,-583
406,309,-583
406,309,-583
251,244,-713
251,244,-713
251,244,-713
251,244,-713
125,71,-834
125,71,-834
125,71,-834
125,71,-834
125,71,-834
11,-136,-884
11,-136,-884
11,-136,-884
11,-136,-884
11,-136,-884
-73,-374,-871
-73,-374,-871
-73,-374,-871
-73,-374,-871
-137,-564,-799
-137,-564,-799
-137,-564,-799
-137,-564,-799
-137,-704,-721
-137,-704,-721
-137,-704,-721
-137,-704,-721
-104,-832,-627
-104,-832,-627
-104,-832,-627
-104,-832,-627
-59,-907,-554
-59,-907,-554
-59,-907,-554
-59,-907,-554
-17,-932,-538
-17,-932,-538
-17,-932,-538
-17,-932,-538
-58,-933,-519
-58,-933,-519
-58,-933,-519
-58,-933,-519
-195,-952,-344
-195,-952,-344
-195,-952,-344
-195,-952,-344
-214,-970,-100
-214,-970,-100
-214,-970,-100
-214,-970,-100
-158,-956,75
-158,-956,75
-158,-956,75
-158,-956,75
-158,-956,75
-36,-872,285
-36,-872,285
-36,-872,285
-36,-872,285
167,-786,385
167,-786,385
167,-786,385
167,-786,385
167,-786,385
269,-716,420
269,-716,420
269,-716,420
269,-716,420
336,-689,418
336,-689,418
336,-689,418
336,-689,418
336,-689,418
312,-715,410
312,-715,410
312,-715,410
312,-715,410
31,-813,358
31,-813,358
31,-813,358
31,-813,358
31,-813,358
-185,-969,-13
-185,-969,-13
-185,-969,-13
-185,-969,-13
-43,-1032,-251
-43,-1032,-251
-43,-1032,-251
-43,-1032,-251
25,-1050,-160
25,-1050,-160
25,-1050,-160
25,-1050,-160
25,-1050,-160
27,-1043,-73
27,-1043,-73
27,-1043,-73
27,-1043,-73
-67,-1018,-37
-67,-1018,-37
-67,-1018,-37
-67,-1018,-37
-51,-1013,9
-51,-1013,9
-51,-1013,9
-51,-1013,9
-51,-1013,9
-42,-968,137
-42,-968,137
-42,-968,137
-42,-968,137
-42,-968,137
20,-922,241
20,-922,241
20,-922,241
20,-922,241
21,-896,273
21,-896,273
21,-896,273
21,-896,273
21,-896,273
-9,-877,290
-9,-877,290
-9,-877,290
-9,-877,290
-9,-877,290
-53,-852,304
-53,-852,304
-53,-852,304
-53,-852,304
-53,-852,304
-80,-842,305
-80,-842,305
-80,-842,305
-80,-842,305
-100,-847,293
-100,-847,293
-100,-847,293
-100,-847,293
-113,-838,296
-113,-838,296
-113,-838,296
-113,-838,296
-113,-843,311
-56,-843,311
-56,-843,311
-56,-843,311
-56,-843,311
80,-877,301
80,-877,301
80,-877,301
80,-877,301
80,-877,301
251,-942,197
251,-942,197
251,-942,197
251,-942,197
360,-976,73
360,-976,73
360,-976,73
360,-976,73
360,-976,73
390,-1013,-102
390,-1013,-102
390,-1013,-102
390,-1013,-102
322,-1036,-205
322,-1036,-205
322,-1036,-205
322,-1036,-205
196,-1047,-286
196,-1047,-286
196,-1047,-286
196,-1047,-286
57,-1046,-264
57,-1046,-264
57,-1046,-264
57,-1046,-264
-49,-1031,-213
-49,-1031,-213
-49,-1031,-213
-49,-1031,-213
-121,-1009,-112
-121,-1009,-112
-121,-1009,-112
-121,-1009,-112
-153,-979,-3
-153,-979,-3
-153,-979,-3
-153,-979,-3
-159,-956,68
-159,-956,68
-159,-956,68
-159,-956,68
-159,-956,68
-177,-931,109
-177,-931,109
-177,-931,109
-177,-931,109
-227,-931,44
-227,-931,44
-227,-931,44
-227,-931,44
-278,-936,-192
-278,-936,-192
-278,-936,-192
-278,-936,-192
-46,-983,-427
-46,-983,-427
-46,-983,-427
-46,-983,-427
-46,-983,-427
274,-988,-460
274,-988,-460
274,-988,-460
274,-988,-460
408,-1002,-295
408,-1002,-295
408,-1002,-295
408,-1002,-295
281,-1038,-74
281,-1038,-74
281,-1038,-74
281,-1038,-74
-119,-897,211
-119,-897,211
-119,-897,211
-119,-897,211
-436,-649,212
-436,-649,212
-436,-649,212
-436,-649,212
-629,-418,-15
-629,-418,-15
-629,-418,-15
-629,-418,-15
-629,-188,-263
-648,-188,-263
-648,-188,-263
-648,-188,-263
-518,28,-478
-518,28,-478
-518,28,-478
-518,28,-478
-518,28,-478
-305,218,-579
-305,218,-579
-305,218,-579
-305,218,-579
-2,411,-510
-2,411,-510
-2,411,-510
-2,411,-510
-2,411,-510
255,458,-391
255,458,-391
255,458,-391
255,458,-391
449,412,-306
449,412,-306
449,412,-306
449,412,-306
449,412,-306
599,325,-167
599,325,-167
599,325,-167
599,325,-167
651,272,-91
651,272,-91
651,272,-91
651,272,-91
651,272,-91
624,286,-35
624,286,-35
624,286,-35
624,286,-35
624,286,-35
627,252,40
627,252,40
627,252,40
627,252,40
627,252,40
612,185,166
612,185,166
612,185,166
612,185,166
612,185,166
554,118,295
554,118,295
554,118,295
554,118,295
554,118,295
486,32,396
486,32,396
486,32,396
486,32,396
486,32,396
338,-69,503
338,-69,503
338,-69,503
338,-69,503
338,-69,503
242,-255,556
242,-255,556
242,-255,556
242,-255,556
242,-255,556
104,-418,556
104,-418,556
104,-418,556
104,-418,556
54,-576,510
54,-576,510
54,-576,510
54,-576,510
54,-576,510
57,-752,412
57,-752,412
57,-752,412
57,-752,412
57,-752,412
41,-900,264
41,-900,264
41,-900,264
41,-900,264
41,-900,264
69,-1024,39
69,-1024,39
69,-1024,39
69,-1024,39
69,-1024,39
117,-1059,-206
117,-1059,-206
117,-1059,-206
117,-1059,-206
160,-1014,-428
160,-1014,-428
160,-1014,-428
160,-1014,-428
208,-924,-594
208,-924,-594
208,-924,-594
208,-924,-594
217,-839,-689
217,-839,-689
217,-839,-689
217,-839,-689
211,-806,-718
211,-806,-718
211,-806,-718
211,-806,-718
223,-860,-664
223,-860,-664
223,-860,-664
223,-860,-664
252,-974,-500
252,-974,-500
252,-974,-500
252,-974,-500
252,-974,-500
265,-1051,-188
265,-1051,-188
265,-1051,-188
265,-1051,-188
285,-949,176
285,-949,176
285,-949,176
285,-949,176
315,-672,437
315,-672,437
315,-672,437
315,-672,437
346,-276,527
346,-276,527
346,-276,527
346,-276,527
346,-276,527
343,128,411
343,128,411
343,128,411
343,128,411
343,128,411
349,356,188
349,356,188
349,356,188
349,356,188
349,356,188
259,474,-31
259,474,-31
259,474,-31
259,474,-31
199,491,-289
199,491,-289
199,491,-289
199,491,-289
199,491,-289
76,403,-533
76,403,-533
76,403,-533
76,403,-533
76,403,-533
-15,174,-754
-15,174,-754
-15,174,-754
-15,174,-754
-5,-189,-884
-5,-189,-884
-5,-189,-884
-5,-189,-884
-5,-189,-884
-107,-337,-859
-107,-337,-859
-107,-337,-859
-107,-337,-859
-230,-365,-803
-230,-365,-803
-230,-365,-803
-230,-365,-803
-400,-272,-693
-400,-272,-693
-400,-272,-693
-400,-272,-693
-595,-238,-429
-595,-238,-429
-595,-238,-429
-595,-238,-429
-659,-252,-106
-659,-252,-106
-659,-252,-106
-659,-252,-106
-594,-258,165
-594,-258,165
-594,-258,165
-594,-258,165
-436,-312,374
-436,-312,374
-436,-312,374
-436,-312,374
-186,-399,514
-186,-399,514
-186,-399,514
-186,-399,514
78,-517,532
78,-517,532
78,-517,532
78,-517,532
78,-517,532
375,-688,400
375,-688,400
375,-688,400
375,-688,400
640,-798,72
640,-798,72
640,-798,72
640,-798,72
640,-798,72
698,-817,-271
698,-817,-271
698,-817,-271
698,-817,-271
698,-817,-271
528,-892,-463
528,-892,-463
528,-892,-463
528,-892,-463
281,-978,-481
281,-978,-481
281,-978,-481
281,-978,-481
-5,-1021,-341
-5,-1021,-341
-5,-1021,-341
-5,-1021,-341
-112,-1014,-174
-112,-1014,-174
-112,-1014,-174
-112,-1014,-174
-149,-984,-18
-149,-984,-18
-149,-984,-18
-149,-984,-18
-132,-945,116
-132,-945,116
-132,-945,116
-132,-945,116
-95,-899,221
-95,-899,221
-95,-899,221
-95,-899,221
-95,-899,221
-75,-888,250
-75,-888,250
-75,-888,250
-75,-888,250
-70,-889,249
-70,-889,249
-70,-889,249
-70,-889,249
-70,-889,249
-113,-888,227
-113,-888,227
-113,-888,227
-113,-888,227
-241,-913,70
-241,-913,70
-241,-913,70
-241,-913,70
-208,-966,-267
-208,-966,-267
-208,-966,-267
-208,-966,-267
64,-1002,-441
64,-1002,-441
64,-1002,-441
64,-1002,-441
64,-1002,-441
171,-1038,-341
171,-1038,-341
171,-1038,-341
171,-1038,-341
85,-1054,-133
85,-1054,-133
85,-1054,-133
85,-1054,-133
-120,-975,51
-120,-975,51
-120,-975,51
-120,-975,51
-364,-826,67
-364,-826,67
-364,-826,67
-364,-826,67
-364,-826,67
-543,-651,-56
-543,-651,-56
-543,-651,-56
-543,-651,-56
-607,-536,-163
-607,-536,-163
-607,-536,-163
-607,-536,-163
-619,-458,-275
-619,-458,-275
-619,-458,-275
-619,-458,-275
-585,-424,-414
-585,-424,-414
-585,-424,-414
-585,-424,-414
-570,-376,-469
-570,-376,-469
-570,-376,-469
-570,-376,-469
-613,-365,-369
-613,-365,-369
-613,-365,-369
-613,-365,-369
-642,-413,-109
-642,-413,-109
-642,-413,-109
-642,-413,-109
-529,-514,194
-529,-514,194
-529,-514,194
-529,-514,194
-287,-662,355
-287,-662,355
-287,-662,355
-287,-662,355
-80,-859,284
-80,-859,284
-80,-859,284
-80,-859,284
129,-1003,99
129,-1003,99
129,-1003,99
129,-1003,99
129,-1003,99
174,-1050,-63
174,-1050,-63
174,-1050,-63
174,-1050,-63
21,-1038,-55
21,-1038,-55
21,-1038,-55
21,-1038,-55
21,-1038,-55
-73,-971,110
-73,-971,110
-73,-971,110
-73,-971,110
-103,-830,310
-103,-830,310
-103,-830,310
-103,-830,310
39,-714,441
39,-714,441
39,-714,441
39,-714,441
39,-714,441
129,-589,507
129,-589,507
129,-589,507
129,-589,507
129,-589,507
193,-456,542
193,-456,542
193,-456,542
193,-456,542
292,-298,543
292,-298,543
292,-298,543
292,-298,543
292,-298,543
395,-89,486
395,-89,486
395,-89,486
395,-89,486
542,95,315
542,95,315
542,95,315
542,95,315
542,95,315
542,95,315
663,197,65
663,197,65
663,197,65
663,197,65
663,197,65
620,315,-216
620,315,-216
620,315,-216
620,315,-216
620,315,-216
540,341,-386
540,341,-386
540,341,-386
540,341,-386
421,350,-519
421,350,-519
421,350,-519
421,350,-519
421,350,-519
341,287,-648
341,287,-648
341,287,-648
341,287,-648
281,190,-749
281,190,-749
281,190,-749
281,190,-749
281,190,-749
224,72,-828
224,72,-828
224,72,-828
224,72,-828
199,-63,-877
199,-63,-877
199,-63,-877
199,-63,-877
199,-63,-877
176,-216,-905
176,-216,-905
176,-216,-905
176,-216,-905
126,-347,-901
126,-347,-901
126,-347,-901
126,-347,-901
80,-509,-867
80,-509,-867
80,-509,-867
80,-509,-867
80,-509,-867
15,-648,-800
15,-648,-800
15,-648,-800
15,-648,-800
-32,-780,-698
-32,-780,-698
-32,-780,-698
-32,-780,-698
-92,-877,-571
-92,-877,-571
-92,-877,-571
-92,-877,-571
-92,-877,-571
-25,-990,-410
-25,-990,-410
-25,-990,-410
-25,-990,-410
50,-1039,-289
50,-1039,-289
50,-1039,-289
50,-1039,-289
211,-1051,-207
211,-1051,-207
211,-1051,-207
211,-1051,-207
337,-1021,-61
337,-1021,-61
337,-1021,-61
337,-1021,-61
362,-966,94
362,-966,94
362,-966,94
362,-966,94
362,-966,94
209,-929,225
209,-929,225
209,-929,225
209,-929,225
209,-929,225
52,-924,237
52,-924,237
52,-924,237
52,-924,237
-34,-935,198
-34,-935,198
-34,-935,198
-34,-935,198
-34,-935,198
-34,-1020,1
-34,-1020,1
-34,-1020,1
-34,-1020,1
-34,-1020,1
-156,-1003,-176
-156,-1003,-176
-156,-1003,-176
-156,-1003,-176
-292,-921,-259
-292,-921,-259
