-7106,344,-278,-609,12,254,-7
-6586,339,-280,-612,12,252,-6
-6066,339,-281,-611,10,253,-6
-5546,343,-287,-609,12,253,-5
-5026,337,-297,-611,12,254,-6
-4506,334,-307,-612,12,252,-5
-3986,335,-321,-610,12,254,-6
-3466,327,-339,-609,12,254,-6
-2947,318,-355,-611,13,254,-6
-2415,313,-375,-609,12,254,-5
-1895,298,-399,-610,11,254,-4
-1375,278,-417,-611,11,253,-5
-856,264,-438,-610,12,253,-6
-329,242,-457,-608,13,254,-6
190,210,-473,-611,13,251,-4
710,181,-489,-609,11,255,-6
1229,151,-501,-607,12,256,-6
1750,116,-505,-610,13,249,-5
2281,80,-507,-610,13,255,-6
2801,45,-508,-607,11,253,-6
3321,9,-497,-609,12,251,-4
3841,-28,-482,-609,11,253,-4
4361,-58,-472,-606,12,254,-6
4880,-84,-451,-607,12,254,-6
5400,-109,-424,-609,12,255,-5
5920,-134,-404,-606,12,253,-6
6452,-152,-376,-606,12,254,-5
6971,-165,-345,-607,13,252,-5
7491,-179,-319,-605,12,253,-5
8011,-186,-293,-603,12,254,-6
8531,-187,-264,-606,12,253,-5
9050,-192,-239,-604,12,254,-5
9570,-194,-217,-604,11,254,-5
10089,-187,-198,-606,13,255,-5
10609,-184,-176,-605,12,251,-7
11129,-183,-160,-604,12,252,-6
11650,-175,-147,-605,13,255,-5
12170,-169,-136,-606,12,253,-6
12701,-169,-127,-604,11,253,-6
13221,-166,-124,-605,12,253,-7
13742,-159,-120,-606,11,252,-6
14262,-161,-116,-604,12,253,-6
14782,-161,-119,-605,12,254,-4
15301,-159,-123,-606,12,254,-6
15833,-164,-126,-605,12,254,-7
16353,-168,-135,-605,11,252,-5
16873,-168,-148,-606,13,254,-6
17398,-174,-158,-605,12,252,-5
17918,-180,-172,-605,12,250,-6
18439,-182,-192,-606,12,251,-5
18959,-185,-205,-605,13,256,-6
19479,-192,-227,-603,12,254,-6
19998,-189,-253,-604,12,253,-5
20518,-186,-277,-606,13,255,-6
21039,-186,-301,-603,11,257,-7
21559,-179,-324,-604,13,254,-6
22079,-165,-350,-608,13,252,-5
22599,-157,-376,-604,12,251,-5
23131,-140,-402,-606,13,255,-6
23651,-116,-423,-608,11,253,-4
24171,-98,-447,-605,12,250,-6
24690,-78,-462,-606,12,255,-6
25222,-49,-475,-608,12,254,-5
25747,-21,-487,-608,12,255,-7
26267,5,-499,-606,12,255,-6
26787,34,-501,-610,12,255,-5
27307,62,-505,-609,12,252,-6
27827,83,-508,-609,13,253,-5
28347,108,-504,-608,13,255,-6
28867,135,-497,-610,12,249,-6
29387,157,-496,-607,12,255,-6
29906,176,-487,-609,12,254,-6
30427,193,-480,-610,11,253,-6
30947,211,-472,-609,12,253,-6
31467,224,-465,-608,11,254,-5
31987,236,-454,-609,12,251,-7
32506,250,-447,-610,12,254,-6
-32497,258,-444,-610,12,253,-7
-31978,262,-437,-609,12,252,-6
-31440,269,-430,-609,12,250,-5
-30920,273,-431,-608,11,253,-5
-30401,271,-427,-611,12,254,-6
-29881,273,-425,-610,12,256,-5
-29361,274,-430,-610,12,253,-4
-28840,267,-433,-609,11,253,-6
-28320,262,-433,-612,13,251,-6
-27800,260,-441,-611,13,253,-5
-27280,249,-448,-610,12,253,-5
-26761,238,-453,-611,12,252,-5
-26240,231,-461,-609,12,252,-4
-25720,218,-469,-608,12,253,-5
-25200,200,-475,-609,12,253,-6
-24680,185,-484,-609,12,253,-6
-24160,171,-490,-609,12,252,-6
-23640,148,-495,-610,11,252,-5
-23114,129,-500,-608,12,253,-5
-22594,109,-506,-608,12,256,-6
-22051,84,-505,-609,12,254,-6
-21531,61,-506,-609,12,251,-4
-21012,40,-506,-606,12,254,-6
-20492,18,-501,-608,11,254,-6
-19972,-6,-495,-607,12,254,-5
-19451,-28,-490,-606,13,250,-6
-18931,-47,-479,-606,12,252,-7
-18412,-69,-464,-607,11,254,-4
-17892,-88,-456,-606,12,253,-6
-17372,-104,-441,-607,11,253,-5
-16851,-119,-421,-606,13,252,-6
-16331,-134,-408,-606,13,257,-6
-15811,-144,-393,-605,11,253,-6
-15291,-150,-375,-605,11,249,-4
-14766,-160,-360,-605,12,255,-7
-14245,-166,-346,-605,12,254,-5
-13725,-170,-330,-605,12,254,-5
-13194,-175,-317,-605,12,252,-4
-12674,-181,-308,-605,12,252,-5
-12142,-180,-298,-605,12,253,-7
-11622,-180,-288,-606,12,251,-5
-11102,-186,-281,-604,12,252,-6
-10581,-187,-277,-604,11,251,-5
-10062,-186,-270,-605,14,253,-7
-9542,-189,-269,-605,13,255,-5
-9022,-190,-271,-605,13,253,-7
-8502,-188,-271,-605,12,250,-5
-7982,-190,-271,-604,13,251,-7
-7461,-192,-278,-603,12,254,-7
-6941,-188,-284,-605,11,250,-6
-6416,-187,-288,-605,13,254,-7
-5896,-188,-298,-604,12,254,-5
-5375,-182,-306,-605,12,255,-5
-4856,-178,-318,-605,12,250,-4
-4336,-175,-329,-604,11,253,-6
-3805,-166,-345,-604,13,253,-6
-3284,-160,-353,-605,11,253,-5
-2765,-156,-368,-604,12,253,-5
-2245,-145,-383,-606,12,254,-6
-1697,-135,-396,-606,12,254,-5
-1177,-126,-411,-606,13,254,-6
-657,-113,-424,-606,11,254,-4
-138,-99,-437,-608,12,253,-6
382,-87,-449,-606,12,254,-6
903,-74,-461,-605,12,254,-7
1422,-56,-471,-607,11,253,-6
1947,-40,-482,-608,11,254,-5
2467,-24,-493,-606,13,252,-5
2988,-6,-496,-607,11,252,-5
3507,12,-501,-608,13,252,-7
4027,27,-508,-606,12,254,-6
4547,45,-507,-608,12,255,-6
5078,62,-506,-609,13,252,-6
5598,77,-508,-607,13,255,-5
6117,89,-509,-609,12,253,-7
6637,105,-505,-609,12,252,-6
7157,116,-506,-609,11,254,-5
7676,127,-503,-607,12,250,-6
8209,138,-499,-609,13,253,-7
8728,145,-495,-609,12,254,-6
9248,152,-494,-607,12,254,-4
9768,158,-491,-609,12,250,-5
10288,164,-489,-611,13,252,-7
10808,168,-490,-608,12,253,-5
11334,168,-491,-609,12,253,-6
11853,172,-488,-609,11,254,-5
12374,173,-490,-608,12,252,-6
12894,168,-493,-608,12,252,-5
13414,165,-493,-609,12,255,-5
13934,164,-495,-607,12,254,-6
14465,156,-499,-608,12,255,-5
14985,149,-498,-608,11,256,-4
15505,145,-502,-609,11,251,-5
16025,134,-505,-607,11,252,-5
16545,121,-505,-609,12,251,-5
17064,113,-507,-608,12,252,-5
17585,101,-510,-607,13,253,-5
18105,85,-507,-609,11,253,-5
18636,72,-507,-608,12,254,-7
19156,57,-508,-608,12,253,-6
19682,41,-506,-607,13,253,-6
20202,29,-502,-608,11,252,-3
20722,16,-499,-608,13,252,-7
21241,-2,-495,-606,13,254,-6
21762,-17,-488,-607,13,254,-6
22282,-30,-483,-606,12,255,-5
22802,-44,-477,-607,12,254,-6
23332,-58,-467,-608,11,252,-4
23853,-70,-461,-607,13,253,-6
24373,-83,-452,-606,12,255,-6
24893,-93,-440,-606,12,253,-7
25412,-102,-435,-606,11,253,-7
25932,-112,-428,-605,12,252,-5
26452,-121,-418,-605,12,252,-4
26973,-129,-408,-605,12,254,-5
27493,-137,-400,-605,11,252,-5
28013,-144,-392,-607,13,252,-4
28563,-150,-384,-605,12,253,-7
29083,-155,-379,-606,13,254,-6
29603,-158,-375,-605,12,253,-6
30124,-160,-365,-605,12,255,-6
30643,-163,-362,-604,13,253,-5
31163,-166,-359,-604,12,254,-6
31683,-165,-355,-605,13,252,-5
32203,-165,-354,-604,13,255,-6
32735,-164,-357,-605,11,251,-5
-32281,-163,-355,-605,13,254,-5
-31761,-164,-357,-604,12,253,-5
-31242,-161,-360,-605,12,253,-6
-30722,-158,-362,-606,12,254,-7
-30201,-157,-365,-605,13,252,-7
-29681,-155,-372,-604,11,252,-5
-29155,-147,-378,-605,12,252,-6
-28635,-143,-382,-605,13,253,-6
-28115,-141,-390,-606,13,252,-5
-27595,-134,-399,-605,12,250,-5
-27075,-127,-407,-605,12,254,-5
-26543,-121,-416,-605,12,251,-5
-26023,-114,-425,-605,11,252,-5
-25503,-105,-433,-606,12,252,-5
-24983,-101,-441,-605,12,255,-4
-24463,-90,-450,-605,11,253,-7
-23931,-78,-459,-606,12,251,-5
-23411,-70,-465,-606,11,253,-6
-22891,-61,-472,-606,13,253,-5
-22372,-47,-478,-606,12,254,-5
-21852,-38,-482,-608,12,254,-5
-21331,-27,-490,-606,12,254,-6
-20805,-15,-493,-606,13,256,-6
-20286,-2,-496,-607,13,251,-7
-19766,8,-499,-607,12,252,-6
-19246,18,-503,-607,12,252,-5
-18726,30,-502,-607,12,253,-6
-18206,39,-503,-608,11,255,-5
-17686,48,-505,-606,12,250,-6
-17166,57,-504,-608,13,253,-6
-16634,66,-505,-608,12,254,-6
-16114,70,-505,-608,13,252,-6
-15595,78,-505,-607,12,256,-6
-15075,84,-504,-609,12,253,-6
-14543,88,-506,-606,12,252,-5
-14023,93,-506,-607,12,254,-6
-13504,95,-505,-608,12,256,-6
-12984,97,-507,-607,12,251,-5
-12464,97,-509,-607,12,254,-5
-11938,100,-509,-608,11,252,-5
-11418,98,-509,-606,12,255,-5
-10898,96,-510,-607,11,251,-5
-10378,94,-510,-607,12,253,-5
-9859,93,-508,-608,12,252,-6
-9338,87,-509,-608,12,250,-6
-8818,82,-508,-609,14,254,-7
-8298,79,-507,-608,12,253,-5
-7779,72,-506,-608,11,251,-5
-7259,66,-506,-607,12,254,-5
-6738,60,-505,-608,12,254,-4
-6207,52,-503,-607,12,250,-4
-5677,43,-502,-606,11,254,-6
-5156,34,-500,-607,13,255,-5
-4636,28,-499,-608,11,251,-4
-4117,18,-498,-606,12,254,-6
-3597,8,-495,-607,12,253,-6
-3071,0,-495,-606,12,254,-5
-2551,-10,-493,-607,12,256,-6
-2031,-18,-490,-607,12,253,-6
-1512,-28,-488,-607,13,253,-7
-992,-36,-483,-606,12,250,-6
-472,-46,-480,-606,12,252,-5
48,-54,-476,-606,12,252,-6
568,-61,-472,-606,11,251,-5
1087,-68,-465,-605,13,254,-5
1607,-76,-459,-606,13,254,-6
2127,-82,-454,-607,12,252,-6
2647,-88,-450,-605,13,252,-6
3167,-93,-443,-605,12,252,-6
3709,-98,-440,-606,11,254,-6
4230,-102,-436,-605,12,254,-5
4749,-107,-429,-606,12,255,-4
5269,-109,-428,-607,13,255,-4
5810,-112,-424,-605,12,251,-5
6330,-115,-421,-606,11,253,-5
6850,-117,-418,-605,11,253,-7
7369,-119,-419,-605,12,255,-5
7889,-121,-418,-604,11,253,-6
8410,-121,-417,-605,12,254,-6
8930,-121,-419,-605,13,250,-6
9450,-120,-419,-606,13,252,-6
9969,-121,-420,-604,11,255,-6
10489,-121,-425,-604,12,253,-5
11010,-117,-426,-604,12,253,-6
11530,-118,-427,-605,11,253,-5
12050,-114,-430,-607,11,254,-4
12570,-111,-434,-604,11,252,-5
13101,-107,-436,-605,13,253,-6
13621,-103,-438,-605,12,251,-5
14160,-98,-441,-605,12,254,-6
14680,-94,-444,-605,13,253,-6
15200,-89,-449,-606,13,252,-7
15720,-83,-452,-607,12,253,-5
16240,-77,-455,-605,12,253,-5
16759,-74,-457,-606,12,255,-4
17280,-67,-462,-606,12,252,-5
17800,-60,-465,-606,11,253,-4
18320,-55,-469,-605,13,253,-5
18839,-49,-473,-605,13,252,-6
19359,-42,-477,-605,12,254,-6
19879,-36,-481,-606,13,253,-6
20400,-30,-486,-606,12,253,-5
20920,-24,-490,-606,13,254,-6
21439,-16,-489,-604,13,254,-6
21970,-12,-493,-605,11,252,-7
22496,-6,-496,-606,12,255,-6
23016,1,-497,-605,12,252,-5
23535,5,-499,-605,12,252,-6
24067,10,-502,-606,13,254,-6
24587,15,-501,-606,12,251,-6
25107,19,-501,-607,12,253,-5
25627,22,-501,-607,12,255,-5
26146,27,-501,-606,12,251,-6
26667,30,-499,-607,12,252,-6
27187,31,-500,-606,12,253,-6
27706,31,-501,-607,12,253,-5
28226,34,-499,-606,11,253,-5
28746,35,-501,-607,13,253,-7
29266,35,-502,-607,11,252,-5
29786,36,-502,-607,13,253,-5
30306,36,-503,-606,12,253,-5
30826,34,-505,-607,13,254,-7
31356,34,-504,-607,12,251,-5
31883,30,-505,-606,12,252,-6
32402,28,-505,-607,11,253,-5
-32614,25,-504,-606,11,252,-6
-32094,23,-504,-607,11,255,-5
-31573,18,-503,-607,12,254,-6
-31042,14,-500,-605,13,253,-6
-30523,12,-500,-607,12,253,-4
-30003,8,-498,-607,12,252,-5
-29482,0,-497,-605,11,253,-5
-28962,-2,-494,-607,12,252,-6
-28443,-6,-490,-606,13,255,-6
-27923,-14,-489,-606,13,251,-6
-27403,-19,-487,-606,12,253,-6
-26883,-24,-485,-607,11,254,-5
-26362,-28,-482,-606,12,252,-6
-25842,-35,-480,-605,12,252,-5
-25290,-38,-478,-606,12,251,-6
-24770,-44,-477,-606,13,255,-4
-24250,-50,-475,-605,13,255,-5
-23730,-52,-473,-605,11,251,-6
-23210,-57,-470,-605,11,251,-5
-22690,-64,-469,-605,12,253,-5
-22170,-67,-467,-606,12,255,-6
-21650,-71,-464,-605,12,253,-6
-21118,-74,-463,-604,12,250,-6
-20598,-77,-460,-605,13,252,-6
-20078,-78,-458,-605,13,254,-6
-19559,-83,-456,-606,12,250,-5
-19039,-85,-454,-605,13,254,-5
-18519,-85,-451,-605,13,256,-5
-17998,-87,-450,-605,12,249,-6
-17478,-88,-447,-604,13,251,-7
-16953,-90,-446,-606,13,255,-6
-16421,-87,-446,-605,12,253,-5
-15902,-89,-445,-606,12,253,-4
-15382,-88,-445,-605,12,250,-6
-14862,-88,-446,-604,13,254,-6
-14342,-87,-447,-605,12,255,-5
-13821,-87,-448,-605,12,251,-5
-13301,-86,-449,-605,12,252,-5
-12782,-84,-452,-605,12,253,-4
-12262,-85,-454,-604,12,252,-4
-11742,-83,-454,-605,13,250,-5
-11221,-80,-459,-605,12,249,-5
-10690,-79,-459,-604,12,254,-6
-10170,-76,-460,-606,13,255,-5
-9650,-73,-461,-605,13,252,-6
-9130,-72,-465,-606,12,252,-6
-8604,-69,-465,-605,13,251,-6
-8085,-63,-468,-604,13,257,-5
-7565,-61,-469,-605,13,255,-6
-7033,-58,-468,-606,12,250,-6
-6514,-54,-472,-605,11,252,-5
-5994,-50,-472,-605,12,255,-7
-5474,-47,-473,-605,13,253,-6
-4954,-43,-474,-604,12,255,-4
-4434,-39,-478,-606,12,252,-4
-3914,-35,-480,-606,11,252,-5
-3394,-34,-481,-605,13,255,-6
-2874,-30,-485,-604,11,256,-5
-2355,-27,-486,-606,13,253,-4
-1834,-23,-489,-605,12,256,-7
-1314,-20,-489,-605,11,249,-6
-783,-16,-492,-605,12,254,-4
-264,-15,-492,-605,11,254,-6
263,-12,-495,-606,14,252,-6
782,-8,-493,-605,11,254,-5
1302,-6,-494,-606,12,251,-5
1832,-3,-495,-605,12,254,-5
2353,-3,-496,-606,12,253,-5
2872,-2,-494,-608,12,249,-5
3392,-1,-494,-606,13,254,-7
3911,1,-493,-606,12,256,-6
4431,3,-493,-609,13,252,-4
4951,3,-493,-606,12,251,-5
5471,4,-494,-604,12,253,-7
5991,4,-495,-605,12,256,-5
6510,3,-495,-606,12,252,-5
7030,2,-495,-606,13,254,-4
7549,2,-496,-606,12,254,-5
8070,1,-496,-605,12,254,-5
8589,0,-497,-606,12,253,-6
9109,-2,-497,-605,12,253,-6
9646,-4,-496,-606,12,254,-5
10166,-5,-496,-605,12,252,-5
10686,-8,-496,-605,12,250,-6
11216,-10,-494,-606,12,255,-6
11737,-13,-493,-605,13,251,-6
12257,-16,-491,-606,12,255,-6
12776,-18,-490,-606,12,253,-4
13296,-20,-488,-607,12,252,-6
13816,-24,-486,-607,12,250,-5
14337,-26,-486,-606,11,252,-5
14857,-29,-481,-606,12,253,-4
15376,-31,-481,-607,13,254,-7
15896,-35,-480,-606,13,253,-6
16416,-36,-477,-605,12,253,-5
16936,-40,-476,-605,12,256,-5
17456,-43,-475,-606,12,251,-4
17982,-45,-474,-606,13,255,-4
18501,-47,-473,-607,12,253,-4
19021,-52,-473,-604,12,252,-5
19553,-54,-471,-606,12,254,-4
20084,-57,-471,-606,12,251,-6
20604,-60,-469,-606,13,252,-7
21124,-62,-467,-606,12,253,-6
21644,-65,-468,-605,13,253,-6
22164,-66,-467,-605,14,256,-6
22684,-70,-465,-604,13,251,-7
23204,-70,-465,-606,12,252,-4
23724,-71,-465,-605,11,254,-5
24244,-72,-464,-604,13,252,-6
24764,-74,-462,-605,12,252,-5
25284,-74,-461,-606,13,253,-4
25803,-75,-463,-605,12,251,-5
26323,-74,-459,-605,12,252,-5
26850,-74,-460,-605,12,254,-6
27369,-75,-459,-605,12,253,-5
27889,-73,-459,-606,11,252,-5
28409,-71,-459,-605,13,256,-5
28930,-71,-460,-605,14,256,-6
29460,-71,-460,-607,12,251,-5
29991,-68,-459,-604,12,253,-7
30512,-68,-461,-605,12,253,-4
31032,-67,-462,-606,12,253,-6
31552,-65,-462,-606,12,252,-4
32071,-62,-464,-605,12,252,-6
32591,-61,-466,-606,11,254,-6
-32424,-61,-468,-606,10,253,-6
-31904,-58,-469,-606,13,253,-6
-31384,-56,-472,-604,12,254,-4
-30865,-55,-473,-606,12,253,-5
-30339,-51,-475,-605,13,253,-6
-29818,-49,-478,-606,13,253,-5
-29299,-48,-479,-605,12,253,-8
-28779,-45,-480,-606,12,254,-6
-28259,-43,-481,-605,12,255,-6
-27739,-39,-482,-608,12,254,-5
-27218,-38,-481,-605,12,253,-5
-26688,-34,-484,-606,11,248,-4
-26168,-33,-484,-605,12,247,-5
-25636,-30,-485,-607,12,251,-6
-25116,-27,-484,-605,12,247,-5
-24596,-25,-484,-605,13,255,-6
-24076,-22,-484,-606,12,249,-5
-23556,-20,-485,-606,12,251,-5
-23036,-18,-487,-606,11,254,-6
-22516,-17,-485,-606,12,254,-5
-21990,-15,-487,-606,11,254,-5
-21471,-15,-488,-607,12,253,-4
-20951,-11,-489,-606,12,254,-5
-20430,-14,-489,-606,12,249,-5
-19910,-11,-490,-605,12,255,-4
-19390,-11,-491,-605,12,255,-5
-18871,-10,-492,-605,12,253,-5
-18351,-10,-492,-605,11,253,-6
-17819,-10,-494,-605,12,255,-6
-17299,-10,-492,-605,11,248,-4
-16779,-12,-494,-606,13,253,-5
-16260,-11,-493,-607,12,253,-6
-15739,-12,-493,-606,13,253,-6
-15208,-14,-492,-607,11,253,-6
-14688,-13,-493,-605,12,255,-6
-14168,-15,-490,-608,11,253,-4
-13642,-16,-489,-606,12,252,-4
-13122,-17,-488,-605,13,254,-5
-12602,-21,-486,-606,12,253,-6
-12082,-22,-484,-606,12,251,-6
-11561,-25,-483,-605,13,250,-6
-11042,-26,-482,-606,12,255,-5
-10522,-29,-481,-607,11,253,-5
-10002,-32,-481,-607,12,256,-6
-9482,-34,-481,-605,14,254,-5
-8962,-37,-479,-605,12,252,-6
-8431,-40,-479,-605,12,252,-5
-7911,-42,-479,-606,12,252,-6
-7391,-44,-478,-605,12,252,-7
-6872,-47,-478,-606,13,252,-6
-6351,-50,-479,-605,12,254,-6
-5831,-52,-476,-604,12,255,-7
-5300,-54,-474,-605,12,253,-5
-4774,-56,-472,-605,12,253,-5
-4254,-58,-471,-606,12,254,-5
-3734,-59,-468,-606,12,252,-5
-3215,-59,-466,-605,12,252,-4
-2695,-61,-465,-606,13,252,-4
-2174,-61,-463,-606,12,254,-5
-1654,-63,-462,-605,13,252,-5
-1135,-65,-462,-605,12,254,-5
-615,-67,-461,-605,12,253,-6
-95,-67,-462,-607,12,252,-7
436,-69,-462,-605,12,253,-7
956,-69,-463,-605,12,251,-5
1475,-69,-462,-605,11,252,-5
1995,-73,-463,-605,13,253,-4
2515,-71,-464,-604,12,252,-6
3035,-71,-463,-605,12,254,-5
3561,-71,-463,-606,12,253,-3
4080,-73,-463,-604,11,254,-5
4600,-70,-461,-606,12,252,-4
5132,-71,-463,-606,12,254,-5
5652,-69,-463,-605,11,252,-6
6171,-67,-461,-604,12,255,-5
6691,-67,-461,-604,12,251,-6
7212,-66,-462,-605,12,251,-6
7731,-64,-463,-605,12,252,-5
8251,-62,-462,-606,12,253,-6
8771,-62,-464,-605,12,254,-6
9291,-60,-466,-605,13,254,-6
9822,-59,-468,-605,12,254,-6
10342,-59,-469,-607,11,248,-5
10861,-57,-471,-606,13,251,-4
11381,-54,-473,-604,12,253,-6
11901,-54,-474,-606,12,253,-5
12427,-53,-476,-604,12,250,-6
12947,-50,-476,-606,12,253,-5
13467,-46,-476,-605,12,253,-5
13987,-46,-477,-605,12,253,-6
14507,-44,-477,-605,12,252,-5
15038,-42,-477,-606,11,255,-5
15558,-40,-477,-606,12,252,-3
16078,-39,-475,-605,12,253,-5
16599,-36,-477,-605,12,254,-6
17119,-35,-478,-606,13,253,-6
17638,-34,-478,-605,13,251,-6
18158,-33,-480,-606,12,253,-5
18705,-32,-480,-606,11,253,-6
19225,-32,-483,-605,12,254,-7
19745,-31,-483,-606,12,252,-5
20265,-28,-485,-606,12,252,-4
20785,-28,-487,-605,12,253,-6
21311,-28,-487,-605,12,254,-5
21831,-28,-487,-607,13,253,-7
22350,-26,-488,-606,12,250,-5
22871,-26,-486,-606,10,253,-3
23391,-27,-486,-605,11,254,-5
23911,-26,-486,-606,12,249,-5
24430,-26,-484,-605,13,252,-6
24950,-27,-483,-606,12,253,-4
25482,-27,-483,-605,12,253,-6
26002,-27,-482,-606,13,250,-5
26522,-28,-481,-605,12,252,-4
27042,-27,-481,-605,11,253,-6
27563,-29,-482,-606,12,253,-5
28093,-31,-480,-605,12,251,-4
28613,-31,-481,-605,12,252,-5
29133,-34,-483,-604,12,254,-4
29659,-34,-481,-606,13,253,-5
30179,-35,-482,-605,12,256,-7
30698,-37,-482,-604,12,251,-6
31218,-39,-483,-605,11,251,-6
31738,-40,-480,-604,13,255,-6
32259,-42,-481,-604,13,255,-6
-32757,-42,-480,-605,13,252,-7
-32238,-45,-478,-606,12,252,-6
-31718,-47,-477,-606,13,256,-6
-31198,-47,-475,-605,11,253,-5
-30677,-48,-474,-605,13,253,-6
-30146,-49,-471,-604,13,252,-5
-29626,-50,-472,-605,12,252,-6
-29106,-50,-469,-606,12,254,-6
-28575,-51,-470,-606,13,253,-6
-28055,-54,-469,-607,12,252,-6
-27535,-55,-469,-606,13,252,-4
-27008,-56,-469,-604,12,253,-6
-26488,-58,-469,-605,12,252,-5
-25969,-58,-469,-605,12,251,-5
-25449,-58,-471,-605,13,252,-6
-24929,-59,-470,-605,12,252,-4
-24409,-59,-471,-605,12,253,-4
-23888,-60,-471,-604,12,252,-6
-23368,-59,-471,-605,12,252,-5
-22849,-61,-471,-604,12,253,-5
-22329,-59,-469,-605,12,252,-6
-21809,-59,-469,-605,11,252,-6
-21288,-58,-468,-605,11,251,-4
-20768,-57,-468,-605,13,254,-5
-20248,-57,-467,-605,12,252,-6
-19717,-57,-467,-606,12,253,-5
-19186,-55,-466,-604,13,253,-5
-18660,-55,-468,-607,13,252,-6
-18141,-56,-469,-605,13,250,-5
-17620,-55,-469,-605,12,254,-6
-17100,-54,-471,-605,13,255,-6
-16580,-53,-473,-604,11,254,-4
-16060,-53,-474,-605,11,253,-5
-15540,-52,-474,-605,13,255,-5
-15021,-52,-475,-605,11,255,-5
-14500,-51,-475,-605,12,252,-4
-13980,-49,-475,-605,12,253,-6
-13460,-47,-477,-604,12,251,-5
-12940,-46,-475,-605,11,253,-5
-12420,-45,-475,-606,13,254,-6
-11900,-44,-476,-605,11,253,-5
-11380,-43,-475,-605,12,252,-4
-10860,-41,-475,-604,12,254,-4
-10323,-41,-474,-605,12,253,-6
-9792,-40,-476,-605,11,252,-4
-9272,-38,-477,-605,12,255,-4
-8752,-38,-477,-605,13,252,-5
-8231,-37,-478,-604,12,253,-4
-7712,-37,-480,-605,13,253,-7
-7192,-36,-479,-605,12,254,-6
-6672,-37,-481,-604,12,252,-5
-6153,-37,-483,-606,12,252,-5
-5632,-35,-483,-605,12,253,-4
-5112,-34,-484,-606,14,253,-7
-4592,-35,-484,-603,12,254,-4
-4073,-34,-484,-605,12,253,-5
-3553,-33,-483,-604,12,251,-6
-3033,-34,-485,-606,11,251,-5
