-26965,-76,-543,-643,-2,255,0
-26445,-76,-542,-643,-1,255,0
-25925,-76,-543,-644,-2,254,0
-25406,-77,-543,-641,-1,255,0
-24886,-76,-542,-642,-2,254,0
-24367,-80,-542,-642,-2,255,0
-23846,-83,-541,-641,-3,254,0
-23326,-87,-539,-641,-2,254,0
-22807,-89,-538,-642,-2,254,0
-22287,-95,-533,-642,-1,253,0
-21768,-103,-532,-641,-1,255,0
-21247,-110,-528,-640,-3,255,0
-20722,-117,-525,-641,-1,254,0
-20202,-122,-519,-640,-2,255,0
-19683,-131,-513,-639,-2,255,0
-19163,-141,-508,-637,-1,256,0
-18631,-149,-502,-638,-2,254,0
-18112,-158,-494,-639,-2,254,0
-17592,-167,-487,-636,-1,254,0
-17060,-177,-479,-635,-2,255,0
-16540,-187,-471,-635,-2,255,0
-16021,-197,-461,-635,-2,255,0
-15501,-207,-450,-634,-2,255,0
-14981,-216,-438,-631,-2,255,0
-14461,-225,-427,-633,-2,255,0
-13941,-232,-414,-631,-2,255,0
-13421,-242,-402,-631,-1,254,0
-12902,-250,-388,-630,-1,254,0
-12377,-257,-375,-629,-2,255,0
-11856,-261,-361,-630,-2,255,0
-11336,-268,-345,-627,-3,254,1
-10817,-274,-330,-627,-1,254,0
-10297,-278,-313,-626,-1,254,0
-9777,-281,-298,-624,-1,253,0
-9246,-286,-283,-624,-2,255,0
-8726,-287,-269,-623,-3,255,1
-8207,-289,-254,-624,-2,255,0
-7687,-289,-239,-623,-2,253,0
-7155,-290,-221,-623,-1,253,-1
-6636,-290,-208,-623,-1,255,0
-6116,-289,-192,-622,-1,253,0
-5596,-286,-182,-622,-1,255,1
-5076,-285,-166,-621,-1,254,0
-4556,-283,-152,-620,-1,255,0
-4031,-280,-140,-620,-1,255,0
-3512,-275,-129,-621,-2,254,0
-2992,-272,-119,-620,-1,255,0
-2472,-269,-106,-620,-2,256,0
-1952,-265,-96,-618,-1,254,0
-1432,-261,-87,-620,-1,254,0
-913,-256,-79,-620,-1,255,1
-382,-253,-70,-620,-2,255,0
138,-251,-64,-620,-1,255,0
657,-246,-58,-620,-1,255,0
1176,-243,-52,-620,-2,253,0
1696,-240,-46,-619,-2,254,0
2215,-238,-40,-622,-2,256,0
2736,-234,-37,-621,-2,254,0
3267,-231,-33,-621,-2,255,0
3786,-229,-31,-621,-2,254,0
4306,-228,-27,-619,-1,253,1
4826,-225,-27,-621,-1,254,-1
5351,-225,-26,-623,-2,254,1
5870,-224,-24,-620,-2,256,0
6390,-226,-24,-621,-3,255,0
6909,-224,-26,-620,-1,253,0
7430,-226,-27,-621,-2,255,1
7949,-229,-29,-620,-3,254,0
8469,-229,-30,-620,-2,255,0
8999,-233,-35,-620,-1,254,1
9519,-234,-38,-621,-1,254,0
10039,-236,-42,-620,-2,255,0
10558,-239,-46,-620,-1,254,0
11078,-243,-52,-621,-1,253,0
11597,-245,-59,-620,-2,254,0
12118,-250,-64,-620,-2,255,1
12637,-254,-71,-619,-2,254,0
13168,-257,-80,-620,-2,255,0
13688,-262,-88,-620,-1,254,0
14214,-264,-95,-620,-1,255,0
14733,-269,-105,-620,0,255,0
15253,-271,-117,-620,-2,255,1
15773,-275,-126,-621,-1,255,1
16292,-279,-137,-619,-1,253,0
16813,-281,-147,-621,-2,254,1
17332,-285,-159,-619,-2,254,0
17863,-286,-172,-621,-2,254,0
18383,-288,-183,-620,-2,254,0
18903,-288,-198,-621,-2,255,1
19423,-289,-211,-622,-1,254,0
19942,-289,-221,-623,-1,252,0
20462,-289,-233,-621,-1,255,0
20982,-288,-247,-623,-1,253,1
21501,-288,-261,-623,-2,255,0
22022,-286,-273,-623,-2,254,0
22542,-285,-284,-624,-2,254,0
23067,-282,-298,-623,-2,254,0
23599,-280,-311,-625,-2,254,0
24118,-275,-322,-624,-1,254,0
24638,-272,-335,-625,-2,254,0
25158,-269,-346,-624,-1,254,0
25677,-265,-355,-626,-1,254,0
26198,-259,-366,-627,-2,254,0
26717,-255,-376,-627,-2,255,0
27248,-252,-385,-627,-2,254,0
27768,-247,-394,-629,-1,255,0
28288,-242,-402,-630,-3,254,1
28808,-237,-410,-631,-2,254,0
29328,-233,-417,-630,-2,255,0
29847,-227,-424,-632,-1,254,0
30367,-223,-429,-632,-2,255,0
30886,-220,-434,-632,-1,255,1
31413,-216,-440,-631,-2,254,0
31932,-212,-444,-632,-2,253,0
32452,-208,-449,-633,-1,255,0
-32565,-206,-452,-633,-2,255,0
-32017,-202,-454,-633,-2,253,0
-31498,-200,-458,-635,-1,254,0
-30978,-197,-459,-634,-1,253,0
-30457,-197,-460,-633,-1,255,0
-29937,-196,-462,-634,-3,254,1
-29407,-195,-463,-635,-2,254,0
-28887,-194,-462,-635,-2,254,0
-28367,-195,-463,-635,-3,255,1
-27847,-196,-462,-634,-2,254,1
-27327,-197,-460,-632,-1,254,0
-26808,-198,-459,-634,-2,254,0
-26288,-200,-457,-633,-2,254,0
-25762,-202,-453,-634,-1,254,0
-25242,-204,-450,-635,-1,255,0
-24723,-206,-449,-633,-3,254,0
-24203,-210,-444,-633,-2,256,1
-23683,-214,-440,-632,-1,254,0
-23162,-217,-435,-631,-2,254,0
-22643,-220,-430,-633,-1,254,0
-22123,-224,-426,-633,-2,255,0
-21592,-229,-419,-631,-1,255,0
-21071,-233,-414,-630,-2,254,0
-20552,-237,-406,-631,-2,255,0
-20021,-243,-398,-629,-1,254,1
-19501,-248,-391,-630,-2,254,0
-18981,-251,-383,-628,-3,254,1
-18461,-255,-375,-628,-1,255,0
-17941,-260,-365,-629,-1,255,0
-17416,-265,-355,-628,-2,254,0
-16896,-266,-346,-625,-2,254,1
-16376,-271,-338,-627,-2,255,0
-15856,-274,-327,-627,-3,255,1
-15337,-276,-318,-625,-2,254,1
-14817,-279,-306,-625,-1,254,0
-14297,-282,-297,-624,-1,253,1
-13777,-285,-288,-625,-1,255,0
-13257,-285,-276,-623,-1,254,0
-12737,-288,-265,-622,-1,255,1
-12218,-289,-254,-622,-3,255,0
-11686,-290,-242,-622,-2,253,1
-11155,-289,-232,-622,-1,254,0
-10635,-291,-222,-621,0,255,0
-10116,-290,-213,-620,-2,254,1
-9595,-290,-203,-621,-1,255,0
-9070,-288,-192,-620,-2,255,0
-8550,-287,-182,-620,-1,254,0
-8031,-286,-171,-620,-1,253,0
-7511,-286,-165,-621,-2,254,0
-6991,-283,-154,-619,-2,254,0
-6471,-280,-146,-621,-1,254,1
-5952,-279,-140,-620,-1,255,0
-5432,-276,-130,-619,-2,254,0
-4912,-274,-124,-620,-2,255,1
-4392,-273,-117,-620,-2,254,0
-3872,-269,-110,-620,-1,254,0
-3353,-267,-106,-620,-2,254,0
-2833,-265,-100,-620,-2,255,0
-2313,-263,-96,-621,-1,254,1
-1782,-261,-91,-620,-2,255,0
-1251,-260,-87,-621,-1,254,1
-732,-259,-84,-620,-1,254,0
-206,-256,-80,-620,-2,254,0
314,-255,-79,-620,-1,255,0
833,-255,-77,-622,-2,254,1
1352,-253,-74,-620,-2,254,0
1872,-253,-72,-619,-1,254,0
2392,-253,-73,-620,-2,254,0
2912,-252,-71,-620,-2,255,1
3431,-252,-71,-622,-1,254,0
3951,-252,-72,-620,-1,255,0
4470,-254,-73,-620,-2,254,0
4990,-254,-74,-620,-1,254,1
5510,-256,-76,-619,-1,254,0
6029,-255,-77,-618,-2,254,1
6549,-259,-82,-619,-1,254,0
7068,-260,-85,-619,-2,254,0
7600,-261,-88,-619,-2,254,0
8119,-263,-91,-619,-1,254,0
8650,-265,-96,-617,-1,254,0
9176,-265,-102,-619,-2,255,0
9695,-268,-105,-618,-1,254,0
10215,-271,-112,-617,-1,255,0
10734,-273,-119,-619,-2,255,0
11254,-274,-125,-619,-1,255,0
11774,-278,-132,-618,-2,255,0
12294,-280,-139,-618,-2,254,0
12814,-281,-146,-619,-2,255,1
13334,-283,-153,-620,-2,255,0
13853,-284,-163,-619,-1,256,0
14373,-284,-169,-619,-2,253,0
14893,-286,-178,-620,-1,254,0
15413,-287,-186,-621,-2,254,0
15933,-289,-193,-622,0,255,0
16463,-291,-203,-621,-1,255,0
16984,-289,-213,-622,-2,255,0
17509,-290,-220,-622,-1,255,0
18028,-290,-228,-623,-2,255,0
18548,-288,-237,-622,-2,254,0
19080,-291,-246,-624,-1,254,0
19600,-288,-257,-624,-1,255,0
20119,-288,-265,-625,-1,255,0
20639,-286,-272,-626,-1,254,0
21159,-286,-280,-625,-1,255,0
21679,-283,-289,-626,-3,254,1
22199,-282,-296,-627,0,254,-1
22718,-279,-304,-628,-2,254,0
23238,-278,-313,-629,-1,255,0
23758,-276,-319,-629,-1,255,0
24278,-274,-326,-627,-1,255,0
24798,-272,-332,-628,-1,254,0
25318,-270,-339,-627,-1,254,0
25848,-267,-345,-628,-1,254,0
26374,-265,-351,-630,-1,255,0
26894,-263,-353,-629,-2,253,0
27413,-262,-359,-629,-1,255,0
27933,-259,-365,-629,-1,255,0
28453,-258,-368,-628,0,253,0
28985,-256,-373,-628,-2,255,0
29504,-255,-376,-629,-1,253,0
30024,-254,-379,-629,-1,255,1
30544,-252,-380,-631,-2,255,0
31064,-251,-383,-629,-1,255,0
31584,-249,-386,-629,-1,254,0
32103,-247,-387,-630,-1,255,0
32623,-249,-388,-630,-1,254,1
-32393,-248,-389,-629,-2,255,0
-31874,-248,-390,-629,-2,254,1
-31353,-248,-388,-629,-2,254,0
-30817,-248,-389,-630,-2,254,1
-30297,-249,-387,-630,-2,255,0
-29777,-249,-386,-629,-1,255,0
-29257,-251,-386,-629,-1,254,0
-28737,-251,-382,-630,-2,254,0
-28217,-253,-381,-628,-1,254,0
-27698,-255,-377,-627,-1,255,1
-27177,-256,-375,-629,-2,255,0
-26657,-258,-371,-630,-1,254,0
-26126,-260,-367,-629,-2,254,0
-25607,-262,-363,-628,-3,255,0
-25086,-263,-357,-628,-1,255,0
-24566,-265,-353,-627,-1,254,0
-24047,-268,-348,-626,-2,256,0
-23527,-270,-343,-627,-1,255,1
-23007,-274,-336,-626,-1,253,0
-22481,-275,-330,-626,-2,254,1
-21951,-277,-323,-626,-1,255,0
-21431,-276,-317,-627,-1,254,0
-20911,-278,-311,-626,-2,255,0
-20391,-279,-303,-626,-2,256,0
-19871,-281,-295,-625,-2,255,0
-19351,-284,-290,-625,-2,254,1
-18832,-285,-282,-623,0,254,0
-18312,-284,-275,-625,-2,254,1
-17791,-285,-267,-625,-1,255,0
-17272,-288,-258,-624,-1,254,0
-16752,-286,-251,-624,-1,253,0
-16221,-287,-245,-623,-1,254,0
-15700,-286,-238,-624,-1,254,1
-15181,-288,-230,-623,-1,256,0
-14661,-287,-222,-623,-2,255,1
-14136,-288,-215,-624,-2,254,0
-13616,-289,-209,-623,0,255,0
-13095,-288,-201,-622,-1,254,0
-12565,-287,-194,-622,-1,254,0
-12045,-287,-190,-623,-1,253,0
-11526,-287,-182,-622,-2,255,0
-11005,-286,-176,-621,-2,254,0
-10485,-284,-169,-621,-2,254,0
-9965,-283,-165,-622,-3,255,0
-9446,-284,-160,-623,-1,255,0
-8926,-282,-153,-621,-1,255,0
-8407,-281,-148,-621,-1,255,0
-7886,-277,-142,-622,-1,254,0
-7367,-279,-139,-622,-2,253,0
-6847,-278,-135,-621,-2,254,1
-6327,-276,-131,-620,-1,254,0
-5795,-274,-126,-623,-1,255,1
-5270,-276,-123,-624,-1,254,0
-4751,-275,-119,-625,-3,254,1
-4231,-275,-116,-624,-1,254,0
-3700,-273,-114,-622,-2,254,1
-3180,-275,-112,-623,-1,254,0
-2660,-274,-109,-621,-2,254,0
-2141,-272,-109,-621,-2,254,1
-1620,-272,-110,-619,-2,254,1
-1101,-273,-109,-618,-1,254,0
-581,-271,-110,-617,-3,254,0
-62,-271,-109,-617,-1,254,0
458,-270,-111,-619,-1,253,0
977,-272,-111,-618,-2,254,0
1498,-271,-112,-619,-1,253,1
2017,-272,-114,-619,-2,254,0
2537,-274,-116,-619,0,254,0
3056,-273,-116,-618,-2,254,1
3574,-273,-119,-619,-1,254,0
4094,-273,-119,-619,-1,255,1
4626,-274,-125,-619,-1,254,0
5145,-276,-126,-620,-1,254,1
5677,-277,-130,-620,-1,255,0
6196,-278,-133,-619,-1,254,0
6716,-278,-137,-619,-1,253,0
7235,-280,-141,-619,-1,253,0
7755,-281,-144,-621,-1,254,0
8274,-281,-147,-618,-1,255,0
8795,-282,-151,-619,-2,254,0
9314,-283,-156,-619,-2,254,0
9834,-285,-161,-619,-1,254,1
10353,-284,-165,-619,-1,255,0
10873,-286,-169,-620,-1,254,0
11394,-287,-176,-618,-1,254,0
11919,-288,-180,-620,-1,254,0
12438,-288,-183,-620,-1,254,0
12958,-290,-190,-619,-1,255,1
13478,-290,-197,-621,-1,254,0
13998,-290,-201,-620,-1,254,0
14545,-289,-209,-620,-3,255,1
15076,-290,-213,-620,-1,254,0
15596,-291,-221,-621,-1,253,1
16115,-291,-224,-621,-1,254,0
16635,-291,-231,-621,-1,255,0
17156,-290,-238,-618,-1,254,1
17675,-290,-244,-621,-1,254,0
18195,-290,-250,-621,-1,254,0
18715,-290,-256,-620,-1,255,1
19234,-291,-263,-622,-2,254,1
19755,-289,-267,-622,-2,255,1
20274,-288,-274,-621,-2,254,0
20800,-287,-280,-622,-1,254,0
21319,-285,-285,-622,-1,255,0
21839,-285,-290,-623,-2,254,1
22359,-283,-296,-623,-1,254,0
22879,-283,-299,-622,-2,253,1
23399,-280,-304,-624,-1,254,0
23918,-280,-308,-624,-1,255,1
24450,-280,-312,-623,-2,254,0
24981,-280,-317,-623,-1,254,0
25500,-277,-321,-623,-1,254,0
26020,-275,-324,-626,-2,254,1
26541,-275,-328,-625,-1,255,0
27060,-274,-330,-625,-2,254,0
27580,-273,-331,-626,-1,252,1
28100,-272,-335,-626,-1,255,-1
28619,-271,-338,-625,-2,253,0
29157,-271,-338,-625,-2,255,0
29676,-270,-341,-626,-2,254,0
30196,-269,-342,-629,0,254,0
30715,-270,-343,-623,-1,254,0
31236,-271,-341,-626,-1,254,1
31756,-269,-340,-626,-2,254,0
32275,-271,-340,-624,-1,255,0
-32741,-273,-341,-623,-2,255,1
-32210,-272,-337,-623,-1,255,1
-31690,-272,-336,-624,-1,254,-1
-31170,-271,-332,-624,-1,254,1
-30639,-275,-330,-624,-2,254,0
-30118,-276,-326,-623,-2,255,0
-29599,-276,-322,-625,-2,254,0
-29079,-278,-320,-622,-1,255,0
-28559,-279,-317,-621,-2,254,0
-28040,-280,-311,-623,-1,255,1
-27513,-281,-307,-623,-1,255,1
-26994,-282,-302,-624,0,255,0
-26474,-283,-298,-622,-1,253,0
-25955,-284,-290,-622,-2,255,0
-25435,-285,-287,-620,-1,255,0
-24914,-287,-279,-621,-1,253,0
-24394,-287,-275,-622,-1,254,0
-23875,-288,-269,-620,-1,254,0
-23355,-289,-261,-621,-1,255,1
-22824,-288,-256,-622,-2,255,0
-22304,-290,-251,-620,-2,254,1
-21784,-291,-242,-620,-2,253,0
-21265,-289,-237,-621,-1,254,1
-20745,-289,-233,-621,-2,254,1
-20213,-289,-226,-621,-1,254,1
-19693,-291,-220,-619,-2,254,0
-19168,-290,-213,-620,-2,254,0
-18648,-288,-205,-620,-1,254,1
-18128,-288,-198,-620,-1,255,0
-17608,-289,-193,-620,-1,255,0
-17088,-288,-187,-619,-1,254,0
-16569,-286,-179,-620,-2,254,1
-16049,-287,-177,-619,-2,255,0
-15528,-286,-167,-618,-1,255,1
-15009,-284,-164,-619,0,254,0
-14489,-283,-158,-619,0,255,0
-13958,-282,-152,-618,-1,254,1
-13438,-281,-146,-618,-1,254,1
-12918,-280,-142,-617,0,254,-1
-12398,-277,-138,-618,-1,254,0
-11879,-277,-133,-617,-1,254,0
-11359,-277,-129,-618,-1,254,0
-10815,-277,-124,-616,-1,254,0
-10284,-274,-121,-617,-2,255,0
-9764,-273,-116,-617,-2,253,1
-9244,-272,-113,-618,-1,253,1
-8725,-271,-111,-616,-1,254,0
-8205,-270,-109,-616,-2,255,0
-7685,-270,-106,-618,-1,254,0
-7165,-270,-104,-617,-1,254,0
-6645,-269,-103,-617,-2,255,0
-6126,-268,-102,-619,-1,254,0
-5606,-267,-100,-619,-2,254,1
-5086,-266,-99,-617,-1,254,0
-4555,-266,-100,-617,-1,254,1
-4035,-266,-99,-618,-1,255,0
-3516,-267,-101,-619,-2,254,0
-2996,-266,-100,-618,-1,254,1
-2470,-267,-100,-618,-1,255,0
-1951,-266,-102,-618,-2,253,0
-1431,-266,-101,-618,-1,254,0
-911,-268,-102,-618,-1,253,0
-392,-268,-104,-617,-2,254,0
140,-269,-109,-618,-2,255,0
660,-270,-111,-619,-2,254,0
1179,-271,-112,-617,0,254,1
1699,-272,-115,-618,-3,254,1
2219,-273,-118,-619,-1,254,0
2739,-273,-120,-617,-1,255,1
3259,-275,-125,-617,-1,254,1
3778,-277,-128,-618,-2,254,0
4310,-277,-132,-617,-1,254,1
4829,-279,-137,-618,-1,254,0
5349,-280,-141,-617,-1,254,0
5868,-281,-145,-617,-1,254,0
6394,-283,-150,-618,-1,255,0
6914,-283,-154,-619,0,254,0
7433,-283,-159,-616,-1,253,0
7953,-286,-164,-617,-3,254,1
8473,-286,-168,-617,-2,254,0
8992,-286,-172,-618,-1,254,0
9512,-288,-177,-619,-1,255,0
10043,-288,-182,-618,-2,254,0
10563,-289,-188,-617,-2,254,0
11083,-289,-193,-620,-3,255,0
11602,-290,-197,-619,-1,254,1
12123,-290,-202,-618,-2,254,0
12643,-291,-208,-618,-1,255,0
13162,-290,-212,-620,-1,255,0
13693,-291,-217,-620,-1,254,0
14213,-291,-221,-621,-1,254,0
14733,-289,-225,-619,-1,254,0
15257,-290,-228,-621,-1,254,0
15776,-290,-232,-620,-1,255,1
16296,-290,-237,-620,-1,253,1
16816,-289,-240,-622,-1,254,0
17336,-289,-244,-621,-2,254,0
17856,-289,-248,-621,-1,254,1
18375,-290,-250,-622,-1,254,0
18895,-289,-255,-620,-1,255,0
19416,-288,-257,-622,0,255,1
19935,-288,-260,-621,0,254,0
20466,-288,-262,-620,-1,254,0
20986,-288,-267,-621,-3,254,1
21506,-287,-267,-621,-1,255,0
22026,-287,-271,-622,-2,254,0
22546,-288,-273,-623,-2,255,0
23076,-286,-274,-621,-2,255,0
23597,-286,-275,-620,-1,254,0
24122,-286,-277,-621,-1,254,1
24641,-288,-278,-622,-1,255,1
25161,-286,-278,-621,-1,254,0
25681,-286,-279,-620,-2,254,0
26201,-286,-278,-619,-2,254,0
26721,-286,-278,-621,-2,254,0
27241,-287,-278,-620,-2,254,1
27760,-287,-277,-622,-1,254,0
28280,-287,-276,-622,0,254,1
28800,-287,-275,-623,-1,254,0
29320,-288,-272,-621,-1,254,0
29840,-288,-272,-621,-1,254,1
30371,-285,-269,-622,-1,254,0
30891,-288,-266,-622,-2,255,1
31411,-288,-267,-621,-1,255,0
31941,-287,-264,-622,-1,255,0
32466,-288,-260,-621,-1,254,1
-32549,-289,-258,-621,-2,254,1
-32029,-289,-255,-622,-1,254,0
-31510,-291,-252,-624,0,255,0
-30990,-291,-250,-622,-1,253,0
-30470,-292,-248,-623,-1,254,0
-29950,-291,-245,-623,-1,254,1
-29430,-293,-241,-622,-1,255,1
-28910,-293,-239,-624,-1,255,1
-28391,-293,-235,-622,-2,254,0
-27871,-293,-231,-621,-1,254,0
-27351,-293,-228,-621,-1,255,0
-26831,-292,-223,-621,-2,254,1
-26311,-293,-219,-622,-1,254,0
-25791,-292,-215,-621,-2,255,0
-25272,-293,-210,-621,0,255,0
