2056,479,304,-205,0,0,0,0,0,0,0,NaN,NaN,0,NaN,NaN,0,NaN,NaN
2107,376,305,-349,0,0,0,0,0,0,0,NaN,NaN,0,NaN,NaN,0,NaN,NaN
2160,342,278,-413,0,0,0,0,0,0,0,NaN,NaN,0,NaN,NaN,0,NaN,NaN
2211,283,270,-444,0,0,0,0,0,0,0,NaN,NaN,0,NaN,NaN,0,NaN,NaN
2265,235,276,-454,0,0,0,0,0,0,0,NaN,NaN,0,NaN,NaN,0,NaN,NaN
2316,230,268,-466,0,0,0,0,0,0,0,NaN,NaN,0,NaN,NaN,0,NaN,NaN
2369,288,168,-265,0,0,0,0,0,0,0,NaN,NaN,0,NaN,NaN,0,NaN,NaN
2422,468,77,-497,0,0,0,0,0,0,0,NaN,NaN,0,NaN,NaN,0,NaN,NaN
2473,522,-45,-512,0,0,0,0,0,0,0,NaN,NaN,0,NaN,NaN,0,NaN,NaN
2525,582,-236,-484,0,0,0,0,0,0,0,NaN,NaN,0,NaN,NaN,0,NaN,NaN
2578,664,-410,-304,0,0,0,0,0,0,0,NaN,NaN,0,NaN,NaN,0,NaN,NaN
2631,719,-411,-61,0,0,0,0,0,0,0,NaN,NaN,0,NaN,NaN,0,NaN,NaN
2684,715,-354,67,0,0,0,0,0,0,0,NaN,NaN,0,NaN,NaN,0,NaN,NaN
2736,649,-322,238,0,0,0,0,0,0,0,NaN,NaN,0,NaN,NaN,0,NaN,NaN
2789,542,-296,385,0,0,0,0,0,0,0,NaN,NaN,0,NaN,NaN,0,NaN,NaN
2840,376,-215,503,0,0,0,0,0,0,0,NaN,NaN,0,NaN,NaN,0,NaN,NaN
2893,276,-19,513,0,0,0,0,0,0,0,NaN,NaN,0,NaN,NaN,0,NaN,NaN
2945,160,-62,546,0,0,0,0,0,0,0,NaN,NaN,0,NaN,NaN,0,NaN,NaN
2996,106,-64,555,0,0,0,0,0,0,0,NaN,NaN,0,NaN,NaN,0,NaN,NaN
3047,-1,-114,558,0,0,0,0,0,0,0,NaN,NaN,0,NaN,NaN,0,NaN,NaN
3098,-95,-17,518,0,0,0,0,0,0,0,NaN,NaN,0,NaN,NaN,0,NaN,NaN
3149,-200,107,420,0,0,0,0,0,0,0,NaN,NaN,0,NaN,NaN,0,NaN,NaN
3201,-269,154,343,0,0,0,0,0,0,0,NaN,NaN,0,NaN,NaN,0,NaN,NaN
3254,-338,146,287,0,0,0,0,0,0,0,NaN,NaN,0,NaN,NaN,0,NaN,NaN
3305,-431,108,175,0,0,0,0,0,0,0,NaN,NaN,0,NaN,NaN,0,NaN,NaN
3409,-514,-41,44,0,0,0,0,0,0,0,NaN,NaN,0,NaN,NaN,0,NaN,NaN
3461,-514,-12,2,0,0,0,0,0,0,0,NaN,NaN,0,NaN,NaN,0,NaN,NaN
3512,-515,-12,-60,0,0,0,0,0,0,0,NaN,NaN,0,NaN,NaN,0,NaN,NaN
3563,-519,-91,-150,0,0,0,0,0,0,0,NaN,NaN,0,NaN,NaN,0,NaN,NaN
3672,-262,-271,-528,0,0,0,0,0,0,0,NaN,NaN,0,NaN,NaN,0,NaN,NaN
3725,42,-337,-638,0,0,0,0,0,0,0,NaN,NaN,0,NaN,NaN,0,NaN,NaN
3778,169,-303,-651,0,0,0,0,0,0,0,NaN,NaN,0,NaN,NaN,0,NaN,NaN
3831,118,-206,-657,0,0,0,0,0,0,0,NaN,NaN,0,NaN,NaN,0,NaN,NaN
3885,-49,-57,-618,0,0,0,0,0,0,0,NaN,NaN,0,NaN,NaN,0,NaN,NaN
3938,32,-5,-628,0,0,0,0,0,0,0,NaN,NaN,0,NaN,NaN,0,NaN,NaN
3987,195,20,-626,0,0,0,0,0,0,0,NaN,NaN,0,NaN,NaN,0,NaN,NaN
4038,225,-46,-636,0,0,0,0,0,0,0,NaN,NaN,0,NaN,NaN,0,NaN,NaN
4143,477,-18,-536,0,0,0,0,0,0,0,NaN,NaN,0,NaN,NaN,0,NaN,NaN
4196,632,2,-375,0,0,0,0,0,0,0,NaN,NaN,0,NaN,NaN,0,NaN,NaN
4245,642,-36,-380,0,0,0,0,0,0,0,NaN,NaN,0,NaN,NaN,0,NaN,NaN
4298,640,-164,-411,0,0,0,0,0,0,0,NaN,NaN,0,NaN,NaN,0,NaN,NaN
4352,654,-299,-381,0,0,0,0,0,0,0,NaN,NaN,0,NaN,NaN,0,NaN,NaN
4405,618,-408,-386,0,0,0,0,0,0,0,NaN,NaN,0,NaN,NaN,0,NaN,NaN
4458,579,-512,-347,0,0,0,0,0,0,0,NaN,NaN,0,NaN,NaN,0,NaN,NaN
4511,530,-610,-279,0,0,0,0,0,0,0,NaN,NaN,0,NaN,NaN,0,NaN,NaN
4564,514,-660,-190,0,0,0,0,0,0,0,NaN,NaN,0,NaN,NaN,0,NaN,NaN
4618,435,-733,-87,0,0,0,0,0,0,0,NaN,NaN,0,NaN,NaN,0,NaN,NaN
4671,363,-772,-48,0,0,0,0,0,0,0,NaN,NaN,0,NaN,NaN,0,NaN,NaN
4722,306,-795,-50,0,0,0,0,0,0,0,NaN,NaN,0,NaN,NaN,0,NaN,NaN
4775,257,-806,-107,0,0,0,0,0,0,0,NaN,NaN,0,NaN,NaN,0,NaN,NaN
4829,156,-813,-139,0,0,0,0,0,0,0,NaN,NaN,0,NaN,NaN,0,NaN,NaN
4882,71,-811,-131,0,0,0,0,0,0,0,NaN,NaN,0,NaN,NaN,0,NaN,NaN
4935,34,-813,-126,0,0,0,0,0,0,0,NaN,NaN,0,NaN,NaN,0,NaN,NaN
4986,0,-806,-100,0,0,0,0,0,0,0,NaN,NaN,0,NaN,NaN,0,NaN,NaN
5038,-73,-789,-70,0,0,0,0,0,0,0,NaN,NaN,0,NaN,NaN,0,NaN,NaN
5091,-265,-698,-80,0,0,0,0,0,0,0,NaN,NaN,0,NaN,NaN,0,NaN,NaN
5144,-281,-671,-186,0,0,0,0,0,0,0,NaN,NaN,0,NaN,NaN,0,NaN,NaN
5197,-348,-604,-191,0,0,0,0,0,0,0,NaN,NaN,0,NaN,NaN,0,NaN,NaN
5253,-413,-552,-117,0,0,0,0,0,0,0,NaN,NaN,0,NaN,NaN,0,NaN,NaN
5308,-466,-479,-25,0,0,0,0,0,0,0,NaN,NaN,0,NaN,NaN,0,NaN,NaN
5361,-503,-402,13,0,0,0,0,0,0,0,NaN,NaN,0,NaN,NaN,0,NaN,NaN
5412,-533,-316,-4,0,0,0,0,0,0,0,NaN,NaN,0,NaN,NaN,0,NaN,NaN
5466,-527,-326,42,0,0,0,0,0,0,0,NaN,NaN,0,NaN,NaN,0,NaN,NaN
5517,-524,-295,80,0,0,0,0,0,0,0,NaN,NaN,0,NaN,NaN,0,NaN,NaN
5570,-540,-193,33,0,0,0,0,0,0,0,NaN,NaN,0,NaN,NaN,0,NaN,NaN
5621,-532,-85,-88,0,0,0,0,0,0,0,NaN,NaN,0,NaN,NaN,0,NaN,NaN
5675,-486,-72,-261,0,0,0,0,0,0,0,NaN,NaN,0,NaN,NaN,0,NaN,NaN
5728,-389,-70,-413,0,0,0,0,0,0,0,NaN,NaN,0,NaN,NaN,0,NaN,NaN
5781,-224,-142,-558,0,0,0,0,0,0,0,NaN,NaN,0,NaN,NaN,0,NaN,NaN
5834,-41,-193,-633,0,0,0,0,0,0,0,NaN,NaN,0,NaN,NaN,0,NaN,NaN
5890,81,-174,-657,0,0,0,0,0,0,0,NaN,NaN,0,NaN,NaN,0,NaN,NaN
5941,96,-167,-659,0,0,0,0,0,0,0,NaN,NaN,0,NaN,NaN,0,NaN,NaN
5994,180,-136,-657,0,0,0,0,0,0,0,NaN,NaN,0,NaN,NaN,0,NaN,NaN
6047,335,-52,-608,0,0,0,0,0,0,0,NaN,NaN,0,NaN,NaN,0,NaN,NaN
6098,538,-40,-491,0,0,0,0,0,0,0,NaN,NaN,0,NaN,NaN,0,NaN,NaN
6152,640,-61,-385,0,0,0,0,0,0,0,NaN,NaN,0,NaN,NaN,0,NaN,NaN
6203,708,-60,-243,0,0,0,0,0,0,0,NaN,NaN,0,NaN,NaN,0,NaN,NaN
6256,728,-50,-67,0,0,0,0,0,0,0,NaN,NaN,0,NaN,NaN,0,NaN,NaN
6307,694,-54,115,0,0,0,0,0,0,0,NaN,NaN,0,NaN,NaN,0,NaN,NaN
6359,654,-23,196,0,0,0,0,0,0,0,NaN,NaN,0,NaN,NaN,0,NaN,NaN
6410,598,92,214,0,0,0,0,0,0,0,NaN,NaN,0,NaN,NaN,0,NaN,NaN
6459,458,259,209,0,0,0,0,0,0,0,NaN,NaN,0,NaN,NaN,0,NaN,NaN
6512,385,341,134,0,0,0,0,0,0,0,NaN,NaN,0,NaN,NaN,0,NaN,NaN
6563,257,404,112,0,0,0,0,0,0,0,NaN,NaN,0,NaN,NaN,0,NaN,NaN
6615,141,436,75,0,0,0,0,0,0,0,NaN,NaN,0,NaN,NaN,0,NaN,NaN
6664,96,444,34,0,0,0,0,0,0,0,NaN,NaN,0,NaN,NaN,0,NaN,NaN
6713,33,441,-12,0,0,0,0,0,0,0,NaN,NaN,0,NaN,NaN,0,NaN,NaN
6764,-12,441,-36,0,0,0,0,0,0,0,NaN,NaN,0,NaN,NaN,0,NaN,NaN
6815,-116,416,-35,0,0,0,0,0,0,0,NaN,NaN,0,NaN,NaN,0,NaN,NaN
6866,-237,354,-71,0,0,0,0,0,0,0,NaN,NaN,0,NaN,NaN,0,NaN,NaN
6920,-363,249,-73,0,0,0,0,0,0,0,NaN,NaN,0,NaN,NaN,0,NaN,NaN
6971,-424,174,-85,0,0,0,0,0,0,0,NaN,NaN,0,NaN,NaN,0,NaN,NaN
7024,-436,140,-146,0,0,0,0,0,0,0,NaN,NaN,0,NaN,NaN,0,NaN,NaN
7077,-483,13,-191,0,0,0,0,0,0,0,NaN,NaN,0,NaN,NaN,0,NaN,NaN
7129,-474,-206,-279,0,0,0,0,0,0,0,NaN,NaN,0,NaN,NaN,0,NaN,NaN
7184,-364,-358,-398,0,0,0,0,0,0,0,NaN,NaN,0,NaN,NaN,0,NaN,NaN
7239,-313,-506,-361,0,0,0,0,0,0,0,NaN,NaN,0,NaN,NaN,0,NaN,NaN
7292,-227,-588,-380,0,0,0,0,0,0,0,NaN,NaN,0,NaN,NaN,0,NaN,NaN
7348,-148,-610,-420,0,0,0,0,0,0,0,NaN,NaN,0,NaN,NaN,0,NaN,NaN
7401,-117,-651,-388,0,0,0,0,0,0,0,NaN,NaN,0,NaN,NaN,0,NaN,NaN
7456,-25,-777,-209,0,0,0,0,0,0,0,NaN,NaN,0,NaN,NaN,0,NaN,NaN
7510,56,-812,-125,0,0,0,0,0,0,0,NaN,NaN,0,NaN,NaN,0,NaN,NaN
7563,183,-817,-112,0,0,0,0,0,0,0,NaN,NaN,0,NaN,NaN,0,NaN,NaN
7616,329,-781,-122,0,0,0,0,0,0,0,NaN,NaN,0,NaN,NaN,0,NaN,NaN
7669,320,-784,-88,0,0,0,0,0,0,0,NaN,NaN,0,NaN,NaN,0,NaN,NaN
7720,338,-774,22,0,0,0,0,0,0,0,NaN,NaN,0,NaN,NaN,0,NaN,NaN
7772,308,-736,194,0,0,0,0,0,0,0,NaN,NaN,0,NaN,NaN,0,NaN,NaN
7825,244,-675,326,0,0,0,0,0,0,0,NaN,NaN,0,NaN,NaN,0,NaN,NaN
7878,216,-622,384,0,0,0,0,0,0,0,NaN,NaN,0,NaN,NaN,0,NaN,NaN
7929,133,-568,441,0,0,0,0,0,0,0,NaN,NaN,0,NaN,NaN,0,NaN,NaN
7983,49,-450,511,0,0,0,0,0,0,0,NaN,NaN,0,NaN,NaN,0,NaN,NaN
8034,-20,-319,549,0,0,0,0,0,0,0,NaN,NaN,0,NaN,NaN,0,NaN,NaN
8085,22,-307,556,0,0,0,0,0,0,0,NaN,NaN,0,NaN,NaN,0,NaN,NaN
8136,90,-260,561,0,0,0,0,0,0,0,NaN,NaN,0,NaN,NaN,0,NaN,NaN
8187,143,-206,562,0,0,0,0,0,0,0,NaN,NaN,0,NaN,NaN,0,NaN,NaN
8294,68,-119,567,0,0,0,0,0,0,0,NaN,NaN,0,NaN,NaN,0,NaN,NaN
8345,79,40,524,0,0,0,0,0,0,0,NaN,NaN,0,NaN,NaN,0,NaN,NaN
8394,181,167,449,0,0,0,0,0,0,0,NaN,NaN,0,NaN,NaN,0,NaN,NaN
8445,258,264,350,0,0,0,0,0,0,0,NaN,NaN,0,NaN,NaN,0,NaN,NaN
8497,321,396,65,0,0,0,0,0,0,0,NaN,NaN,0,NaN,NaN,0,NaN,NaN
8546,281,402,-203,0,0,0,0,0,0,0,NaN,NaN,0,NaN,NaN,0,NaN,NaN
8599,182,363,-340,0,0,0,0,0,0,0,NaN,NaN,0,NaN,NaN,0,NaN,NaN
8650,96,322,-407,0,0,0,0,0,0,0,NaN,NaN,0,NaN,NaN,0,NaN,NaN
8701,6,230,-500,0,0,0,0,0,0,0,NaN,NaN,0,NaN,NaN,0,NaN,NaN
8753,-64,165,-520,0,0,0,0,0,0,0,NaN,NaN,0,NaN,NaN,0,NaN,NaN
8804,-99,73,-558,0,0,0,0,0,0,0,NaN,NaN,0,NaN,NaN,0,NaN,NaN
8855,-110,-34,-593,0,0,0,0,0,0,0,NaN,NaN,0,NaN,NaN,0,NaN,NaN
8908,-214,-90,-555,0,0,0,0,0,0,0,NaN,NaN,0,NaN,NaN,0,NaN,NaN
8962,-318,-46,-466,0,0,0,0,0,0,0,NaN,NaN,0,NaN,NaN,0,NaN,NaN
9017,-327,-117,-470,0,0,0,0,0,0,0,NaN,NaN,0,NaN,NaN,0,NaN,NaN
9070,-317,-166,-480,0,0,0,0,0,0,0,NaN,NaN,0,NaN,NaN,0,NaN,NaN
9125,-340,-219,-458,0,0,0,0,0,0,0,NaN,NaN,0,NaN,NaN,0,NaN,NaN
9179,-386,-292,-399,0,0,0,0,0,0,0,NaN,NaN,0,NaN,NaN,0,NaN,NaN
9234,-448,-400,-237,0,0,0,0,0,0,0,NaN,NaN,0,NaN,NaN,0,NaN,NaN
9289,-449,-455,137,0,0,0,0,0,0,0,NaN,NaN,0,NaN,NaN,0,NaN,NaN
9342,-328,-408,367,0,0,0,0,0,0,0,NaN,NaN,0,NaN,NaN,0,NaN,NaN
9396,-220,-367,469,0,0,0,0,0,0,0,NaN,NaN,0,NaN,NaN,0,NaN,NaN
9449,-84,-306,538,0,0,0,0,0,0,0,NaN,NaN,0,NaN,NaN,0,NaN,NaN
9500,7,-254,560,0,0,0,0,0,0,0,NaN,NaN,0,NaN,NaN,0,NaN,NaN
9551,89,-174,563,0,0,0,0,0,0,0,NaN,NaN,0,NaN,NaN,0,NaN,NaN
9603,151,-149,558,0,0,0,0,0,0,0,NaN,NaN,0,NaN,NaN,0,NaN,NaN
9654,170,-161,560,0,0,0,0,0,0,0,NaN,NaN,0,NaN,NaN,0,NaN,NaN
9707,230,-93,542,0,0,0,0,0,0,0,NaN,NaN,0,NaN,NaN,0,NaN,NaN
9758,354,-108,498,0,0,0,0,0,0,0,NaN,NaN,0,NaN,NaN,0,NaN,NaN
9811,539,-146,374,0,0,0,0,0,0,0,NaN,NaN,0,NaN,NaN,0,NaN,NaN
9863,609,-127,300,0,0,0,0,0,0,0,NaN,NaN,0,NaN,NaN,0,NaN,NaN
9916,680,-73,171,0,0,0,0,0,0,0,NaN,NaN,0,NaN,NaN,0,NaN,NaN
9967,693,53,-52,0,0,0,0,0,0,0,NaN,NaN,0,NaN,NaN,0,NaN,NaN
10016,629,117,-237,0,0,0,0,0,0,0,NaN,NaN,0,NaN,NaN,0,NaN,NaN
10070,619,123,-255,0,0,0,0,0,0,0,NaN,NaN,0,NaN,NaN,0,NaN,NaN
10125,629,90,-301,0,0,0,0,0,0,0,NaN,NaN,0,NaN,NaN,0,NaN,NaN
10176,638,28,-341,0,0,0,0,0,0,0,NaN,NaN,0,NaN,NaN,0,NaN,NaN
10229,662,-76,-351,0,0,0,0,0,0,0,NaN,NaN,0,NaN,NaN,0,NaN,NaN
10283,639,-122,-397,0,0,0,0,0,0,0,NaN,NaN,0,NaN,NaN,0,NaN,NaN
10338,610,-292,-432,0,0,0,0,0,0,0,NaN,NaN,0,NaN,NaN,0,NaN,NaN
10391,607,-391,-406,0,0,0,0,0,0,0,NaN,NaN,0,NaN,NaN,0,NaN,NaN
10446,508,-559,-385,0,0,0,0,0,0,0,NaN,NaN,0,NaN,NaN,0,NaN,NaN
10500,424,-633,-371,0,0,0,0,0,0,0,NaN,NaN,0,NaN,NaN,0,NaN,NaN
10555,222,-729,-337,0,0,0,0,0,0,0,NaN,NaN,0,NaN,NaN,0,NaN,NaN
10610,42,-735,-335,0,0,0,0,0,0,0,NaN,NaN,0,NaN,NaN,0,NaN,NaN
10663,-69,-739,-279,0,0,0,0,0,0,0,NaN,NaN,0,NaN,NaN,0,NaN,NaN
10717,-122,-735,-246,0,0,0,0,0,0,0,NaN,NaN,0,NaN,NaN,0,NaN,NaN
10774,-119,-711,-300,0,0,0,0,0,0,0,NaN,NaN,0,NaN,NaN,0,NaN,NaN
10829,-131,-702,-300,0,0,0,0,0,0,0,NaN,NaN,0,NaN,NaN,0,NaN,NaN
10885,-95,-687,-349,0,0,0,0,0,0,0,NaN,NaN,0,NaN,NaN,0,NaN,NaN
10940,2,-651,-444,0,0,0,0,0,0,0,NaN,NaN,0,NaN,NaN,0,NaN,NaN
10991,38,-477,-587,0,0,0,0,0,0,0,NaN,NaN,0,NaN,NaN,0,NaN,NaN
11044,14,-466,-585,0,0,0,0,0,0,0,NaN,NaN,0,NaN,NaN,0,NaN,NaN
11098,-41,-508,-544,0,0,0,0,0,0,0,NaN,NaN,0,NaN,NaN,0,NaN,NaN
11153,-75,-524,-519,0,0,0,0,0,0,0,NaN,NaN,0,NaN,NaN,0,NaN,NaN
11208,-185,-556,-440,0,0,0,0,0,0,0,NaN,NaN,0,NaN,NaN,0,NaN,NaN
11264,-255,-560,-378,0,0,0,0,0,0,0,NaN,NaN,0,NaN,NaN,0,NaN,NaN
11319,-274,-583,-334,0,0,0,0,0,0,0,NaN,NaN,0,NaN,NaN,0,NaN,NaN
11374,-389,-462,-305,0,0,0,0,0,0,0,NaN,NaN,0,NaN,NaN,0,NaN,NaN
11429,-416,-260,-370,0,0,0,0,0,0,0,NaN,NaN,0,NaN,NaN,0,NaN,NaN
11485,-339,10,-427,0,0,0,0,0,0,0,NaN,NaN,0,NaN,NaN,0,NaN,NaN
11538,-153,220,-442,0,0,0,0,0,0,0,NaN,NaN,0,NaN,NaN,0,NaN,NaN
11593,37,301,-434,0,0,0,0,0,0,0,NaN,NaN,0,NaN,NaN,0,NaN,NaN
11646,110,360,-354,0,0,0,0,0,0,0,NaN,NaN,0,NaN,NaN,0,NaN,NaN
11700,207,389,-276,0,0,0,0,0,0,0,NaN,NaN,0,NaN,NaN,0,NaN,NaN
11753,235,390,-266,0,0,0,0,0,0,0,NaN,NaN,0,NaN,NaN,0,NaN,NaN
11806,163,375,-335,0,0,0,0,0,0,0,NaN,NaN,0,NaN,NaN,0,NaN,NaN
11859,172,339,-389,0,0,0,0,0,0,0,NaN,NaN,0,NaN,NaN,0,NaN,NaN
11913,237,310,-411,0,0,0,0,0,0,0,NaN,NaN,0,NaN,NaN,0,NaN,NaN
12021,367,218,-451,0,0,0,0,0,0,0,NaN,NaN,0,NaN,NaN,0,NaN,NaN
12075,510,75,-460,0,0,0,0,0,0,0,NaN,NaN,0,NaN,NaN,0,NaN,NaN
12126,530,60,-455,0,0,0,0,0,0,0,NaN,NaN,0,NaN,NaN,0,NaN,NaN
12179,554,25,-445,0,0,0,0,0,0,0,NaN,NaN,0,NaN,NaN,0,NaN,NaN
12232,615,-14,-389,0,0,0,0,0,0,0,NaN,NaN,0,NaN,NaN,0,NaN,NaN
12285,692,-52,-271,0,0,0,0,0,0,0,NaN,NaN,0,NaN,NaN,0,NaN,NaN
12339,748,-205,-106,0,0,0,0,0,0,0,NaN,NaN,0,NaN,NaN,0,NaN,NaN
12392,697,-387,86,0,0,0,0,0,0,0,NaN,NaN,0,NaN,NaN,0,NaN,NaN
12445,588,-431,267,0,0,0,0,0,0,0,NaN,NaN,0,NaN,NaN,0,NaN,NaN
12498,415,-491,393,0,0,0,0,0,0,0,NaN,NaN,0,NaN,NaN,0,NaN,NaN
12552,281,-469,470,0,0,0,0,0,0,0,NaN,NaN,0,NaN,NaN,0,NaN,NaN
12605,118,-476,499,0,0,0,0,0,0,0,NaN,NaN,0,NaN,NaN,0,NaN,NaN
12658,121,-436,514,0,0,0,0,0,0,0,NaN,NaN,0,NaN,NaN,0,NaN,NaN
12713,141,-329,544,0,0,0,0,0,0,0,NaN,NaN,0,NaN,NaN,0,NaN,NaN
12767,142,-318,545,0,0,0,0,0,0,0,NaN,NaN,0,NaN,NaN,0,NaN,NaN
12820,157,-435,513,0,0,0,0,0,0,0,NaN,NaN,0,NaN,NaN,0,NaN,NaN
12873,86,-489,493,0,0,0,0,0,0,0,NaN,NaN,0,NaN,NaN,0,NaN,NaN
12926,41,-466,501,0,0,0,0,0,0,0,NaN,NaN,0,NaN,NaN,0,NaN,NaN
12978,36,-486,487,0,0,0,0,0,0,0,NaN,NaN,0,NaN,NaN,0,NaN,NaN
13031,25,-511,476,0,0,0,0,0,0,0,NaN,NaN,0,NaN,NaN,0,NaN,NaN
13082,32,-545,457,0,0,0,0,0,0,0,NaN,NaN,0,NaN,NaN,0,NaN,NaN
13135,-15,-537,454,0,0,0,0,0,0,0,NaN,NaN,0,NaN,NaN,0,NaN,NaN
13189,-38,-572,417,0,0,0,0,0,0,0,NaN,NaN,0,NaN,NaN,0,NaN,NaN
13242,-73,-594,389,0,0,0,0,0,0,0,NaN,NaN,0,NaN,NaN,0,NaN,NaN
13295,-141,-519,427,0,0,0,0,0,0,0,NaN,NaN,0,NaN,NaN,0,NaN,NaN
13350,-258,-366,442,0,0,0,0,0,0,0,NaN,NaN,0,NaN,NaN,0,NaN,NaN
13404,-300,-118,446,0,0,0,0,0,0,0,NaN,NaN,0,NaN,NaN,0,NaN,NaN
13459,-320,10,397,0,0,0,0,0,0,0,NaN,NaN,0,NaN,NaN,0,NaN,NaN
13512,-303,157,321,0,0,0,0,0,0,0,NaN,NaN,0,NaN,NaN,0,NaN,NaN
13565,-273,299,165,0,0,0,0,0,0,0,NaN,NaN,0,NaN,NaN,0,NaN,NaN
13619,-256,345,34,0,0,0,0,0,0,0,NaN,NaN,0,NaN,NaN,0,NaN,NaN
13672,-235,357,-87,0,0,0,0,0,0,0,NaN,NaN,0,NaN,NaN,0,NaN,NaN
13725,-90,354,-298,0,0,0,0,0,0,0,NaN,NaN,0,NaN,NaN,0,NaN,NaN
13778,-10,313,-402,0,0,0,0,0,0,0,NaN,NaN,0,NaN,NaN,0,NaN,NaN
13832,54,279,-460,0,0,0,0,0,0,0,NaN,NaN,0,NaN,NaN,0,NaN,NaN
13991,140,96,-587,0,0,0,0,0,0,0,NaN,NaN,0,NaN,NaN,0,NaN,NaN
14043,167,13,-621,0,0,0,0,0,0,0,NaN,NaN,0,NaN,NaN,0,NaN,NaN
14096,157,-100,-650,0,0,0,0,0,0,0,NaN,NaN,0,NaN,NaN,0,NaN,NaN
14151,94,-189,-652,0,0,0,0,0,0,0,NaN,NaN,0,NaN,NaN,0,NaN,NaN
14204,52,-303,-634,0,0,0,0,0,0,0,NaN,NaN,0,NaN,NaN,0,NaN,NaN
14258,-5,-357,-610,0,0,0,0,0,0,0,NaN,NaN,0,NaN,NaN,0,NaN,NaN
14311,7,-423,-594,0,0,0,0,0,0,0,NaN,NaN,0,NaN,NaN,0,NaN,NaN
14362,31,-470,-580,0,0,0,0,0,0,0,NaN,NaN,0,NaN,NaN,0,NaN,NaN
14415,37,-651,-444,0,0,0,0,0,0,0,NaN,NaN,0,NaN,NaN,0,NaN,NaN
14471,20,-682,-399,0,0,0,0,0,0,0,NaN,NaN,0,NaN,NaN,0,NaN,NaN
14524,42,-732,-329,0,0,0,0,0,0,0,NaN,NaN,0,NaN,NaN,0,NaN,NaN
14577,42,-786,-215,0,0,0,0,0,0,0,NaN,NaN,0,NaN,NaN,0,NaN,NaN
14630,71,-816,-86,0,0,0,0,0,0,0,NaN,NaN,0,NaN,NaN,0,NaN,NaN
14682,116,-816,-20,0,0,0,0,0,0,0,NaN,NaN,0,NaN,NaN,0,NaN,NaN
14735,112,-803,65,0,0,0,0,0,0,0,NaN,NaN,0,NaN,NaN,0,NaN,NaN
14788,57,-791,113,0,0,0,0,0,0,0,NaN,NaN,0,NaN,NaN,0,NaN,NaN
14841,37,-778,163,0,0,0,0,0,0,0,NaN,NaN,0,NaN,NaN,0,NaN,NaN
14893,20,-755,218,0,0,0,0,0,0,0,NaN,NaN,0,NaN,NaN,0,NaN,NaN
14946,-5,-622,389,0,0,0,0,0,0,0,NaN,NaN,0,NaN,NaN,0,NaN,NaN
14997,62,-575,433,0,0,0,0,0,0,0,NaN,NaN,0,NaN,NaN,0,NaN,NaN
15050,194,-478,486,0,0,0,0,0,0,0,NaN,NaN,0,NaN,NaN,0,NaN,NaN
15104,281,-346,516,0,0,0,0,0,0,0,NaN,NaN,0,NaN,NaN,0,NaN,NaN
15157,352,-232,505,0,0,0,0,0,0,0,NaN,NaN,0,NaN,NaN,0,NaN,NaN
15210,461,-118,436,0,0,0,0,0,0,0,NaN,NaN,0,NaN,NaN,0,NaN,NaN
15263,568,-77,332,0,0,0,0,0,0,0,NaN,NaN,0,NaN,NaN,0,NaN,NaN
15316,612,-69,278,0,0,0,0,0,0,0,NaN,NaN,0,NaN,NaN,0,NaN,NaN
15370,673,-65,180,0,0,0,0,0,0,0,NaN,NaN,0,NaN,NaN,0,NaN,NaN
15421,706,-74,85,0,0,0,0,0,0,0,NaN,NaN,0,NaN,NaN,0,NaN,NaN
15472,730,-115,-23,0,0,0,0,0,0,0,NaN,NaN,0,NaN,NaN,0,NaN,NaN
15525,738,-188,-141,0,0,0,0,0,0,0,NaN,NaN,0,NaN,NaN,0,NaN,NaN
15581,708,-280,-267,0,0,0,0,0,0,0,NaN,NaN,0,NaN,NaN,0,NaN,NaN
15636,628,-307,-410,0,0,0,0,0,0,0,NaN,NaN,0,NaN,NaN,0,NaN,NaN
15689,508,-316,-525,0,0,0,0,0,0,0,NaN,NaN,0,NaN,NaN,0,NaN,NaN
15745,419,-311,-585,0,0,0,0,0,0,0,NaN,NaN,0,NaN,NaN,0,NaN,NaN
15800,324,-345,-606,0,0,0,0,0,0,0,NaN,NaN,0,NaN,NaN,0,NaN,NaN
15853,266,-373,-616,0,0,0,0,0,0,0,NaN,NaN,0,NaN,NaN,0,NaN,NaN
15908,190,-348,-635,0,0,0,0,0,0,0,NaN,NaN,0,NaN,NaN,0,NaN,NaN
15962,238,-340,-630,0,0,0,0,0,0,0,NaN,NaN,0,NaN,NaN,0,NaN,NaN
16017,319,-295,-616,0,0,0,0,0,0,0,NaN,NaN,0,NaN,NaN,0,NaN,NaN
16072,346,-267,-614,0,0,0,0,0,0,0,NaN,NaN,0,NaN,NaN,0,NaN,NaN
16125,295,-167,-638,0,0,0,0,0,0,0,NaN,NaN,0,NaN,NaN,0,NaN,NaN
16181,271,-114,-645,0,0,0,0,0,0,0,NaN,NaN,0,NaN,NaN,0,NaN,NaN
16236,147,-146,-656,0,0,0,0,0,0,0,NaN,NaN,0,NaN,NaN,0,NaN,NaN
16289,66,-69,-640,0,0,0,0,0,0,0,NaN,NaN,0,NaN,NaN,0,NaN,NaN
16343,2,45,-600,0,0,0,0,0,0,0,NaN,NaN,0,NaN,NaN,0,NaN,NaN
16392,-82,186,-503,0,0,0,0,0,0,0,NaN,NaN,0,NaN,NaN,0,NaN,NaN
16445,-188,246,-389,0,0,0,0,0,0,0,NaN,NaN,0,NaN,NaN,0,NaN,NaN
16500,-287,261,-249,0,0,0,0,0,0,0,NaN,NaN,0,NaN,NaN,0,NaN,NaN
16556,-392,184,-159,0,0,0,0,0,0,0,NaN,NaN,0,NaN,NaN,0,NaN,NaN
16609,-460,90,-112,0,0,0,0,0,0,0,NaN,NaN,0,NaN,NaN,0,NaN,NaN
16664,-492,38,-32,0,0,0,0,0,0,0,NaN,NaN,0,NaN,NaN,0,NaN,NaN
16715,-496,29,-22,0,0,0,0,0,0,0,NaN,NaN,0,NaN,NaN,0,NaN,NaN
16769,-528,-184,-39,0,0,0,0,0,0,0,NaN,NaN,0,NaN,NaN,0,NaN,NaN
16822,-458,-463,-5,0,0,0,0,0,0,0,NaN,NaN,0,NaN,NaN,0,NaN,NaN
16875,-463,-460,-15,0,0,0,0,0,0,0,NaN,NaN,0,NaN,NaN,0,NaN,NaN
16930,-452,-477,-98,0,0,0,0,0,0,0,NaN,NaN,0,NaN,NaN,0,NaN,NaN
16984,-385,-566,-146,0,0,0,0,0,0,0,NaN,NaN,0,NaN,NaN,0,NaN,NaN
17041,-306,-647,-139,0,0,0,0,0,0,0,NaN,NaN,0,NaN,NaN,0,NaN,NaN
17096,-160,-719,-221,0,0,0,0,0,0,0,NaN,NaN,0,NaN,NaN,0,NaN,NaN
17152,6,-669,-417,0,0,0,0,0,0,0,NaN,NaN,0,NaN,NaN,0,NaN,NaN
17205,27,-624,-474,0,0,0,0,0,0,0,NaN,NaN,0,NaN,NaN,0,NaN,NaN
17258,76,-656,-452,0,0,0,0,0,0,0,NaN,NaN,0,NaN,NaN,0,NaN,NaN
17311,223,-635,-469,0,0,0,0,0,0,0,NaN,NaN,0,NaN,NaN,0,NaN,NaN
17364,334,-593,-470,0,0,0,0,0,0,0,NaN,NaN,0,NaN,NaN,0,NaN,NaN
17420,391,-508,-507,0,0,0,0,0,0,0,NaN,NaN,0,NaN,NaN,0,NaN,NaN
17475,459,-363,-540,0,0,0,0,0,0,0,NaN,NaN,0,NaN,NaN,0,NaN,NaN
17528,482,-253,-550,0,0,0,0,0,0,0,NaN,NaN,0,NaN,NaN,0,NaN,NaN
17584,486,-125,-554,0,0,0,0,0,0,0,NaN,NaN,0,NaN,NaN,0,NaN,NaN
17639,494,-5,-513,0,0,0,0,0,0,0,NaN,NaN,0,NaN,NaN,0,NaN,NaN
17690,552,53,-432,0,0,0,0,0,0,0,NaN,NaN,0,NaN,NaN,0,NaN,NaN
17743,595,137,-303,0,0,0,0,0,0,0,NaN,NaN,0,NaN,NaN,0,NaN,NaN
17797,584,212,-182,0,0,0,0,0,0,0,NaN,NaN,0,NaN,NaN,0,NaN,NaN
17850,581,214,30,0,0,0,0,0,0,0,NaN,NaN,0,NaN,NaN,0,NaN,NaN
17901,500,123,300,0,0,0,0,0,0,0,NaN,NaN,0,NaN,NaN,0,NaN,NaN
17954,460,54,381,0,0,0,0,0,0,0,NaN,NaN,0,NaN,NaN,0,NaN,NaN
18006,387,-55,472,0,0,0,0,0,0,0,NaN,NaN,0,NaN,NaN,0,NaN,NaN
18057,371,-184,498,0,0,0,0,0,0,0,NaN,NaN,0,NaN,NaN,0,NaN,NaN
18112,355,-268,498,0,0,0,0,0,0,0,NaN,NaN,0,NaN,NaN,0,NaN,NaN
18165,311,-335,505,0,0,0,0,0,0,0,NaN,NaN,0,NaN,NaN,0,NaN,NaN
18219,153,-409,522,0,0,0,0,0,0,0,NaN,NaN,0,NaN,NaN,0,NaN,NaN
18272,-13,-476,490,0,0,0,0,0,0,0,NaN,NaN,0,NaN,NaN,0,NaN,NaN
18325,-209,-525,386,0,0,0,0,0,0,0,NaN,NaN,0,NaN,NaN,0,NaN,NaN
18380,-429,-434,202,0,0,0,0,0,0,0,NaN,NaN,0,NaN,NaN,0,NaN,NaN
18434,-469,-445,22,0,0,0,0,0,0,0,NaN,NaN,0,NaN,NaN,0,NaN,NaN
18487,-454,-479,-29,0,0,0,0,0,0,0,NaN,NaN,0,NaN,NaN,0,NaN,NaN
18542,-477,-439,-30,0,0,0,0,0,0,0,NaN,NaN,0,NaN,NaN,0,NaN,NaN
18597,-475,-450,-91,0,0,0,0,0,0,0,NaN,NaN,0,NaN,NaN,0,NaN,NaN
18651,-428,-505,-166,0,0,0,0,0,0,0,NaN,NaN,0,NaN,NaN,0,NaN,NaN
18706,-375,-555,-197,0,0,0,0,0,0,0,NaN,NaN,0,NaN,NaN,0,NaN,NaN
18763,-393,-574,-94,0,0,0,0,0,0,0,NaN,NaN,0,NaN,NaN,0,NaN,NaN
18817,-360,-615,-79,0,0,0,0,0,0,0,NaN,NaN,0,NaN,NaN,0,NaN,NaN
18872,-362,-616,-40,0,0,0,0,0,0,0,NaN,NaN,0,NaN,NaN,0,NaN,NaN
18925,-291,-662,107,0,0,0,0,0,0,0,NaN,NaN,0,NaN,NaN,0,NaN,NaN
18980,-264,-608,255,0,0,0,0,0,0,0,NaN,NaN,0,NaN,NaN,0,NaN,NaN
19036,-190,-627,298,0,0,0,0,0,0,0,NaN,NaN,0,NaN,NaN,0,NaN,NaN
19089,-175,-527,410,0,0,0,0,0,0,0,NaN,NaN,0,NaN,NaN,0,NaN,NaN
19144,-192,-536,397,0,0,0,0,0,0,0,NaN,NaN,0,NaN,NaN,0,NaN,NaN
19200,-230,-474,411,0,0,0,0,0,0,0,NaN,NaN,0,NaN,NaN,0,NaN,NaN
19253,-205,-389,466,0,0,0,0,0,0,0,NaN,NaN,0,NaN,NaN,0,NaN,NaN
19308,-151,-267,522,0,0,0,0,0,0,0,NaN,NaN,0,NaN,NaN,0,NaN,NaN
19363,-245,-216,485,0,0,0,0,0,0,0,NaN,NaN,0,NaN,NaN,0,NaN,NaN
19417,-241,-170,490,0,0,0,0,0,0,0,NaN,NaN,0,NaN,NaN,0,NaN,NaN
19472,-211,-48,484,0,0,0,0,0,0,0,NaN,NaN,0,NaN,NaN,0,NaN,NaN
19525,-241,190,337,0,0,0,0,0,0,0,NaN,NaN,0,NaN,NaN,0,NaN,NaN
19578,-296,277,155,0,0,0,0,0,0,0,NaN,NaN,0,NaN,NaN,0,NaN,NaN
19632,-274,323,74,0,0,0,0,0,0,0,NaN,NaN,0,NaN,NaN,0,NaN,NaN
19685,-208,378,-57,0,0,0,0,0,0,0,NaN,NaN,0,NaN,NaN,0,NaN,NaN
19738,-198,352,-203,0,0,0,0,0,0,0,NaN,NaN,0,NaN,NaN,0,NaN,NaN
19793,-216,297,-297,0,0,0,0,0,0,0,NaN,NaN,0,NaN,NaN,0,NaN,NaN
19847,-121,260,-418,0,0,0,0,0,0,0,NaN,NaN,0,NaN,NaN,0,NaN,NaN
19902,-75,241,-455,0,0,0,0,0,0,0,NaN,NaN,0,NaN,NaN,0,NaN,NaN
19955,-84,266,-432,0,0,0,0,0,0,0,NaN,NaN,0,NaN,NaN,0,NaN,NaN
20008,10,280,-449,0,0,0,0,0,0,0,NaN,NaN,0,NaN,NaN,0,NaN,NaN
20062,63,276,-459,0,0,0,0,0,0,0,NaN,NaN,0,NaN,NaN,0,NaN,NaN
20113,18,318,-402,0,0,0,0,0,0,0,NaN,NaN,0,NaN,NaN,0,NaN,NaN
20166,68,230,-507,0,0,0,0,0,0,0,NaN,NaN,0,NaN,NaN,0,NaN,NaN
20217,301,188,-509,0,0,0,0,0,0,0,NaN,NaN,0,NaN,NaN,0,NaN,NaN
20273,470,126,-458,0,0,0,0,0,0,0,NaN,NaN,0,NaN,NaN,0,NaN,NaN
20326,574,80,-388,0,0,0,0,0,0,0,NaN,NaN,0,NaN,NaN,0,NaN,NaN
20377,651,43,-294,0,0,0,0,0,0,0,NaN,NaN,0,NaN,NaN,0,NaN,NaN
20430,708,20,-131,0,0,0,0,0,0,0,NaN,NaN,0,NaN,NaN,0,NaN,NaN
20482,700,-52,118,0,0,0,0,0,0,0,NaN,NaN,0,NaN,NaN,0,NaN,NaN
20535,591,-155,332,0,0,0,0,0,0,0,NaN,NaN,0,NaN,NaN,0,NaN,NaN
20588,438,-249,460,0,0,0,0,0,0,0,NaN,NaN,0,NaN,NaN,0,NaN,NaN
20641,314,-260,519,0,0,0,0,0,0,0,NaN,NaN,0,NaN,NaN,0,NaN,NaN
20695,184,-260,555,0,0,0,0,0,0,0,NaN,NaN,0,NaN,NaN,0,NaN,NaN
20750,124,-294,556,0,0,0,0,0,0,0,NaN,NaN,0,NaN,NaN,0,NaN,NaN
20803,81,-263,557,0,0,0,0,0,0,0,NaN,NaN,0,NaN,NaN,0,NaN,NaN
20854,26,-234,560,0,0,0,0,0,0,0,NaN,NaN,0,NaN,NaN,0,NaN,NaN
20908,17,-197,562,0,0,0,0,0,0,0,NaN,NaN,0,NaN,NaN,0,NaN,NaN
20959,-80,-127,545,0,0,0,0,0,0,0,NaN,NaN,0,NaN,NaN,0,NaN,NaN
21014,-135,-86,522,0,0,0,0,0,0,0,NaN,NaN,0,NaN,NaN,0,NaN,NaN
21067,-252,-52,456,0,0,0,0,0,0,0,NaN,NaN,0,NaN,NaN,0,NaN,NaN
21121,-368,18,336,0,0,0,0,0,0,0,NaN,NaN,0,NaN,NaN,0,NaN,NaN
21172,-458,-44,241,0,0,0,0,0,0,0,NaN,NaN,0,NaN,NaN,0,NaN,NaN
21225,-537,-209,26,0,0,0,0,0,0,0,NaN,NaN,0,NaN,NaN,0,NaN,NaN
21278,-475,-328,-233,0,0,0,0,0,0,0,NaN,NaN,0,NaN,NaN,0,NaN,NaN
21336,-338,-381,-416,0,0,0,0,0,0,0,NaN,NaN,0,NaN,NaN,0,NaN,NaN
21446,-149,-327,-579,0,0,0,0,0,0,0,NaN,NaN,0,NaN,NaN,0,NaN,NaN
21501,22,-271,-641,0,0,0,0,0,0,0,NaN,NaN,0,NaN,NaN,0,NaN,NaN
21555,57,-214,-649,0,0,0,0,0,0,0,NaN,NaN,0,NaN,NaN,0,NaN,NaN
21608,23,-272,-637,0,0,0,0,0,0,0,NaN,NaN,0,NaN,NaN,0,NaN,NaN
21661,128,-258,-652,0,0,0,0,0,0,0,NaN,NaN,0,NaN,NaN,0,NaN,NaN
21716,270,-228,-646,0,0,0,0,0,0,0,NaN,NaN,0,NaN,NaN,0,NaN,NaN
21772,383,-111,-607,0,0,0,0,0,0,0,NaN,NaN,0,NaN,NaN,0,NaN,NaN
21825,433,-44,-570,0,0,0,0,0,0,0,NaN,NaN,0,NaN,NaN,0,NaN,NaN
21878,483,63,-488,0,0,0,0,0,0,0,NaN,NaN,0,NaN,NaN,0,NaN,NaN
21932,596,-5,-413,0,0,0,0,0,0,0,NaN,NaN,0,NaN,NaN,0,NaN,NaN
21985,719,-72,-216,0,0,0,0,0,0,0,NaN,NaN,0,NaN,NaN,0,NaN,NaN
22038,713,-18,-169,0,0,0,0,0,0,0,NaN,NaN,0,NaN,NaN,0,NaN,NaN
22091,681,79,-92,0,0,0,0,0,0,0,NaN,NaN,0,NaN,NaN,0,NaN,NaN
22142,674,78,1,0,0,0,0,0,0,0,NaN,NaN,0,NaN,NaN,0,NaN,NaN
22192,672,76,37,0,0,0,0,0,0,0,NaN,NaN,0,NaN,NaN,0,NaN,NaN
22241,603,115,185,0,0,0,0,0,0,0,NaN,NaN,0,NaN,NaN,0,NaN,NaN
22294,473,140,324,0,0,0,0,0,0,0,NaN,NaN,0,NaN,NaN,0,NaN,NaN
22345,386,144,381,0,0,0,0,0,0,0,NaN,NaN,0,NaN,NaN,0,NaN,NaN
22398,155,64,510,0,0,0,0,0,0,0,NaN,NaN,0,NaN,NaN,0,NaN,NaN
22450,111,68,515,0,0,0,0,0,0,0,NaN,NaN,0,NaN,NaN,0,NaN,NaN
22501,59,-31,547,0,0,0,0,0,0,0,NaN,NaN,0,NaN,NaN,0,NaN,NaN
22552,-119,-141,530,0,0,0,0,0,0,0,NaN,NaN,0,NaN,NaN,0,NaN,NaN
22607,-312,-328,406,0,0,0,0,0,0,0,NaN,NaN,0,NaN,NaN,0,NaN,NaN
22663,-452,-457,105,0,0,0,0,0,0,0,NaN,NaN,0,NaN,NaN,0,NaN,NaN
22716,-424,-461,-236,0,0,0,0,0,0,0,NaN,NaN,0,NaN,NaN,0,NaN,NaN
22771,-310,-434,-421,0,0,0,0,0,0,0,NaN,NaN,0,NaN,NaN,0,NaN,NaN
22829,-169,-383,-540,0,0,0,0,0,0,0,NaN,NaN,0,NaN,NaN,0,NaN,NaN
22884,-6,-342,-618,0,0,0,0,0,0,0,NaN,NaN,0,NaN,NaN,0,NaN,NaN
22937,41,-316,-633,0,0,0,0,0,0,0,NaN,NaN,0,NaN,NaN,0,NaN,NaN
22990,67,-237,-653,0,0,0,0,0,0,0,NaN,NaN,0,NaN,NaN,0,NaN,NaN
23044,258,-71,-637,0,0,0,0,0,0,0,NaN,NaN,0,NaN,NaN,0,NaN,NaN
23097,472,-74,-551,0,0,0,0,0,0,0,NaN,NaN,0,NaN,NaN,0,NaN,NaN
23150,601,-79,-439,0,0,0,0,0,0,0,NaN,NaN,0,NaN,NaN,0,NaN,NaN
23203,621,62,-334,0,0,0,0,0,0,0,NaN,NaN,0,NaN,NaN,0,NaN,NaN
23257,673,49,-240,0,0,0,0,0,0,0,NaN,NaN,0,NaN,NaN,0,NaN,NaN
23308,703,-15,-212,0,0,0,0,0,0,0,NaN,NaN,0,NaN,NaN,0,NaN,NaN
23363,735,-112,-139,0,0,0,0,0,0,0,NaN,NaN,0,NaN,NaN,0,NaN,NaN
23416,740,-260,-51,0,0,0,0,0,0,0,NaN,NaN,0,NaN,NaN,0,NaN,NaN
23470,694,-445,-31,0,0,0,0,0,0,0,NaN,NaN,0,NaN,NaN,0,NaN,NaN
23523,586,-615,-79,0,0,0,0,0,0,0,NaN,NaN,0,NaN,NaN,0,NaN,NaN
23576,442,-722,-156,0,0,0,0,0,0,0,NaN,NaN,0,NaN,NaN,0,NaN,NaN
23631,280,-781,-178,0,0,0,0,0,0,0,NaN,NaN,0,NaN,NaN,0,NaN,NaN
23687,111,-780,-237,0,0,0,0,0,0,0,NaN,NaN,0,NaN,NaN,0,NaN,NaN
23740,27,-761,-276,0,0,0,0,0,0,0,NaN,NaN,0,NaN,NaN,0,NaN,NaN
23793,36,-752,-306,0,0,0,0,0,0,0,NaN,NaN,0,NaN,NaN,0,NaN,NaN
23848,105,-768,-285,0,0,0,0,0,0,0,NaN,NaN,0,NaN,NaN,0,NaN,NaN
23902,193,-776,-247,0,0,0,0,0,0,0,NaN,NaN,0,NaN,NaN,0,NaN,NaN
23957,212,-778,-234,0,0,0,0,0,0,0,NaN,NaN,0,NaN,NaN,0,NaN,NaN
24012,192,-776,-251,0,0,0,0,0,0,0,NaN,NaN,0,NaN,NaN,0,NaN,NaN
24066,165,-781,-253,0,0,0,0,0,0,0,NaN,NaN,0,NaN,NaN,0,NaN,NaN
24121,122,-801,-185,0,0,0,0,0,0,0,NaN,NaN,0,NaN,NaN,0,NaN,NaN
24174,80,-812,-66,0,0,0,0,0,0,0,NaN,NaN,0,NaN,NaN,0,NaN,NaN
24227,80,-806,49,0,0,0,0,0,0,0,NaN,NaN,0,NaN,NaN,0,NaN,NaN
24279,100,-787,145,0,0,0,0,0,0,0,NaN,NaN,0,NaN,NaN,0,NaN,NaN
24332,116,-737,261,0,0,0,0,0,0,0,NaN,NaN,0,NaN,NaN,0,NaN,NaN
24385,96,-680,336,0,0,0,0,0,0,0,NaN,NaN,0,NaN,NaN,0,NaN,NaN
24438,62,-553,450,0,0,0,0,0,0,0,NaN,NaN,0,NaN,NaN,0,NaN,NaN
24489,173,-314,546,0,0,0,0,0,0,0,NaN,NaN,0,NaN,NaN,0,NaN,NaN
24545,344,-188,511,0,0,0,0,0,0,0,NaN,NaN,0,NaN,NaN,0,NaN,NaN
24598,349,-5,479,0,0,0,0,0,0,0,NaN,NaN,0,NaN,NaN,0,NaN,NaN
24649,435,157,334,0,0,0,0,0,0,0,NaN,NaN,0,NaN,NaN,0,NaN,NaN
24700,511,220,171,0,0,0,0,0,0,0,NaN,NaN,0,NaN,NaN,0,NaN,NaN
24754,560,219,78,0,0,0,0,0,0,0,NaN,NaN,0,NaN,NaN,0,NaN,NaN
24805,549,245,49,0,0,0,0,0,0,0,NaN,NaN,0,NaN,NaN,0,NaN,NaN
24856,506,292,-12,0,0,0,0,0,0,0,NaN,NaN,0,NaN,NaN,0,NaN,NaN
24909,332,397,-42,0,0,0,0,0,0,0,NaN,NaN,0,NaN,NaN,0,NaN,NaN
24961,262,397,-230,0,0,0,0,0,0,0,NaN,NaN,0,NaN,NaN,0,NaN,NaN
25014,219,267,-466,0,0,0,0,0,0,0,NaN,NaN,0,NaN,NaN,0,NaN,NaN
25069,126,247,-494,0,0,0,0,0,0,0,NaN,NaN,0,NaN,NaN,0,NaN,NaN
25122,-27,226,-485,0,0,0,0,0,0,0,NaN,NaN,0,NaN,NaN,0,NaN,NaN
25176,-230,171,-422,0,0,0,0,0,0,0,NaN,NaN,0,NaN,NaN,0,NaN,NaN
25229,-391,88,-310,0,0,0,0,0,0,0,NaN,NaN,0,NaN,NaN,0,NaN,NaN
25284,-501,-46,-171,0,0,0,0,0,0,0,NaN,NaN,0,NaN,NaN,0,NaN,NaN
25337,-532,-135,33,0,0,0,0,0,0,0,NaN,NaN,0,NaN,NaN,0,NaN,NaN
25391,-522,-196,102,0,0,0,0,0,0,0,NaN,NaN,0,NaN,NaN,0,NaN,NaN
25446,-523,-247,64,0,0,0,0,0,0,0,NaN,NaN,0,NaN,NaN,0,NaN,NaN
25499,-499,-369,54,0,0,0,0,0,0,0,NaN,NaN,0,NaN,NaN,0,NaN,NaN
25552,-436,-519,6,0,0,0,0,0,0,0,NaN,NaN,0,NaN,NaN,0,NaN,NaN
25606,-272,-689,13,0,0,0,0,0,0,0,NaN,NaN,0,NaN,NaN,0,NaN,NaN
25659,-187,-735,6,0,0,0,0,0,0,0,NaN,NaN,0,NaN,NaN,0,NaN,NaN
25710,-48,-792,-10,0,0,0,0,0,0,0,NaN,NaN,0,NaN,NaN,0,NaN,NaN
25763,141,-814,7,0,0,0,0,0,0,0,NaN,NaN,0,NaN,NaN,0,NaN,NaN
25815,270,-792,56,0,0,0,0,0,0,0,NaN,NaN,0,NaN,NaN,0,NaN,NaN
25868,470,-695,60,0,0,0,0,0,0,0,NaN,NaN,0,NaN,NaN,0,NaN,NaN
25921,587,-556,116,0,0,0,0,0,0,0,NaN,NaN,0,NaN,NaN,0,NaN,NaN
25974,660,-419,133,0,0,0,0,0,0,0,NaN,NaN,0,NaN,NaN,0,NaN,NaN
26028,719,-280,77,0,0,0,0,0,0,0,NaN,NaN,0,NaN,NaN,0,NaN,NaN
26079,663,-214,233,0,0,0,0,0,0,0,NaN,NaN,0,NaN,NaN,0,NaN,NaN
26132,619,-306,275,0,0,0,0,0,0,0,NaN,NaN,0,NaN,NaN,0,NaN,NaN
26187,505,-335,390,0,0,0,0,0,0,0,NaN,NaN,0,NaN,NaN,0,NaN,NaN
26241,384,-365,462,0,0,0,0,0,0,0,NaN,NaN,0,NaN,NaN,0,NaN,NaN
26294,241,-270,541,0,0,0,0,0,0,0,NaN,NaN,0,NaN,NaN,0,NaN,NaN
26347,198,-303,544,0,0,0,0,0,0,0,NaN,NaN,0,NaN,NaN,0,NaN,NaN
26400,166,-384,526,0,0,0,0,0,0,0,NaN,NaN,0,NaN,NaN,0,NaN,NaN
26454,184,-419,511,0,0,0,0,0,0,0,NaN,NaN,0,NaN,NaN,0,NaN,NaN
26507,253,-446,485,0,0,0,0,0,0,0,NaN,NaN,0,NaN,NaN,0,NaN,NaN
26562,185,-463,498,0,0,0,0,0,0,0,NaN,NaN,0,NaN,NaN,0,NaN,NaN
26615,176,-494,483,0,0,0,0,0,0,0,NaN,NaN,0,NaN,NaN,0,NaN,NaN
26669,148,-498,479,0,0,0,0,0,0,0,NaN,NaN,0,NaN,NaN,0,NaN,NaN
26722,89,-578,430,0,0,0,0,0,0,0,NaN,NaN,0,NaN,NaN,0,NaN,NaN
26775,20,-704,290,0,0,0,0,0,0,0,NaN,NaN,0,NaN,NaN,0,NaN,NaN
26826,-131,-733,162,0,0,0,0,0,0,0,NaN,NaN,0,NaN,NaN,0,NaN,NaN
26882,-277,-682,20,0,0,0,0,0,0,0,NaN,NaN,0,NaN,NaN,0,NaN,NaN
26935,-297,-609,-252,0,0,0,0,0,0,0,NaN,NaN,0,NaN,NaN,0,NaN,NaN
26990,-140,-494,-508,0,0,0,0,0,0,0,NaN,NaN,0,NaN,NaN,0,NaN,NaN
27045,-20,-371,-609,0,0,0,0,0,0,0,NaN,NaN,0,NaN,NaN,0,NaN,NaN
27101,75,-315,-642,0,0,0,0,0,0,0,NaN,NaN,0,NaN,NaN,0,NaN,NaN
27154,183,-306,-639,0,0,0,0,0,0,0,NaN,NaN,0,NaN,NaN,0,NaN,NaN
27209,267,-252,-632,0,0,0,0,0,0,0,NaN,NaN,0,NaN,NaN,0,NaN,NaN
27262,324,-198,-621,0,0,0,0,0,0,0,NaN,NaN,0,NaN,NaN,0,NaN,NaN
27318,423,1,-560,0,0,0,0,0,0,0,NaN,NaN,0,NaN,NaN,0,NaN,NaN
27369,486,7,-518,0,0,0,0,0,0,0,NaN,NaN,0,NaN,NaN,0,NaN,NaN
27420,574,-53,-460,0,0,0,0,0,0,0,NaN,NaN,0,NaN,NaN,0,NaN,NaN
27473,603,-55,-421,0,0,0,0,0,0,0,NaN,NaN,0,NaN,NaN,0,NaN,NaN
27527,638,77,-269,0,0,0,0,0,0,0,NaN,NaN,0,NaN,NaN,0,NaN,NaN
27580,551,262,-110,0,0,0,0,0,0,0,NaN,NaN,0,NaN,NaN,0,NaN,NaN
27633,347,396,-35,0,0,0,0,0,0,0,NaN,NaN,0,NaN,NaN,0,NaN,NaN
27684,176,426,69,0,0,0,0,0,0,0,NaN,NaN,0,NaN,NaN,0,NaN,NaN
27736,-59,409,87,0,0,0,0,0,0,0,NaN,NaN,0,NaN,NaN,0,NaN,NaN
27787,-292,297,96,0,0,0,0,0,0,0,NaN,NaN,0,NaN,NaN,0,NaN,NaN
27840,-378,226,75,0,0,0,0,0,0,0,NaN,NaN,0,NaN,NaN,0,NaN,NaN
27893,-440,145,63,0,0,0,0,0,0,0,NaN,NaN,0,NaN,NaN,0,NaN,NaN
27944,-503,7,15,0,0,0,0,0,0,0,NaN,NaN,0,NaN,NaN,0,NaN,NaN
27996,-533,-166,-18,0,0,0,0,0,0,0,NaN,NaN,0,NaN,NaN,0,NaN,NaN
28049,-529,-267,-32,0,0,0,0,0,0,0,NaN,NaN,0,NaN,NaN,0,NaN,NaN
28104,-505,-380,28,0,0,0,0,0,0,0,NaN,NaN,0,NaN,NaN,0,NaN,NaN
28157,-431,-434,206,0,0,0,0,0,0,0,NaN,NaN,0,NaN,NaN,0,NaN,NaN
28213,-374,-472,261,0,0,0,0,0,0,0,NaN,NaN,0,NaN,NaN,0,NaN,NaN
28266,-325,-429,357,0,0,0,0,0,0,0,NaN,NaN,0,NaN,NaN,0,NaN,NaN
28321,-204,-447,438,0,0,0,0,0,0,0,NaN,NaN,0,NaN,NaN,0,NaN,NaN
28377,-91,-502,457,0,0,0,0,0,0,0,NaN,NaN,0,NaN,NaN,0,NaN,NaN
28430,-34,-617,385,0,0,0,0,0,0,0,NaN,NaN,0,NaN,NaN,0,NaN,NaN
28483,8,-637,371,0,0,0,0,0,0,0,NaN,NaN,0,NaN,NaN,0,NaN,NaN
28534,26,-585,424,0,0,0,0,0,0,0,NaN,NaN,0,NaN,NaN,0,NaN,NaN
28585,51,-516,477,0,0,0,0,0,0,0,NaN,NaN,0,NaN,NaN,0,NaN,NaN
28639,124,-521,471,0,0,0,0,0,0,0,NaN,NaN,0,NaN,NaN,0,NaN,NaN
28692,164,-488,482,0,0,0,0,0,0,0,NaN,NaN,0,NaN,NaN,0,NaN,NaN
28745,227,-372,519,0,0,0,0,0,0,0,NaN,NaN,0,NaN,NaN,0,NaN,NaN
28798,394,-336,466,0,0,0,0,0,0,0,NaN,NaN,0,NaN,NaN,0,NaN,NaN
28854,585,-290,324,0,0,0,0,0,0,0,NaN,NaN,0,NaN,NaN,0,NaN,NaN
28907,713,-207,104,0,0,0,0,0,0,0,NaN,NaN,0,NaN,NaN,0,NaN,NaN
28960,731,-130,-18,0,0,0,0,0,0,0,NaN,NaN,0,NaN,NaN,0,NaN,NaN
29014,730,-94,-99,0,0,0,0,0,0,0,NaN,NaN,0,NaN,NaN,0,NaN,NaN
29065,718,-55,-200,0,0,0,0,0,0,0,NaN,NaN,0,NaN,NaN,0,NaN,NaN
29120,701,-47,-248,0,0,0,0,0,0,0,NaN,NaN,0,NaN,NaN,0,NaN,NaN
29173,666,-43,-320,0,0,0,0,0,0,0,NaN,NaN,0,NaN,NaN,0,NaN,NaN
29227,639,-129,-400,0,0,0,0,0,0,0,NaN,NaN,0,NaN,NaN,0,NaN,NaN
29280,599,-189,-457,0,0,0,0,0,0,0,NaN,NaN,0,NaN,NaN,0,NaN,NaN
29335,608,-108,-442,0,0,0,0,0,0,0,NaN,NaN,0,NaN,NaN,0,NaN,NaN
29390,593,-22,-431,0,0,0,0,0,0,0,NaN,NaN,0,NaN,NaN,0,NaN,NaN
29444,559,86,-409,0,0,0,0,0,0,0,NaN,NaN,0,NaN,NaN,0,NaN,NaN
29495,541,107,-412,0,0,0,0,0,0,0,NaN,NaN,0,NaN,NaN,0,NaN,NaN
29550,537,100,-421,0,0,0,0,0,0,0,NaN,NaN,0,NaN,NaN,0,NaN,NaN
29603,546,74,-438,0,0,0,0,0,0,0,NaN,NaN,0,NaN,NaN,0,NaN,NaN
29655,519,70,-464,0,0,0,0,0,0,0,NaN,NaN,0,NaN,NaN,0,NaN,NaN
29708,503,110,-448,0,0,0,0,0,0,0,NaN,NaN,0,NaN,NaN,0,NaN,NaN
29761,450,98,-496,0,0,0,0,0,0,0,NaN,NaN,0,NaN,NaN,0,NaN,NaN
29814,428,101,-510,0,0,0,0,0,0,0,NaN,NaN,0,NaN,NaN,0,NaN,NaN
29868,428,127,-498,0,0,0,0,0,0,0,NaN,NaN,0,NaN,NaN,0,NaN,NaN
29921,427,129,-492,0,0,0,0,0,0,0,NaN,NaN,0,NaN,NaN,0,NaN,NaN
29974,424,126,-496,0,0,0,0,0,0,0,NaN,NaN,0,NaN,NaN,0,NaN,NaN
30027,420,117,-503,0,0,0,0,0,0,0,NaN,NaN,0,NaN,NaN,0,NaN,NaN
30081,421,127,-498,0,0,0,0,0,0,0,NaN,NaN,0,NaN,NaN,0,NaN,NaN
30134,413,143,-495,0,0,0,0,0,0,0,NaN,NaN,0,NaN,NaN,0,NaN,NaN
30187,411,146,-489,0,0,0,0,0,0,0,NaN,NaN,0,NaN,NaN,0,NaN,NaN
30242,413,147,-483,0,0,0,0,0,0,0,NaN,NaN,0,NaN,NaN,0,NaN,NaN
30296,414,149,-485,0,0,0,0,0,0,0,NaN,NaN,0,NaN,NaN,0,NaN,NaN
30349,410,155,-485,0,0,0,0,0,0,0,NaN,NaN,0,NaN,NaN,0,NaN,NaN
30402,413,154,-485,0,0,0,0,0,0,0,NaN,NaN,0,NaN,NaN,0,NaN,NaN
30455,417,146,-484,0,0,0,0,0,0,0,NaN,NaN,0,NaN,NaN,0,NaN,NaN
30509,417,138,-488,0,0,0,0,0,0,0,NaN,NaN,0,NaN,NaN,0,NaN,NaN
30562,414,135,-491,0,0,0,0,0,0,0,NaN,NaN,0,NaN,NaN,0,NaN,NaN
30617,415,134,-499,0,0,0,0,0,0,0,NaN,NaN,0,NaN,NaN,0,NaN,NaN
30670,415,135,-498,0,0,0,0,0,0,0,NaN,NaN,0,NaN,NaN,0,NaN,NaN
30724,413,130,-499,0,0,0,0,0,0,0,NaN,NaN,0,NaN,NaN,0,NaN,NaN
30777,410,127,-500,0,0,0,0,0,0,0,NaN,NaN,0,NaN,NaN,0,NaN,NaN
30830,410,132,-500,0,0,0,0,0,0,0,NaN,NaN,0,NaN,NaN,0,NaN,NaN
30883,408,135,-502,0,0,0,0,0,0,0,NaN,NaN,0,NaN,NaN,0,NaN,NaN
30937,405,138,-505,0,0,0,0,0,0,0,NaN,NaN,0,NaN,NaN,0,NaN,NaN
30990,406,135,-501,0,0,0,0,0,0,0,NaN,NaN,0,NaN,NaN,0,NaN,NaN
31045,404,133,-500,0,0,0,0,0,0,0,NaN,NaN,0,NaN,NaN,0,NaN,NaN
31098,401,136,-503,0,0,0,0,0,0,0,NaN,NaN,0,NaN,NaN,0,NaN,NaN
31152,403,138,-503,0,0,0,0,0,0,0,NaN,NaN,0,NaN,NaN,0,NaN,NaN
31205,409,142,-497,0,0,0,0,0,0,0,NaN,NaN,0,NaN,NaN,0,NaN,NaN
31258,410,143,-491,0,0,0,0,0,0,0,NaN,NaN,0,NaN,NaN,0,NaN,NaN
31311,408,145,-490,0,0,0,0,0,0,0,NaN,NaN,0,NaN,NaN,0,NaN,NaN
31365,409,146,-490,0,0,0,0,0,0,0,NaN,NaN,0,NaN,NaN,0,NaN,NaN
31420,408,147,-494,0,0,0,0,0,0,0,NaN,NaN,0,NaN,NaN,0,NaN,NaN
31473,408,146,-494,0,0,0,0,0,0,0,NaN,NaN,0,NaN,NaN,0,NaN,NaN
