0.35,0,0.35,5.8514e-17,-0.011,0.0031623,-0.009,0.0031623
0.69907,-0.018066,0.681,0.0031623,-0.004,0.005164,-0.012,0.0042164
1.0481,-0.020132,1.028,0.0042164,-0.003,0.0048305,-0.017,0.0048305
1.3972,0.0078027,1.405,0.0052705,0,0,-0.013,0.0048305
1.7463,0.044737,1.791,0.0099443,0.001,0.0031623,-0.013,0.0048305
2.0953,0.092671,2.188,0.0042164,0.004,0.005164,-0.007,0.0048305
2.4444,0.12561,2.57,0,0.01,0.004714,-0.001,0.0031623
2.7935,0.14654,2.94,4.6811e-16,0.009,0.0031623,0.001,0.0031623
-3.1407,0.036674,-3.104,0.005164,0.011,0.0031623,0.009,0.0056765
-2.7916,-0.19239,-2.984,0.005164,0.005,0.0052705,0.01,1.8286e-18
-2.4425,-0.18746,-2.63,0.008165,0,0,0.018,0.0042164
-2.0935,-0.17452,-2.268,0.012293,0,0,0.022,0.0042164
-1.7444,-0.15059,-1.895,0.0097183,0,0,0.018,0.0042164
-1.3953,-0.11266,-1.508,0.0042164,0,0,0.019,0.0031623
-1.0463,-0.083721,-1.13,2.3406e-16,-0.004,0.005164,0.009,0.0056765
-0.69721,-0.072787,-0.77,1.1703e-16,-0.007,0.0048305,0,0
-0.34815,-0.073852,-0.422,0.0042164,-0.006,0.005164,0,0
0.00093422,-0.096934,-0.096,0.005164,-0.009,0.0031623,-0.002,0.0042164
