0.318,0,0.318,0.0042164,0,0,0.006,0.005164
0.66707,-0.0040658,0.663,0.0048305,0,0,0,0
1.0161,-0.016132,1,0,0,0,0,0
1.3652,-0.034197,1.331,0.0031623,0.002,0.0042164,0,0
1.7143,-0.059263,1.655,0.0052705,0.01,1.8286e-18,0,0
2.0633,-0.081329,1.982,0.0042164,0.017,0.0048305,0.001,0.0031623
2.4124,-0.10239,2.31,4.6811e-16,0.019,0.0031623,0.009,0.0031623
2.7615,-0.11546,2.646,0.0084327,0.02,3.6571e-18,0.019,0.0031623
3.1105,-0.12653,2.984,0.005164,0.02,3.6571e-18,0.023,0.0048305
-2.8236,-0.14539,-2.969,0.0031623,0.019,0.0031623,0.037,0.0048305
-2.4745,-0.14646,-2.621,0.0031623,0.014,0.005164,0.037,0.0048305
-2.1255,-0.14652,-2.272,0.0042164,0.009,0.0031623,0.04,7.3142e-18
-1.7764,-0.16459,-1.941,0.0056765,0.004,0.005164,0.044,0.005164
-1.4273,-0.12366,-1.551,0.0031623,0.008,0.0042164,0.041,0.0031623
-1.0783,-0.090721,-1.169,0.0031623,0,0,0.034,0.005164
-0.72921,-0.053787,-0.783,0.0048305,0,0,0.029,0.0056765
-0.38015,-0.035852,-0.416,0.005164,0,0,0.019,0.0031623
-0.031082,-0.014918,-0.046,0.005164,0,0,0.008,0.0042164
