264	-458	-201	-358	-36	264	38	-2.55241	-0.13416	-1.42784
446	-456	-201	-359	-39	249	34	-2.54967	-0.15396	-1.43509
565	-461	-187	-362	-53	243	18	-2.53067	-0.21418	-1.49686
688	-457	-192	-363	-46	247	17	-2.52164	-0.18370	-1.50208
821	-455	-190	-363	-43	248	19	-2.52032	-0.17119	-1.49433
942	-457	-187	-368	-50	242	15	-2.51353	-0.20336	-1.50889
1071	-457	-193	-361	-50	252	17	-2.52555	-0.19544	-1.50344
1191	-459	-193	-361	-48	245	19	-2.53075	-0.19290	-1.49340
1312	-464	-190	-361	-49	247	16	-2.53033	-0.19544	-1.50611
1439	-461	-189	-363	-49	248	16	-2.52441	-0.19467	-1.50637
1560	-458	-194	-362	-48	249	22	-2.53229	-0.18971	-1.48267
1681	-470	-236	-337	-42	250	26	-2.59257	-0.16557	-1.46717
1802	-475	-269	-321	-44	245	30	-2.63994	-0.17641	-1.44895
1923	-478	-368	-265	-45	250	27	-2.74845	-0.17708	-1.46321
2043	-449	-495	-203	-52	247	24	-2.86567	-0.20655	-1.47393
2164	-361	-631	-134	-49	247	16	-2.94961	-0.19544	-1.50611
2283	-210	-669	-130	-48	249	21	-2.92553	-0.18978	-1.48666
2404	-139	-625	-161	-47	248	24	-2.76741	-0.18644	-1.47432
2543	-68	-311	-343	-41	248	29	-1.95634	-0.16275	-1.45439
2662	-107	-198	-400	-45	247	24	-1.94161	-0.17938	-1.47393
2783	-264	-79	-452	-42	246	29	-2.14152	-0.16796	-1.45345
2902	-405	-144	-399	-43	246	33	-2.42552	-0.17154	-1.43745
3022	-469	-327	-288	-46	246	32	-2.70892	-0.18335	-1.44144
3155	-408	-561	-164	-45	247	27	-2.94179	-0.17917	-1.46192
3276	-218	-655	-131	-46	245	24	-2.94636	-0.18473	-1.47315
3397	-125	-592	-175	-47	250	28	-2.70992	-0.18470	-1.45926
3518	-71	-312	-340	-44	249	32	-1.98518	-0.17350	-1.44298
3645	-231	-90	-445	-50	246	27	-2.10137	-0.19936	-1.46148
3764	-426	-171	-383	-46	249	29	-2.47419	-0.18148	-1.45485
3885	-454	-458	-216	-49	246	30	-2.85461	-0.19520	-1.44944
4005	-378	-594	-144	-49	246	28	-2.98747	-0.19538	-1.45746
4126	-139	-610	-165	-49	248	26	-2.76842	-0.19403	-1.46634
4247	-80	-274	-363	-47	247	32	-1.97166	-0.18651	-1.44196
4366	-296	-82	-455	-39	247	38	-2.19604	-0.15481	-1.41815
4485	-458	-298	-315	-47	247	35	-2.65691	-0.18622	-1.43003
4624	-335	-606	-135	-37	247	46	-3.09004	-0.14621	-1.38667
4745	-89	-513	-223	-42	249	35	-2.43934	-0.16550	-1.43115
4864	-67	-313	-340	-53	247	36	-2.01896	-0.20922	-1.42607
4982	-306	-86	-462	-46	248	25	-2.19497	-0.18250	-1.47033
5103	-482	-369	-270	-44	254	19	-2.72142	-0.17106	-1.49613
5224	-255	-668	-114	-45	244	24	-3.01339	-0.18152	-1.47275
5345	-56	-345	-320	-48	250	26	-1.98898	-0.18870	-1.46717
5476	-310	-62	-466	-43	247	24	-2.18620	-0.17157	-1.47393
5595	-448	-190	-379	-43	247	30	-2.50840	-0.17113	-1.44993
5722	-361	-624	-130	-44	247	34	-3.04811	-0.17468	-1.43400
5842	-60	-455	-258	-41	251	32	-2.17393	-0.16064	-1.44399
5963	-263	-57	-469	-43	251	24	-2.11031	-0.16891	-1.47547
6082	-479	-399	-254	-42	250	26	-2.76988	-0.16557	-1.46717
6203	-366	-620	-135	-40	247	26	-2.99247	-0.15968	-1.46592
6324	-56	-421	-279	-47	246	31	-2.12683	-0.18733	-1.44544
6443	-317	-63	-461	-42	244	35	-2.21204	-0.16877	-1.42833
6563	-452	-512	-191	-45	245	31	-2.91375	-0.18024	-1.44493
6694	-85	-543	-207	-44	247	31	-2.49355	-0.17494	-1.44594
6819	-252	-60	-467	-41	248	29	-2.09986	-0.16275	-1.45439
6940	-443	-164	-390	-46	249	26	-2.47614	-0.18171	-1.46676
7061	-301	-663	-118	-45	249	27	-3.03160	-0.17777	-1.46278
7182	-72	-247	-377	-41	251	25	-1.89154	-0.16113	-1.47152
7301	-456	-189	-374	-42	250	27	-2.51668	-0.16550	-1.46321
7421	-251	-667	-119	-46	247	33	-3.06164	-0.18254	-1.43798
7542	-65	-485	-243	-43	247	30	-2.26145	-0.17113	-1.44993
7661	-343	-67	-454	-45	245	30	-2.25276	-0.18033	-1.44895
7794	-377	-620	-136	-45	247	31	-3.02273	-0.17884	-1.44594
7921	-58	-298	-349	-43	246	32	-1.92940	-0.17163	-1.44144
8040	-459	-198	-367	-46	247	28	-2.53618	-0.18298	-1.45792
8161	-196	-658	-131	-44	246	27	-2.95528	-0.17596	-1.46148
8282	-195	-77	-458	-42	246	28	-2.01734	-0.16804	-1.45746
8400	-435	-157	-393	-45	250	29	-2.46503	-0.17693	-1.45531
8521	-215	-663	-125	-46	245	30	-3.01238	-0.18425	-1.44895
8642	-196	-76	-459	-46	247	27	-2.01923	-0.18306	-1.46192
8773	-439	-541	-173	-44	248	28	-2.93439	-0.17451	-1.45837
8900	-52	-331	-331	-43	251	24	-1.93016	-0.16891	-1.47547
9019	-475	-248	-333	-43	249	24	-2.60339	-0.17023	-1.47471
9140	-383	-615	-136	-45	248	26	-2.99686	-0.17854	-1.46634
9261	-88	-202	-397	-44	247	30	-1.90867	-0.17503	-1.44993
9379	-480	-408	-244	-45	246	29	-2.80148	-0.17971	-1.45345
9500	-52	-423	-277	-46	250	27	-2.09245	-0.18094	-1.46321
9619	-460	-213	-356	-44	248	31	-2.56020	-0.17426	-1.44644
9740	-391	-603	-140	-45	248	25	-2.98334	-0.17861	-1.47033
9861	-103	-177	-409	-46	247	28	-1.92216	-0.18298	-1.45792
9988	-460	-489	-201	-46	248	23	-2.86412	-0.18263	-1.47832
10121	-58	-291	-350	-47	247	23	-1.91971	-0.18724	-1.47795
10242	-480	-388	-255	-46	249	23	-2.76149	-0.18192	-1.47869
10364	-47	-373	-304	-43	250	29	-1.98747	-0.16922	-1.45531
10485	-480	-328	-288	-46	248	28	-2.70682	-0.18227	-1.45837
10606	-284	-667	-118	-46	247	28	-3.03727	-0.18298	-1.45792
10729	-242	-58	-461	-45	249	28	-2.08895	-0.17770	-1.45882
10860	-287	-669	-119	-47	250	28	-3.03430	-0.18470	-1.45926
10983	-252	-53	-460	-47	248	28	-2.10509	-0.18614	-1.45837
11110	-258	-674	-119	-43	247	27	-3.02064	-0.17136	-1.46192
11231	-296	-54	-457	-46	248	27	-2.17531	-0.18235	-1.46235
11352	-200	-661	-129	-43	250	28	-2.96730	-0.16929	-1.45926
11474	-63	-260	-369	-43	247	30	-1.89780	-0.17113	-1.44993
11595	-444	-522	-184	-46	247	30	-2.92138	-0.18281	-1.44993
11716	-119	-142	-426	-44	249	33	-1.92912	-0.17342	-1.43903
11839	-358	-632	-131	-46	250	26	-3.00368	-0.18101	-1.46717
11960	-234	-57	-463	-46	250	23	-2.06914	-0.18122	-1.47905
12087	-216	-666	-126	-47	251	25	-2.96671	-0.18422	-1.47152
12210	-65	-258	-368	-46	248	27	-1.90585	-0.18235	-1.46235
12331	-414	-569	-161	-47	247	24	-2.94008	-0.18717	-1.47393
12464	-192	-77	-457	-45	249	27	-2.01307	-0.17777	-1.46278
12584	-232	-668	-122	-46	248	29	-3.01802	-0.18219	-1.45439
12707	-392	-106	-421	-47	246	28	-2.36514	-0.18760	-1.45746
12828	-58	-491	-238	-45	249	28	-2.25460	-0.17770	-1.45882
12961	-473	-405	-247	-43	248	26	-2.78067	-0.17076	-1.46634
13082	-111	-150	-423	-45	249	28	-1.91342	-0.17770	-1.45882
13211	-456	-216	-352	-46	245	27	-2.55864	-0.18450	-1.46104
13332	-50	-310	-340	-47	247	26	-1.92509	-0.18703	-1.46592
13453	-393	-593	-148	-46	247	30	-2.99090	-0.18281	-1.44993
13576	-278	-60	-457	-42	249	26	-2.14796	-0.16621	-1.46676
13697	-100	-572	-186	-44	248	29	-2.60923	-0.17443	-1.45439
13817	-477	-368	-266	-43	248	29	-2.75068	-0.17054	-1.45439
13940	-159	-639	-144	-44	248	31	-2.90984	-0.17426	-1.44644
14061	-473	-277	-316	-44	250	31	-2.64833	-0.17292	-1.44743
14184	-90	-187	-405	-45	246	35	-1.90890	-0.17916	-1.42947
14301	-263	-674	-112	-45	247	31	-3.07019	-0.17884	-1.44594
14424	-451	-158	-386	-44	251	22	-2.48106	-0.17289	-1.48337
14544	-297	-682	-102	-44	250	25	-3.06002	-0.17337	-1.47113
14667	-437	-139	-397	-42	247	24	-2.44935	-0.16765	-1.47393
14800	-39	-277	-358	-45	251	20	-1.83884	-0.17685	-1.49128
14921	-311	-690	-87	-42	248	20	-3.06772	-0.16723	-1.49033
15042	-455	-148	-392	-43	248	18	-2.46993	-0.17124	-1.49834
15175	-46	-231	-381	-44	252	15	-1.80844	-0.17256	-1.51134
15302	-251	-709	-71	-48	250	13	-3.05226	-0.18944	-1.51884
15423	-500	-247	-327	-46	248	17	-2.62182	-0.18298	-1.50235
15546	-196	-708	-80	-46	247	17	-3.04523	-0.18370	-1.50208
15667	-516	-338	-270	-46	247	16	-2.73318	-0.18375	-1.50611
15788	-179	-52	-475	-43	250	15	-1.95423	-0.17003	-1.51087
15908	-63	-581	-171	-44	251	18	-2.47501	-0.17310	-1.49921
16029	-450	-583	-131	-45	248	20	-2.99004	-0.17893	-1.49033
16152	-387	-62	-445	-45	250	18	-2.30615	-0.17764	-1.49892
16273	-355	-691	-80	-43	250	15	-3.05947	-0.17003	-1.51087
16431	-215	-719	-76	-44	249	22	-3.10474	-0.17424	-1.48267
16551	-518	-384	-245	-48	248	20	-2.79182	-0.19058	-1.49033
16672	-78	-624	-146	-47	246	17	-2.65723	-0.18834	-1.50180
16793	-451	-599	-128	-47	244	17	-2.98839	-0.18984	-1.50124
16916	-430	-91	-424	-47	249	16	-2.38766	-0.18618	-1.50663
17037	-65	-148	-421	-50	245	15	-1.80550	-0.20095	-1.50965
17170	-92	-644	-132	-44	249	16	-2.72375	-0.17455	-1.50663
17317	-445	-611	-122	-47	248	11	-2.97144	-0.18711	-1.52647
17446	-457	-128	-401	-49	250	13	-2.45148	-0.19329	-1.51884
17567	-119	-79	-458	-48	248	15	-1.86494	-0.19084	-1.51039
17688	-30	-532	-205	-45	248	16	-2.20948	-0.17913	-1.50637
17809	-367	-40	-458	-44	250	16	-2.25858	-0.17387	-1.50688
17930	-52	-173	-408	-47	250	15	-1.78770	-0.18550	-1.51087
18051	-70	-619	-150	-46	249	13	-2.56924	-0.18244	-1.51863
18171	-382	-683	-88	-44	251	19	-3.06856	-0.17305	-1.49524
18292	-513	-288	-303	-41	253	16	-2.66857	-0.16034	-1.50764
18413	-87	-643	-134	-48	248	18	-2.74642	-0.19070	-1.49834
18540	-389	-681	-89	-46	248	18	-3.06394	-0.18293	-1.49834
18661	-519	-307	-293	-47	247	13	-2.68999	-0.18778	-1.51821
18784	-324	-13	-473	-47	249	13	-2.17465	-0.18631	-1.51863
18905	-54	-155	-415	-46	248	14	-1.77864	-0.18311	-1.51440
19025	-25	-541	-198	-45	248	14	-2.20458	-0.17922	-1.51440
19146	-400	-52	-448	-45	248	16	-2.31426	-0.17913	-1.50637
19267	-129	-51	-472	-49	249	12	-1.86242	-0.19408	-1.52264
19398	8	-378	-296	-46	249	15	-1.80054	-0.18236	-1.51063
19529	-115	-692	-100	-46	250	11	-2.85853	-0.18179	-1.52682
19658	-372	-710	-70	-45	249	11	-3.06341	-0.17862	-1.52665
19779	-526	-432	-220	-47	249	10	-2.81537	-0.18641	-1.53066
19900	-460	-112	-408	-50	250	11	-2.43998	-0.19721	-1.52682
20023	-242	6	-493	-47	250	12	-2.02587	-0.18562	-1.52283
20142	-392	-697	-79	-46	248	13	-3.05911	-0.18315	-1.51842
20260	-525	-441	-216	-47	247	14	-2.83397	-0.18774	-1.51418
20383	-482	-145	-391	-48	248	12	-2.49140	-0.19097	-1.52245
20506	-301	9	-492	-49	249	9	-2.11395	-0.19418	-1.53467
20629	-103	-60	-468	-49	247	9	-1.81503	-0.19571	-1.53438
20748	-492	-578	-136	-48	250	13	-2.96510	-0.18944	-1.51884
20871	-536	-308	-289	-50	248	7	-2.69682	-0.19887	-1.54258
20992	-441	-78	-432	-49	247	8	-2.38030	-0.19574	-1.53842
21110	-276	20	-500	-46	249	8	-2.06669	-0.18259	-1.53868
21229	-96	-47	-471	-47	252	9	-1.79319	-0.18427	-1.53510
21348	-482	-602	-131	-48	249	7	-2.94999	-0.19036	-1.54269
21479	-537	-384	-259	-41	248	12	-2.75761	-0.16365	-1.52245
21602	-497	-173	-381	-48	245	6	-2.51725	-0.19341	-1.54631
21729	-409	-13	-476	-48	250	7	-2.27833	-0.18962	-1.54280
21860	-264	39	-517	-47	250	5	-2.02719	-0.18579	-1.55080
21979	-126	-3	-501	-49	248	2	-1.81528	-0.19506	-1.56273
22097	-24	-122	-441	-44	248	5	-1.67643	-0.17556	-1.55064
22216	-535	-538	-152	-47	251	8	-2.92942	-0.18502	-1.53893
22337	-562	-370	-254	-47	249	12	-2.77964	-0.18635	-1.52264
22458	-533	-214	-348	-44	247	14	-2.60645	-0.17601	-1.51418
22581	-477	-92	-425	-46	246	12	-2.43251	-0.18464	-1.52205
22702	-396	-10	-479	-47	248	9	-2.26005	-0.18717	-1.53452
22829	-311	29	-506	-46	250	10	-2.11156	-0.18182	-1.53082
22947	-253	-766	-44	-45	249	9	-3.09931	-0.17868	-1.53467
23066	-328	-753	-48	-45	250	10	-3.10246	-0.17795	-1.53082
23187	-391	-718	-64	-45	252	10	-3.07232	-0.17657	-1.53113
23308	-442	-674	-89	-45	249	11	-3.03544	-0.17862	-1.52665
23429	-481	-623	-119	-46	249	9	-2.97874	-0.18256	-1.53467
23560	-504	-574	-143	-43	250	15	-2.96148	-0.17003	-1.51087
23683	-3	-181	-407	-44	250	10	-1.66340	-0.17408	-1.53082
23801	5	-228	-376	-46	249	14	-1.68122	-0.18240	-1.51463
23926	16	-259	-360	-44	250	13	-1.66373	-0.17399	-1.51884
24047	17	-281	-349	-45	248	11	-1.67777	-0.17933	-1.52647
24178	18	-292	-343	-46	249	15	-1.68998	-0.18236	-1.51063
24299	20	-296	-340	-40	249	16	-1.66561	-0.15896	-1.50663
24418	-541	-440	-223	-43	249	16	-2.83326	-0.17066	-1.50663
24539	-540	-454	-216	-44	249	12	-2.83497	-0.17470	-1.52264
24662	-534	-478	-202	-48	250	10	-2.85319	-0.18954	-1.53082
24782	-526	-513	-179	-48	249	14	-2.90257	-0.19014	-1.51463
24911	-516	-555	-155	-45	249	8	-2.91955	-0.17870	-1.53868
25032	-495	-604	-129	-48	249	10	-2.96923	-0.19029	-1.53066
25155	-465	-657	-98	-47	250	7	-3.00497	-0.18576	-1.54280
25274	-76	-54	-475	-47	250	11	-1.75609	-0.18566	-1.52682
25393	-125	-11	-497	-45	248	10	-1.82427	-0.17936	-1.53050
25513	-188	22	-513	-44	252	10	-1.91648	-0.17273	-1.53113
25645	-261	34	-515	-43	250	12	-2.03078	-0.17014	-1.52283
25763	-342	16	-500	-42	251	12	-2.16591	-0.16561	-1.52302
25884	-138	-729	-75	-44	249	10	-2.96965	-0.17476	-1.53066
26011	-63	-659	-122	-43	251	10	-2.63893	-0.16954	-1.53098
26132	-2	-549	-192	-46	248	6	-2.09324	-0.18335	-1.54661
26251	28	-405	-277	-46	249	10	-1.75278	-0.18254	-1.53066
26370	13	-247	-371	-46	250	8	-1.66425	-0.18187	-1.53881
26501	-43	-99	-450	-47	250	8	-1.71136	-0.18574	-1.53881
26619	-428	-695	-78	-46	247	10	-3.05099	-0.18398	-1.53033
26740	-303	-763	-46	-48	246	10	-3.10786	-0.19255	-1.53017
26859	-165	-744	-67	-48	249	7	-2.99076	-0.19036	-1.54269
26980	-45	-629	-143	-46	249	9	-2.49527	-0.18256	-1.53467
27119	21	-439	-258	-47	249	9	-1.82322	-0.18644	-1.53467
27236	5	-219	-382	-48	250	9	-1.67452	-0.18957	-1.53481
27355	-479	-616	-123	-45	248	12	-2.98303	-0.17929	-1.52245
27475	-340	-744	-58	-46	250	9	-3.07521	-0.18185	-1.53481
27596	-164	-734	-74	-46	251	11	-3.00037	-0.18109	-1.52700
27727	-22	-583	-171	-42	250	9	-2.24248	-0.16634	-1.53481
27846	23	-330	-322	-43	251	13	-1.68755	-0.16945	-1.51905
27967	-61	-83	-457	-45	249	12	-1.74293	-0.17859	-1.52264
28086	-373	-732	-65	-45	250	10	-3.06991	-0.17795	-1.53082
28213	-166	-742	-71	-46	249	10	-3.00447	-0.18254	-1.53066
28334	-6	-546	-195	-46	249	8	-2.11000	-0.18259	-1.53868
28452	9	-244	-370	-47	250	7	-1.67541	-0.18576	-1.54280
28569	-141	-10	-495	-46	249	8	-1.85301	-0.18259	-1.53868
28688	-264	-776	-53	-43	252	12	-3.10061	-0.16882	-1.52321
28821	-48	-629	-143	-45	247	12	-2.53234	-0.18000	-1.52225
28942	19	-310	-333	-51	247	8	-1.71293	-0.20351	-1.53842
29061	-119	-25	-485	-51	247	9	-1.82397	-0.20348	-1.53438
29179	-371	-9	-480	-49	249	11	-2.22818	-0.19412	-1.52665
29306	-536	-291	-312	-49	249	12	-2.67088	-0.19408	-1.52264
29429	-462	-646	-114	-45	249	10	-2.98848	-0.17865	-1.53066
29550	-174	7	-500	-45	248	11	-1.90565	-0.17933	-1.52647
29669	-444	-75	-439	-46	248	10	-2.37624	-0.18325	-1.53050
29800	-530	-440	-229	-46	251	8	-2.79870	-0.18117	-1.53893
29921	-350	-738	-70	-51	247	11	-3.06639	-0.20342	-1.52629
30042	-69	-656	-133	-48	247	11	-2.65026	-0.19175	-1.52629
30162	9	-258	-358	-46	250	9	-1.68538	-0.18185	-1.53481
30287	-444	-666	-106	-49	248	11	-3.00730	-0.19488	-1.52647
30408	-144	-724	-89	-49	245	9	-2.92518	-0.19727	-1.53408
30527	21	-360	-301	-51	247	9	-1.75751	-0.20348	-1.53438
30646	-160	-3	-492	-50	248	9	-1.88724	-0.19882	-1.53452
30765	-472	-119	-412	-47	249	9	-2.44656	-0.18644	-1.53467
30885	18	-405	-279	-47	247	11	-1.79771	-0.18785	-1.52629
31004	-149	-9	-489	-44	248	11	-1.87280	-0.17542	-1.52647
31137	-476	-120	-409	-48	248	12	-2.45749	-0.19097	-1.52245
31258	-494	-594	-144	-48	248	12	-2.95170	-0.19097	-1.52245
31387	-163	-735	-82	-48	249	10	-2.96831	-0.19029	-1.53066
31508	16	-317	-328	-45	247	11	-1.70889	-0.18004	-1.52629
31627	-242	23	-502	-46	250	8	-2.01112	-0.18187	-1.53881
31746	-95	-686	-115	-46	249	7	-2.72892	-0.18261	-1.54269
31877	-12	-193	-394	-47	250	10	-1.70040	-0.18569	-1.53082
31997	-352	2	-484	-48	247	10	-2.19570	-0.19179	-1.53033
32116	-535	-451	-223	-46	250	15	-2.83128	-0.18165	-1.51087
32237	-233	-758	-66	-46	248	11	-3.05382	-0.18322	-1.52647
32358	-472	-356	-307	-45	248	12	-2.64214	-0.17929	-1.52245
32518	-255	22	-501	-45	250	8	-2.03315	-0.17800	-1.53881
32636	-540	-352	-280	-48	249	9	-2.72196	-0.19031	-1.53467
32757	-52	-112	-438	-47	250	11	-1.74315	-0.18566	-1.52682
32878	-442	-81	-435	-45	249	10	-2.38001	-0.17865	-1.53066
32999	-466	-636	-125	-47	248	8	-2.96252	-0.18720	-1.53855
33120	-63	-641	-144	-50	249	10	-2.58262	-0.19801	-1.53066
33241	-77	-71	-456	-48	248	12	-1.77422	-0.19097	-1.52245
33359	-489	-149	-395	-49	248	12	-2.49418	-0.19485	-1.52245
33501	-396	-713	-88	-47	250	10	-3.02809	-0.18569	-1.53082
33622	-355	-6	-480	-45	248	14	-2.20897	-0.17922	-1.51440
33740	-502	-558	-169	-46	249	13	-2.91153	-0.18244	-1.51863
33863	-89	-668	-128	-45	250	10	-2.68621	-0.17795	-1.53082
33994	-81	-71	-459	-46	249	14	-1.78155	-0.18240	-1.51463
34113	-506	-194	-369	-48	249	13	-2.55321	-0.19018	-1.51863
34236	-328	-746	-74	-48	247	12	-3.06061	-0.19172	-1.52225
34357	-430	-70	-443	-51	247	11	-2.35596	-0.20342	-1.52629
34478	-423	-685	-103	-48	251	10	-3.00360	-0.18881	-1.53098
34605	-2	-492	-230	-49	250	12	-2.01654	-0.19333	-1.52283
34723	-258	15	-496	-46	249	12	-2.04608	-0.18247	-1.52264
34842	-522	-495	-201	-48	248	13	-2.86176	-0.19093	-1.51842
34965	-88	-665	-130	-49	249	12	-2.71570	-0.19408	-1.52264
35086	-535	-408	-251	-50	247	12	-2.77840	-0.19950	-1.52225
35207	-136	-708	-103	-47	247	15	-2.92064	-0.18770	-1.51014
35330	-88	-69	-460	-49	247	12	-1.79510	-0.19561	-1.52225
35448	-527	-282	-323	-49	249	11	-2.64623	-0.19412	-1.52665
35571	-203	-743	-79	-47	250	11	-3.00523	-0.18566	-1.52682
35698	-48	-120	-432	-47	252	8	-1.73674	-0.18430	-1.53906
35829	-514	-230	-351	-45	249	11	-2.58676	-0.17862	-1.52665
35952	-48	-133	-426	-46	250	10	-1.74579	-0.18182	-1.53082
36073	-515	-233	-349	-42	251	16	-2.59648	-0.16546	-1.50714
36206	-215	-745	-80	-44	248	15	-3.04003	-0.17528	-1.51039
36325	-58	-108	-439	-47	249	12	-1.75537	-0.18635	-1.52264
36446	-526	-289	-315	-47	250	10	-2.65461	-0.18569	-1.53082
36569	-159	-719	-97	-49	247	13	-2.94492	-0.19557	-1.51821
36696	-120	-43	-471	-48	246	14	-1.84406	-0.19240	-1.51395
36816	-118	-687	-118	-50	248	11	-2.80787	-0.19876	-1.52647
36939	-173	-11	-488	-48	246	10	-1.91694	-0.19255	-1.53017
37058	-515	-504	-200	-48	249	14	-2.86464	-0.19014	-1.51463
37181	-27	-551	-197	-48	247	13	-2.24222	-0.19168	-1.51821
37302	-319	-3	-487	-46	249	12	-2.15065	-0.18247	-1.52264
37421	2	-440	-260	-45	248	12	-1.88942	-0.17929	-1.52245
37539	-408	-52	-453	-47	247	11	-2.31463	-0.18785	-1.52629
37660	-323	-739	-80	-49	247	13	-3.05280	-0.19557	-1.51821
37787	-39	-160	-415	-49	251	13	-1.74854	-0.19254	-1.51905
37908	-527	-312	-304	-48	249	13	-2.68123	-0.19018	-1.51863
38031	-95	-655	-136	-49	248	15	-2.73150	-0.19472	-1.51039
38164	-257	4	-496	-45	248	15	-2.05021	-0.17918	-1.51039
38293	-13	-501	-227	-44	250	16	-2.05292	-0.17387	-1.50688
38414	-397	-47	-458	-48	249	14	-2.29676	-0.19014	-1.51463
38535	-299	-740	-80	-48	247	13	-3.04765	-0.19168	-1.51821
38656	-78	-98	-446	-49	249	11	-1.79198	-0.19412	-1.52665
38774	-524	-444	-234	-49	247	13	-2.80574	-0.19557	-1.51821
38903	-19	-515	-219	-49	249	13	-2.12981	-0.19405	-1.51863
39024	-436	-659	-121	-50	247	16	-3.00273	-0.19932	-1.50611
39145	-10	-253	-364	-47	248	17	-1.74634	-0.18687	-1.50235
39266	-522	-287	-320	-45	248	14	-2.65106	-0.17922	-1.51440
39389	-72	-623	-154	-49	250	14	-2.58650	-0.19325	-1.51485
39507	-340	-19	-477	-45	249	19	-2.19898	-0.17829	-1.49464
39628	-315	-733	-84	-47	249	15	-3.05265	-0.18623	-1.51063
39749	-504	-220	-359	-49	247	14	-2.57264	-0.19553	-1.51418
39878	-100	-650	-139	-49	248	12	-2.69635	-0.19485	-1.52245
39999	-327	-11	-482	-49	250	10	-2.16729	-0.19340	-1.53082
40120	-310	-734	-83	-48	248	9	-3.01547	-0.19106	-1.53452
40241	-122	-59	-467	-49	249	15	-1.85767	-0.19396	-1.51063
40372	-481	-587	-153	-48	250	13	-2.93524	-0.18944	-1.51884
40507	-9	-268	-358	-51	248	14	-1.76320	-0.20250	-1.51440
40626	-242	-734	-83	-45	248	17	-3.05359	-0.17909	-1.50235
40747	-204	-11	-492	-46	249	15	-1.97186	-0.18236	-1.51063
40867	-398	-680	-106	-41	249	23	-3.05645	-0.16251	-1.47869
40996	-73	-121	-438	-51	248	15	-1.80180	-0.20246	-1.51039
41115	-497	-536	-181	-50	250	22	-2.92112	-0.19665	-1.48302
41238	-13	-283	-352	-43	249	20	-1.76762	-0.17047	-1.49065
41359	-238	-732	-82	-52	247	13	-3.02907	-0.20722	-1.51821
41480	-242	-1	-501	-45	249	16	-2.02493	-0.17843	-1.50663
41598	-348	-725	-75	-51	248	14	-3.07190	-0.20250	-1.51440
41719	-140	-22	-494	-47	252	11	-1.85821	-0.18422	-1.52717
41840	-436	-681	-102	-45	248	13	-3.02205	-0.17926	-1.51842
41961	-470	-108	-425	-47	250	14	-2.43114	-0.18555	-1.51485
42090	-89	-656	-139	-49	248	12	-2.68020	-0.19485	-1.52245
42211	-415	-50	-458	-53	247	11	-2.31648	-0.21117	-1.52629
42332	-144	-701	-113	-49	251	9	-2.83384	-0.19267	-1.53496
42479	-353	-5	-486	-42	250	16	-2.20175	-0.16611	-1.50688
42598	-178	-729	-98	-47	250	13	-2.95051	-0.18559	-1.51884
42719	-335	7	-491	-47	251	12	-2.16600	-0.18490	-1.52302
42850	-194	-732	-95	-44	249	18	-3.01075	-0.17446	-1.49863
42971	-334	0	-490	-44	247	19	-2.17245	-0.17578	-1.49402
43089	-2	-255	-363	-49	245	16	-1.73254	-0.19699	-1.50558
43216	-521	-487	-212	-44	247	17	-2.85334	-0.17588	-1.50208
43337	-9	-230	-377	-47	248	20	-1.72906	-0.18670	-1.49033
43456	-514	-525	-188	-47	248	14	-2.88575	-0.18700	-1.51440
43579	-26	-179	-409	-52	247	13	-1.73628	-0.20722	-1.51821
43700	-492	-581	-156	-46	249	16	-2.94376	-0.18231	-1.50663
43821	-421	-62	-451	-48	247	15	-2.33780	-0.19160	-1.51014
43941	-79	-637	-149	-47	246	17	-2.65612	-0.18834	-1.50180
44062	-478	-131	-408	-48	247	18	-2.46981	-0.19144	-1.49805
44191	-27	-548	-202	-47	248	13	-2.21608	-0.18704	-1.51842
44312	-524	-252	-336	-42	248	20	-2.63195	-0.16723	-1.49033
44433	2	-406	-283	-45	248	20	-1.85957	-0.17893	-1.49033
44564	-271	-744	-77	-43	249	20	-3.09799	-0.17047	-1.49065
44683	-315	10	-492	-51	249	17	-2.13830	-0.20157	-1.50263
44804	-149	-705	-108	-47	247	20	-2.96164	-0.18744	-1.49000
44924	-434	-82	-439	-49	247	20	-2.37613	-0.19522	-1.49000
45045	-40	-562	-191	-49	250	15	-2.33062	-0.19321	-1.51087
45178	-518	-265	-333	-48	247	16	-2.63122	-0.19155	-1.50611
45307	3	-341	-318	-47	250	16	-1.78257	-0.18546	-1.50688
45426	-212	-726	-92	-45	249	16	-3.00860	-0.17843	-1.50663
45547	-397	-45	-461	-48	248	16	-2.29448	-0.19080	-1.50637
45668	-57	-588	-177	-45	248	18	-2.45306	-0.17904	-1.49834
45789	-516	-263	-334	-46	248	18	-2.63007	-0.18293	-1.49834
45910	5	-319	-330	-48	250	17	-1.76086	-0.18926	-1.50290
46028	-182	-717	-98	-48	248	17	-2.98837	-0.19075	-1.50235
46149	-437	-92	-434	-47	250	18	-2.38567	-0.18536	-1.49892
46270	-19	-500	-230	-48	250	19	-2.11434	-0.18916	-1.49494
46397	-526	-394	-261	-46	250	19	-2.77036	-0.18145	-1.49494
46518	-30	-162	-412	-50	250	15	-1.73348	-0.19705	-1.51087
46651	-401	-692	-104	-49	248	17	-3.03518	-0.19462	-1.50235
46772	-249	17	-499	-49	248	16	-2.03075	-0.19467	-1.50637
46893	2	-267	-355	-52	248	18	-1.74182	-0.20616	-1.49834
47009	-456	-635	-131	-49	247	18	-2.99495	-0.19533	-1.49805
47132	-195	8	-498	-46	249	19	-1.94840	-0.18216	-1.49464
47251	-174	-718	-99	-47	250	16	-2.96935	-0.18546	-1.50688
47378	-473	-141	-402	-49	249	17	-2.47395	-0.19386	-1.50263
47511	10	-370	-300	-49	249	17	-1.80446	-0.19386	-1.50263
47632	-190	-723	-96	-48	249	16	-2.99019	-0.19005	-1.50663
47753	-468	-136	-405	-46	250	19	-2.46528	-0.18145	-1.49494
47874	10	-362	-303	-46	250	19	-1.78392	-0.18145	-1.49494
47994	-473	-601	-151	-42	248	16	-2.94690	-0.16742	-1.50637
48115	-195	8	-496	-43	249	20	-1.95050	-0.17047	-1.49065
48234	-138	-695	-114	-45	249	18	-2.90192	-0.17834	-1.49863
48355	-440	-648	-127	-46	250	17	-2.99255	-0.18155	-1.50290
48517	-7	-221	-379	-47	248	19	-1.71702	-0.18676	-1.49433
48635	-377	-704	-100	-47	249	18	-3.04428	-0.18609	-1.49863
48769	-336	-6	-483	-48	249	18	-2.18256	-0.18995	-1.49863
48889	-51	-111	-437	-50	246	19	-1.75288	-0.19994	-1.49371
49010	-277	-739	-82	-46	247	20	-3.08750	-0.18354	-1.49000
49129	-434	-93	-432	-47	248	16	-2.38335	-0.18692	-1.50637
49250	11	-353	-308	-50	246	20	-1.79688	-0.19988	-1.48967
49371	-434	-656	-125	-50	248	17	-2.99902	-0.19849	-1.50235
49491	-511	-266	-333	-50	248	17	-2.62883	-0.19849	-1.50235
49620	-32	-147	-418	-48	247	19	-1.73069	-0.19139	-1.49402
49741	-281	-737	-82	-47	248	19	-3.08013	-0.18676	-1.49433
49874	-450	-115	-417	-46	249	17	-2.42486	-0.18226	-1.50263
49995	7	-287	-343	-45	251	17	-1.71722	-0.17700	-1.50317
50114	-374	-707	-94	-46	249	19	-3.06138	-0.18216	-1.49464
50235	-381	-35	-464	-48	248	19	-2.27079	-0.19064	-1.49433
50356	-105	-43	-469	-45	249	16	-1.81571	-0.17843	-1.50663
50477	-155	-703	-107	-46	248	18	-2.94572	-0.18293	-1.49834
50606	-514	-309	-309	-48	248	18	-2.67491	-0.19070	-1.49834
50726	-76	-79	-454	-48	247	21	-1.78486	-0.19127	-1.48598
50857	-179	-716	-100	-44	248	19	-2.99361	-0.17509	-1.49433
50980	-511	-290	-319	-47	248	20	-2.65762	-0.18670	-1.49033
51101	-332	-79	-453	-45	249	18	-2.23117	-0.17834	-1.49863
51222	3	-425	-267	-45	250	20	-1.88558	-0.17754	-1.49097
51341	-421	-659	-122	-47	249	18	-3.00434	-0.18609	-1.49863
51462	-356	-24	-471	-48	247	15	-2.22510	-0.19160	-1.51014
51582	8	-366	-299	-51	247	16	-1.81952	-0.20320	-1.50611
51707	-376	-699	-103	-50	248	17	-3.03373	-0.19849	-1.50235
51830	-515	-410	-255	-49	247	17	-2.77429	-0.19539	-1.50208
51951	-168	-5	-488	-49	248	18	-1.91186	-0.19457	-1.49834
52072	-55	-595	-172	-52	247	16	-2.49975	-0.20707	-1.50611
52205	-487	-547	-181	-48	249	19	-2.90808	-0.18990	-1.49464
52326	-283	6	-489	-47	249	18	-2.09699	-0.18609	-1.49863
52445	1	-434	-262	-47	248	21	-1.92643	-0.18664	-1.48632
52563	-153	-699	-111	-48	248	19	-2.94250	-0.19064	-1.49433
52684	-511	-400	-260	-51	249	20	-2.77100	-0.20139	-1.49065
52813	-190	1	-491	-47	249	19	-1.94705	-0.18603	-1.49464
52942	-23	-537	-205	-46	248	18	-2.20869	-0.18293	-1.49834
53063	-439	-630	-140	-46	250	18	-2.97072	-0.18151	-1.49892
53186	-377	-44	-458	-46	248	20	-2.27574	-0.18282	-1.49033
53305	2	-252	-363	-47	249	18	-1.71341	-0.18609	-1.49863
53424	-41	-569	-186	-47	250	20	-2.38217	-0.18525	-1.49097
53544	-448	-616	-145	-46	249	17	-2.95821	-0.18226	-1.50263
53667	-378	-45	-457	-47	248	19	-2.27766	-0.18676	-1.49433
53794	-2	-233	-370	-47	249	19	-1.71261	-0.18603	-1.49464
53913	-213	-728	-93	-47	248	21	-3.05137	-0.18664	-1.48632
54034	-425	-652	-127	-48	250	18	-2.99517	-0.18921	-1.49892
54157	-418	-88	-433	-48	247	19	-2.36598	-0.19139	-1.49402
54278	-27	-153	-411	-46	248	19	-1.72039	-0.18288	-1.49433
54398	-139	-692	-118	-47	249	19	-2.90180	-0.18603	-1.49464
54532	-496	-497	-211	-50	247	17	-2.84980	-0.19927	-1.50208
54654	-311	-3	-481	-51	249	15	-2.14589	-0.20167	-1.51063
54773	9	-285	-343	-49	248	17	-1.72662	-0.19462	-1.50235
54898	-40	-572	-184	-46	248	21	-2.39414	-0.18276	-1.48632
55031	-418	-655	-128	-48	248	21	-3.00757	-0.19052	-1.48632
55152	-443	-124	-411	-46	248	18	-2.42845	-0.18293	-1.49834
55275	-70	-80	-448	-46	248	19	-1.77135	-0.18288	-1.49433
55394	-57	-604	-166	-47	248	19	-2.52989	-0.18676	-1.49433
55515	-426	-644	-130	-47	250	20	-2.99742	-0.18525	-1.49097
55635	-510	-395	-263	-47	249	19	-2.75947	-0.18603	-1.49464
55758	-269	7	-489	-48	248	18	-2.07519	-0.19070	-1.49834
55877	10	-298	-335	-48	249	20	-1.73474	-0.18984	-1.49065
56002	-200	-720	-98	-45	248	20	-3.02007	-0.17893	-1.49033
56123	-498	-475	-221	-45	248	22	-2.84244	-0.17881	-1.48232
56246	-341	-24	-471	-47	248	24	-2.21162	-0.18644	-1.47432
56367	-154	-9	-485	-46	248	21	-1.89192	-0.18276	-1.48632
56485	5	-436	-261	-47	249	20	-1.90933	-0.18597	-1.49065
56604	-274	-729	-90	-47	248	21	-3.07223	-0.18664	-1.48632
56725	-508	-393	-265	-46	247	22	-2.76255	-0.18342	-1.48196
56858	-298	-5	-482	-46	247	20	-2.13088	-0.18354	-1.49000
56985	-7	-209	-382	-48	247	18	-1.71152	-0.19144	-1.49805
57116	-105	-660	-133	-45	248	20	-2.79809	-0.17893	-1.49033
57237	-274	-730	-91	-48	248	18	-3.04899	-0.19070	-1.49834
57358	-506	-420	-251	-48	248	19	-2.78169	-0.19064	-1.49433
57481	-335	-21	-473	-49	247	18	-2.19595	-0.19533	-1.49805
57600	-31	-142	-417	-48	247	18	-1.72526	-0.19144	-1.49805
57720	-49	-587	-175	-47	249	17	-2.43826	-0.18614	-1.50263
57841	-357	-706	-101	-49	247	16	-3.02912	-0.19544	-1.50611
57964	-476	-552	-178	-49	246	19	-2.91172	-0.19604	-1.49371
58093	-437	-115	-420	-44	249	21	-2.41106	-0.17429	-1.48666
58214	-130	-17	-484	-49	248	16	-1.84750	-0.19467	-1.50637
58335	21	-395	-282	-47	249	16	-1.78488	-0.18618	-1.50663
58454	-187	-737	-85	-50	248	14	-3.01084	-0.19864	-1.51440
58574	-481	-597	-153	-49	249	12	-2.93375	-0.19408	-1.52264
58697	-525	-378	-276	-48	248	12	-2.72999	-0.19097	-1.52245
58818	-341	-5	-485	-50	249	12	-2.18287	-0.19794	-1.52264
58939	-43	-83	-447	-49	247	12	-1.71115	-0.19561	-1.52225
59058	7	-502	-221	-48	249	15	-2.01371	-0.19010	-1.51063
59207	-242	-751	-82	-50	250	16	-3.05386	-0.19700	-1.50688
59328	-489	-547	-190	-49	246	21	-2.90372	-0.19592	-1.48564
59449	-461	-140	-407	-49	246	18	-2.45741	-0.19610	-1.49776
59572	-342	-8	-482	-51	247	18	-2.19199	-0.20309	-1.49805
59691	-66	-66	-457	-51	249	12	-1.75036	-0.20180	-1.52264
59809	16	-438	-257	-50	250	14	-1.87456	-0.19709	-1.51485
59930	-178	-728	-96	-49	250	15	-2.97746	-0.19321	-1.51087
60049	-437	-647	-135	-48	248	15	-2.97028	-0.19084	-1.51039
60192	-507	-287	-328	-47	249	16	-2.63380	-0.18618	-1.50663
60313	-325	-5	-486	-51	247	20	-2.16530	-0.20297	-1.49000
60432	-190	15	-500	-48	248	14	-1.93226	-0.19089	-1.51440
60553	3	-209	-383	-48	249	15	-1.68077	-0.19010	-1.51063
60669	-27	-567	-188	-51	246	14	-2.31560	-0.20410	-1.51395
60790	-250	-743	-87	-49	249	16	-3.04129	-0.19391	-1.50663
60911	-469	-597	-162	-47	247	16	-2.93033	-0.18765	-1.50611
61034	-515	-435	-248	-48	248	15	-2.78324	-0.19084	-1.51039
61155	-437	-107	-429	-48	250	18	-2.39600	-0.18921	-1.49892
61284	-210	15	-501	-48	248	16	-1.96686	-0.19080	-1.50637
61415	-17	-156	-412	-46	249	16	-1.69414	-0.18231	-1.50663
61548	0	-478	-238	-50	249	16	-2.00818	-0.19777	-1.50663
61667	-161	-714	-105	-47	246	17	-2.95423	-0.18834	-1.50180
61788	-385	-702	-106	-51	246	17	-3.03182	-0.20395	-1.50180
61911	-514	-460	-236	-49	246	16	-2.80966	-0.19621	-1.50585
62031	-514	-303	-322	-51	247	17	-2.65570	-0.20315	-1.50208
62154	-385	-45	-465	-49	249	16	-2.27554	-0.19391	-1.50663
62275	-174	9	-497	-50	247	16	-1.90989	-0.19932	-1.50611
62400	-12	-168	-407	-48	249	15	-1.69161	-0.19010	-1.51063
62521	8	-456	-251	-51	248	14	-1.93826	-0.20250	-1.51440
62638	-42	-586	-179	-51	246	16	-2.42668	-0.20400	-1.50585
62758	-219	-741	-92	-48	249	17	-3.02602	-0.19000	-1.50263
62879	-409	-686	-117	-46	249	17	-3.00972	-0.18226	-1.50263
63002	-514	-464	-234	-48	247	17	-2.81532	-0.19150	-1.50208
63123	-488	-196	-382	-52	247	15	-2.52623	-0.20713	-1.51014
63246	-345	-11	-485	-51	247	16	-2.19275	-0.20320	-1.50611
63367	-254	20	-502	-50	249	17	-2.03564	-0.19772	-1.50263
63537	-21	-144	-419	-50	247	17	-1.70407	-0.19927	-1.50208
63657	15	-385	-289	-51	247	15	-1.81625	-0.20325	-1.51014
63776	-59	-609	-165	-49	248	18	-2.54561	-0.19457	-1.49834
63909	-206	-734	-92	-50	247	18	-3.03171	-0.19922	-1.49805
64030	-288	-742	-85	-51	248	15	-3.04917	-0.20246	-1.51039
64151	-437	-653	-131	-49	249	14	-2.97385	-0.19401	-1.51463
64272	-516	-464	-235	-49	249	16	-2.81193	-0.19391	-1.50663
64395	-503	-242	-355	-49	250	15	-2.58325	-0.19321	-1.51087
64524	-409	-64	-455	-46	248	17	-2.32156	-0.18298	-1.50235
64645	-265	17	-502	-44	250	16	-2.05430	-0.17387	-1.50688
64763	-189	11	-501	-48	249	15	-1.93207	-0.19010	-1.51063
64882	-65	-79	-455	-47	248	13	-1.75302	-0.18704	-1.51842
65003	8	-248	-365	-50	247	17	-1.70282	-0.19927	-1.50208
65122	5	-443	-257	-49	248	17	-1.92638	-0.19462	-1.50235
65239	-20	-534	-207	-50	247	18	-2.22284	-0.19922	-1.49805
65359	-113	-676	-129	-48	249	16	-2.79974	-0.19005	-1.50663
65482	-237	-741	-91	-48	247	16	-3.02753	-0.19155	-1.50611
65636	-361	-719	-100	-47	249	18	-3.04391	-0.18609	-1.49863
65759	-461	-625	-151	-48	250	13	-2.93750	-0.18944	-1.51884
65880	-514	-477	-231	-49	249	15	-2.81640	-0.19396	-1.51063
66002	-517	-313	-319	-47	250	16	-2.65901	-0.18546	-1.50688
66123	-475	-164	-401	-50	248	15	-2.48136	-0.19859	-1.51039
66258	-393	-49	-464	-47	248	17	-2.28841	-0.18687	-1.50235
66379	-296	10	-499	-48	249	15	-2.10416	-0.19010	-1.51063
66498	-244	17	-505	-47	248	15	-2.01801	-0.18696	-1.51039
66617	-146	-5	-494	-46	251	13	-1.86446	-0.18102	-1.51905
66744	-58	-89	-451	-48	249	16	-1.74717	-0.19005	-1.50663
66863	3	-240	-370	-47	251	15	-1.69722	-0.18479	-1.51111
66981	7	-433	-264	-51	247	16	-1.91267	-0.20320	-1.50611
67100	-21	-532	-209	-49	248	15	-2.19001	-0.19472	-1.51039
67221	-137	-693	-118	-50	249	16	-2.87802	-0.19777	-1.50663
67342	-307	-737	-90	-50	247	17	-3.05429	-0.19927	-1.50208
67463	-465	-613	-155	-50	247	17	-2.94960	-0.19927	-1.50208
67586	-523	-349	-301	-51	248	16	-2.69892	-0.20241	-1.50637
67725	-417	-77	-452	-49	249	18	-2.33905	-0.19381	-1.49863
67846	-454	12	-503	-49	248	18	-2.30126	-0.19457	-1.49834
67964	-90	-52	-468	-51	248	15	-1.79186	-0.20246	-1.51039
68085	12	-360	-302	-49	248	18	-1.79199	-0.19457	-1.49834
68204	-120	-681	-126	-50	250	14	-2.80684	-0.19709	-1.51485
68325	-390	-704	-110	-48	248	16	-3.01769	-0.19080	-1.50637
68448	-524	-363	-296	-49	248	17	-2.71049	-0.19462	-1.50235
68583	-346	-13	-486	-49	248	14	-2.19269	-0.19477	-1.51440
68702	-186	8	-501	-48	247	16	-1.92881	-0.19155	-1.50611
68839	11	-315	-327	-50	248	16	-1.74979	-0.19854	-1.50637
68964	-162	-710	-107	-51	247	16	-2.94334	-0.20320	-1.50611
69089	-479	-592	-170	-50	245	19	-2.93479	-0.20073	-1.49340
69214	-439	-106	-436	-51	248	16	-2.38858	-0.20241	-1.50637
69339	-87	-59	-465	-49	247	16	-1.79018	-0.19544	-1.50611
69464	-38	-563	-190	-47	249	17	-2.33069	-0.18614	-1.50263
69586	-405	-688	-115	-47	248	19	-3.02427	-0.18676	-1.49433
69713	-518	-454	-244	-48	249	17	-2.79981	-0.19000	-1.50263
69838	-291	4	-498	-48	249	16	-2.10035	-0.19005	-1.50663
69978	7	-340	-313	-49	247	18	-1.78776	-0.19533	-1.49805
70098	-295	-737	-90	-50	248	18	-3.05816	-0.19844	-1.49834
70223	-502	-249	-357	-48	248	17	-2.58465	-0.19075	-1.50235
70348	-98	-55	-468	-50	248	15	-1.80871	-0.19859	-1.51039
70471	-105	-660	-136	-46	249	15	-2.73680	-0.18236	-1.51063
70598	-511	-473	-235	-48	250	14	-2.80409	-0.18940	-1.51485
70723	-205	6	-500	-49	248	14	-1.96093	-0.19477	-1.51440
70846	-10	-213	-383	-49	249	16	-1.72028	-0.19391	-1.50663
70989	-497	-524	-205	-48	250	18	-2.86565	-0.18921	-1.49892
71114	-458	5	-241	-49	248	16	-2.65149	-0.19467	-1.50637
71235	-3	-242	-367	-49	246	18	-1.72791	-0.19610	-1.49776
71358	-347	-718	-102	-50	248	16	-3.02701	-0.19854	-1.50637
71485	-377	-53	-467	-49	249	17	-2.26681	-0.19386	-1.50263
71608	-3	-439	-257	-49	248	17	-1.95318	-0.19462	-1.50235
71733	-476	-560	-185	-51	247	17	-2.89542	-0.20315	-1.50208
71858	-165	-14	-488	-50	249	15	-1.90765	-0.19782	-1.51063
71981	-169	-705	-109	-50	247	16	-2.93815	-0.19932	-1.50611
72124	-457	-166	-404	-51	248	17	-2.46374	-0.20236	-1.50235
72251	3	-371	-293	-52	247	19	-1.85725	-0.20690	-1.49402
72372	-202	-716	-104	-47	247	19	-2.99615	-0.18749	-1.49402
72497	-414	-95	-442	-51	248	16	-2.35083	-0.20241	-1.50637
72622	-18	-504	-220	-52	247	19	-2.17340	-0.20690	-1.49402
72747	-510	-365	-296	-49	247	17	-2.70221	-0.19539	-1.50208
72871	5	-244	-361	-52	245	16	-1.71622	-0.20871	-1.50558
72992	-465	-583	-182	-51	250	17	-2.89908	-0.20079	-1.50290
73119	-73	-85	-447	-48	248	17	-1.78022	-0.19075	-1.50235
73248	-47	-565	-185	-43	254	2	-2.23343	-0.16770	-1.56292
73383	-136	-224	-418	-45	292	25	-1.98291	-0.15236	-1.48539
73508	-88	-408	-322	-76	269	71	-2.36405	-0.26667	-1.31274
73633	-54	-341	-493	-95	227	70	-2.11657	-0.38044	-1.27168
73758	61	-376	-555	-64	222	117	-1.83984	-0.24971	-1.08576
73881	133	-318	-707	-67	181	125	-1.73409	-0.29566	-0.96640
74008	178	-378	-791	-53	181	166	-1.56332	-0.21254	-0.82860
74133	70	-333	-887	-108	217	113	-1.90628	-0.41570	-1.09070
74276	-45	-417	-818	-124	208	129	-2.26429	-0.46894	-1.01566
74403	-20	-466	-674	-120	185	70	-2.23830	-0.54531	-1.20907
74528	-23	-488	-660	-131	158	105	-2.59298	-0.60435	-0.98426
74655	17	-440	-590	-147	179	72	-2.33505	-0.65108	-1.18837
74778	12	-440	-597	-142	205	72	-2.23274	-0.57886	-1.23304
74903	32	-382	-592	-131	184	97	-2.28597	-0.56204	-1.08565
75028	-5	-398	-626	-133	193	93	-2.28147	-0.55558	-1.12176
75153	9	-374	-589	-132	205	83	-2.18037	-0.53809	-1.18609
75276	4	-324	-662	-119	241	103	-2.01157	-0.42621	-1.16691
75407	88	-156	-898	-99	142	231	-2.12269	-0.35007	-0.55117
75530	-13	-618	-728	-80	193	72	-2.16344	-0.37043	-1.21373
75655	-38	-789	-36	-128	178	-5	3.02364	-0.62324	-1.59888
75790	1	-608	284	-211	116	-113	2.72725	-0.91619	-2.34309
75913	15	-550	345	-180	150	4	2.41637	-0.87588	-1.54414
76034	-15	-493	411	-180	157	-113	-3.03999	-0.74943	-2.19465
76161	-58	-532	381	-161	188	-82	-2.84120	-0.66551	-1.98209
76285	-83	-561	362	-159	188	-56	-2.76193	-0.68114	-1.86030
76423	-91	-570	368	-150	201	-70	-2.80277	-0.61391	-1.90592
